{
    "asset" : {
        "generator" : "Khronos glTF Blender I/O v1.7.33",
        "version" : "2.0"
    },
    "scene" : 0,
    "scenes" : [
        {
            "name" : "Scene",
            "nodes" : [
                26
            ]
        }
    ],
    "nodes" : [
        {
            "mesh" : 0,
            "name" : "polySurface10466"
        },
        {
            "mesh" : 1,
            "name" : "polySurface9194"
        },
        {
            "mesh" : 2,
            "name" : "polySurface9195"
        },
        {
            "mesh" : 3,
            "name" : "polySurface9196"
        },
        {
            "mesh" : 4,
            "name" : "polySurface9201"
        },
        {
            "mesh" : 5,
            "name" : "polySurface9202"
        },
        {
            "mesh" : 6,
            "name" : "polySurface9203"
        },
        {
            "mesh" : 7,
            "name" : "polySurface9204"
        },
        {
            "mesh" : 8,
            "name" : "polySurface9205"
        },
        {
            "mesh" : 9,
            "name" : "polySurface9206"
        },
        {
            "mesh" : 10,
            "name" : "polySurface9207"
        },
        {
            "mesh" : 11,
            "name" : "polySurface9208"
        },
        {
            "mesh" : 12,
            "name" : "polySurface9209"
        },
        {
            "mesh" : 13,
            "name" : "polySurface9210"
        },
        {
            "mesh" : 14,
            "name" : "polySurface9211"
        },
        {
            "mesh" : 15,
            "name" : "polySurface9212"
        },
        {
            "mesh" : 16,
            "name" : "polySurface9213"
        },
        {
            "mesh" : 17,
            "name" : "polySurface9214"
        },
        {
            "mesh" : 18,
            "name" : "polySurface9215"
        },
        {
            "mesh" : 19,
            "name" : "polySurface9216"
        },
        {
            "mesh" : 20,
            "name" : "polySurface9217"
        },
        {
            "mesh" : 21,
            "name" : "polySurface9218"
        },
        {
            "mesh" : 22,
            "name" : "polySurface9219"
        },
        {
            "mesh" : 23,
            "name" : "polySurface9220"
        },
        {
            "children" : [
                0,
                1,
                2,
                3,
                4,
                5,
                6,
                7,
                8,
                9,
                10,
                11,
                12,
                13,
                14,
                15,
                16,
                17,
                18,
                19,
                20,
                21,
                22,
                23
            ],
            "name" : "huiyijiancai"
        },
        {
            "children" : [
                24
            ],
            "name" : "qiye"
        },
        {
            "children" : [
                25
            ],
            "name" : "jinluo",
            "rotation" : [
                0.7071068286895752,
                0,
                0,
                0.7071067094802856
            ],
            "scale" : [
                0.009999999776482582,
                0.009999999776482582,
                0.009999999776482582
            ]
        }
    ],
    "materials" : [
        {
            "doubleSided" : true,
            "emissiveFactor" : [
                1,
                1,
                1
            ],
            "emissiveTexture" : {
                "index" : 0
            },
            "name" : "lambert24",
            "pbrMetallicRoughness" : {
                "baseColorTexture" : {
                    "index" : 1
                },
                "metallicFactor" : 0
            }
        },
        {
            "doubleSided" : true,
            "emissiveFactor" : [
                1,
                1,
                1
            ],
            "emissiveTexture" : {
                "index" : 2
            },
            "name" : "baiqi",
            "pbrMetallicRoughness" : {
                "baseColorTexture" : {
                    "index" : 3
                },
                "metallicFactor" : 0
            }
        },
        {
            "doubleSided" : true,
            "emissiveFactor" : [
                0.6000000238418579,
                0.6000000238418579,
                0.6000000238418579
            ],
            "emissiveTexture" : {
                "index" : 4
            },
            "name" : "roof_3",
            "pbrMetallicRoughness" : {
                "baseColorTexture" : {
                    "index" : 5
                },
                "metallicFactor" : 0
            }
        },
        {
            "doubleSided" : true,
            "emissiveFactor" : [
                0.5,
                0.5,
                0.5
            ],
            "emissiveTexture" : {
                "index" : 6
            },
            "name" : "roof_5",
            "pbrMetallicRoughness" : {
                "baseColorTexture" : {
                    "index" : 7
                },
                "metallicFactor" : 0.2590909004211426
            }
        },
        {
            "doubleSided" : true,
            "name" : "shuini",
            "pbrMetallicRoughness" : {
                "baseColorTexture" : {
                    "index" : 8
                },
                "metallicFactor" : 0
            }
        }
    ],
    "meshes" : [
        {
            "name" : "\u7f51\u683c.1110",
            "primitives" : [
                {
                    "attributes" : {
                        "POSITION" : 0,
                        "NORMAL" : 1,
                        "TEXCOORD_0" : 2
                    },
                    "indices" : 3,
                    "material" : 0
                }
            ]
        },
        {
            "name" : "\u7f51\u683c.1091",
            "primitives" : [
                {
                    "attributes" : {
                        "POSITION" : 4,
                        "NORMAL" : 5,
                        "TEXCOORD_0" : 6
                    },
                    "indices" : 7,
                    "material" : 1
                },
                {
                    "attributes" : {
                        "POSITION" : 8,
                        "NORMAL" : 9,
                        "TEXCOORD_0" : 10
                    },
                    "indices" : 11,
                    "material" : 2
                }
            ]
        },
        {
            "name" : "\u7f51\u683c.1089",
            "primitives" : [
                {
                    "attributes" : {
                        "POSITION" : 12,
                        "NORMAL" : 13,
                        "TEXCOORD_0" : 14
                    },
                    "indices" : 7,
                    "material" : 1
                },
                {
                    "attributes" : {
                        "POSITION" : 15,
                        "NORMAL" : 16,
                        "TEXCOORD_0" : 17
                    },
                    "indices" : 11,
                    "material" : 2
                }
            ]
        },
        {
            "name" : "\u7f51\u683c.1090",
            "primitives" : [
                {
                    "attributes" : {
                        "POSITION" : 18,
                        "NORMAL" : 19,
                        "TEXCOORD_0" : 20
                    },
                    "indices" : 7,
                    "material" : 1
                },
                {
                    "attributes" : {
                        "POSITION" : 21,
                        "NORMAL" : 22,
                        "TEXCOORD_0" : 23
                    },
                    "indices" : 11,
                    "material" : 2
                }
            ]
        },
        {
            "name" : "\u7f51\u683c.1087",
            "primitives" : [
                {
                    "attributes" : {
                        "POSITION" : 24,
                        "NORMAL" : 25,
                        "TEXCOORD_0" : 26
                    },
                    "indices" : 7,
                    "material" : 1
                },
                {
                    "attributes" : {
                        "POSITION" : 27,
                        "NORMAL" : 28,
                        "TEXCOORD_0" : 29
                    },
                    "indices" : 11,
                    "material" : 3
                }
            ]
        },
        {
            "name" : "\u7f51\u683c.1093",
            "primitives" : [
                {
                    "attributes" : {
                        "POSITION" : 30,
                        "NORMAL" : 31,
                        "TEXCOORD_0" : 32
                    },
                    "indices" : 7,
                    "material" : 1
                },
                {
                    "attributes" : {
                        "POSITION" : 33,
                        "NORMAL" : 34,
                        "TEXCOORD_0" : 35
                    },
                    "indices" : 36,
                    "material" : 4
                }
            ]
        },
        {
            "name" : "\u7f51\u683c.1098",
            "primitives" : [
                {
                    "attributes" : {
                        "POSITION" : 37,
                        "NORMAL" : 38,
                        "TEXCOORD_0" : 39
                    },
                    "indices" : 40,
                    "material" : 1
                },
                {
                    "attributes" : {
                        "POSITION" : 41,
                        "NORMAL" : 42,
                        "TEXCOORD_0" : 43
                    },
                    "indices" : 11,
                    "material" : 3
                }
            ]
        },
        {
            "name" : "\u7f51\u683c.1103",
            "primitives" : [
                {
                    "attributes" : {
                        "POSITION" : 44,
                        "NORMAL" : 45,
                        "TEXCOORD_0" : 46
                    },
                    "indices" : 40,
                    "material" : 1
                },
                {
                    "attributes" : {
                        "POSITION" : 47,
                        "NORMAL" : 48,
                        "TEXCOORD_0" : 49
                    },
                    "indices" : 11,
                    "material" : 3
                }
            ]
        },
        {
            "name" : "\u7f51\u683c.1094",
            "primitives" : [
                {
                    "attributes" : {
                        "POSITION" : 50,
                        "NORMAL" : 51,
                        "TEXCOORD_0" : 52
                    },
                    "indices" : 40,
                    "material" : 1
                },
                {
                    "attributes" : {
                        "POSITION" : 53,
                        "NORMAL" : 54,
                        "TEXCOORD_0" : 55
                    },
                    "indices" : 11,
                    "material" : 4
                }
            ]
        },
        {
            "name" : "\u7f51\u683c.1092",
            "primitives" : [
                {
                    "attributes" : {
                        "POSITION" : 56,
                        "NORMAL" : 57,
                        "TEXCOORD_0" : 58
                    },
                    "indices" : 40,
                    "material" : 1
                },
                {
                    "attributes" : {
                        "POSITION" : 59,
                        "NORMAL" : 60,
                        "TEXCOORD_0" : 61
                    },
                    "indices" : 11,
                    "material" : 4
                }
            ]
        },
        {
            "name" : "\u7f51\u683c.1107",
            "primitives" : [
                {
                    "attributes" : {
                        "POSITION" : 62,
                        "NORMAL" : 63,
                        "TEXCOORD_0" : 64
                    },
                    "indices" : 65,
                    "material" : 1
                },
                {
                    "attributes" : {
                        "POSITION" : 66,
                        "NORMAL" : 67,
                        "TEXCOORD_0" : 68
                    },
                    "indices" : 11,
                    "material" : 2
                }
            ]
        },
        {
            "name" : "\u7f51\u683c.1104",
            "primitives" : [
                {
                    "attributes" : {
                        "POSITION" : 69,
                        "NORMAL" : 70,
                        "TEXCOORD_0" : 71
                    },
                    "indices" : 65,
                    "material" : 1
                },
                {
                    "attributes" : {
                        "POSITION" : 72,
                        "NORMAL" : 73,
                        "TEXCOORD_0" : 74
                    },
                    "indices" : 11,
                    "material" : 2
                }
            ]
        },
        {
            "name" : "\u7f51\u683c.1105",
            "primitives" : [
                {
                    "attributes" : {
                        "POSITION" : 75,
                        "NORMAL" : 76,
                        "TEXCOORD_0" : 77
                    },
                    "indices" : 65,
                    "material" : 1
                },
                {
                    "attributes" : {
                        "POSITION" : 78,
                        "NORMAL" : 79,
                        "TEXCOORD_0" : 80
                    },
                    "indices" : 11,
                    "material" : 2
                }
            ]
        },
        {
            "name" : "\u7f51\u683c.1095",
            "primitives" : [
                {
                    "attributes" : {
                        "POSITION" : 81,
                        "NORMAL" : 82,
                        "TEXCOORD_0" : 83
                    },
                    "indices" : 65,
                    "material" : 1
                },
                {
                    "attributes" : {
                        "POSITION" : 84,
                        "NORMAL" : 85,
                        "TEXCOORD_0" : 86
                    },
                    "indices" : 11,
                    "material" : 2
                }
            ]
        },
        {
            "name" : "\u7f51\u683c.1106",
            "primitives" : [
                {
                    "attributes" : {
                        "POSITION" : 87,
                        "NORMAL" : 88,
                        "TEXCOORD_0" : 89
                    },
                    "indices" : 90,
                    "material" : 1
                },
                {
                    "attributes" : {
                        "POSITION" : 91,
                        "NORMAL" : 92,
                        "TEXCOORD_0" : 93
                    },
                    "indices" : 94,
                    "material" : 2
                }
            ]
        },
        {
            "name" : "\u7f51\u683c.1100",
            "primitives" : [
                {
                    "attributes" : {
                        "POSITION" : 95,
                        "NORMAL" : 96,
                        "TEXCOORD_0" : 97
                    },
                    "indices" : 65,
                    "material" : 1
                },
                {
                    "attributes" : {
                        "POSITION" : 98,
                        "NORMAL" : 99,
                        "TEXCOORD_0" : 100
                    },
                    "indices" : 11,
                    "material" : 2
                }
            ]
        },
        {
            "name" : "\u7f51\u683c.1096",
            "primitives" : [
                {
                    "attributes" : {
                        "POSITION" : 101,
                        "NORMAL" : 102,
                        "TEXCOORD_0" : 103
                    },
                    "indices" : 65,
                    "material" : 1
                },
                {
                    "attributes" : {
                        "POSITION" : 104,
                        "NORMAL" : 105,
                        "TEXCOORD_0" : 106
                    },
                    "indices" : 11,
                    "material" : 2
                }
            ]
        },
        {
            "name" : "\u7f51\u683c.1097",
            "primitives" : [
                {
                    "attributes" : {
                        "POSITION" : 107,
                        "NORMAL" : 108,
                        "TEXCOORD_0" : 109
                    },
                    "indices" : 65,
                    "material" : 1
                },
                {
                    "attributes" : {
                        "POSITION" : 110,
                        "NORMAL" : 111,
                        "TEXCOORD_0" : 112
                    },
                    "indices" : 11,
                    "material" : 2
                }
            ]
        },
        {
            "name" : "\u7f51\u683c.1102",
            "primitives" : [
                {
                    "attributes" : {
                        "POSITION" : 113,
                        "NORMAL" : 114,
                        "TEXCOORD_0" : 115
                    },
                    "indices" : 40,
                    "material" : 1
                },
                {
                    "attributes" : {
                        "POSITION" : 116,
                        "NORMAL" : 117,
                        "TEXCOORD_0" : 118
                    },
                    "indices" : 11,
                    "material" : 2
                }
            ]
        },
        {
            "name" : "\u7f51\u683c.1099",
            "primitives" : [
                {
                    "attributes" : {
                        "POSITION" : 119,
                        "NORMAL" : 120,
                        "TEXCOORD_0" : 121
                    },
                    "indices" : 40,
                    "material" : 1
                },
                {
                    "attributes" : {
                        "POSITION" : 122,
                        "NORMAL" : 123,
                        "TEXCOORD_0" : 124
                    },
                    "indices" : 11,
                    "material" : 2
                }
            ]
        },
        {
            "name" : "\u7f51\u683c.1101",
            "primitives" : [
                {
                    "attributes" : {
                        "POSITION" : 125,
                        "NORMAL" : 126,
                        "TEXCOORD_0" : 127
                    },
                    "indices" : 7,
                    "material" : 1
                },
                {
                    "attributes" : {
                        "POSITION" : 128,
                        "NORMAL" : 129,
                        "TEXCOORD_0" : 130
                    },
                    "indices" : 11,
                    "material" : 2
                }
            ]
        },
        {
            "name" : "\u7f51\u683c.1088",
            "primitives" : [
                {
                    "attributes" : {
                        "POSITION" : 131,
                        "NORMAL" : 132,
                        "TEXCOORD_0" : 133
                    },
                    "indices" : 134,
                    "material" : 1
                },
                {
                    "attributes" : {
                        "POSITION" : 135,
                        "NORMAL" : 136,
                        "TEXCOORD_0" : 137
                    },
                    "indices" : 11,
                    "material" : 2
                }
            ]
        },
        {
            "name" : "\u7f51\u683c.1109",
            "primitives" : [
                {
                    "attributes" : {
                        "POSITION" : 138,
                        "NORMAL" : 139,
                        "TEXCOORD_0" : 140
                    },
                    "indices" : 7,
                    "material" : 1
                },
                {
                    "attributes" : {
                        "POSITION" : 141,
                        "NORMAL" : 142,
                        "TEXCOORD_0" : 143
                    },
                    "indices" : 11,
                    "material" : 2
                }
            ]
        },
        {
            "name" : "\u7f51\u683c.1108",
            "primitives" : [
                {
                    "attributes" : {
                        "POSITION" : 144,
                        "NORMAL" : 145,
                        "TEXCOORD_0" : 146
                    },
                    "indices" : 7,
                    "material" : 1
                },
                {
                    "attributes" : {
                        "POSITION" : 147,
                        "NORMAL" : 148,
                        "TEXCOORD_0" : 149
                    },
                    "indices" : 11,
                    "material" : 2
                }
            ]
        }
    ],
    "textures" : [
        {
            "sampler" : 0,
            "source" : 0
        },
        {
            "sampler" : 0,
            "source" : 0
        },
        {
            "sampler" : 0,
            "source" : 1
        },
        {
            "sampler" : 0,
            "source" : 1
        },
        {
            "sampler" : 0,
            "source" : 2
        },
        {
            "sampler" : 0,
            "source" : 2
        },
        {
            "sampler" : 0,
            "source" : 3
        },
        {
            "sampler" : 0,
            "source" : 3
        },
        {
            "sampler" : 0,
            "source" : 4
        }
    ],
    "images" : [
        {
            "mimeType" : "image/jpeg",
            "name" : "land_shadow1",
            "uri" : "land_shadow1.jpg"
        },
        {
            "mimeType" : "image/jpeg",
            "name" : "baiqiang_clorl",
            "uri" : "baiqiang_clorl.jpg"
        },
        {
            "mimeType" : "image/jpeg",
            "name" : "houseTop",
            "uri" : "houseTop.jpg"
        },
        {
            "mimeType" : "image/jpeg",
            "name" : "houseTop1",
            "uri" : "houseTop1.jpg"
        },
        {
            "mimeType" : "image/jpeg",
            "name" : "jinluozhen13:jinluozhen7:jinluozhen:jinluozhen:yitai_fe_e8cc355",
            "uri" : "jinluozhen13jinluozhen7jinluozhenjinluozhenyitai_fe_e8cc355.jpg"
        }
    ],
    "accessors" : [
        {
            "bufferView" : 0,
            "componentType" : 5126,
            "count" : 215,
            "max" : [
                841657.75,
                504024.25,
                -26085.615234375
            ],
            "min" : [
                808394.8125,
                489335.0625,
                -26655.373046875
            ],
            "type" : "VEC3"
        },
        {
            "bufferView" : 1,
            "componentType" : 5126,
            "count" : 215,
            "type" : "VEC3"
        },
        {
            "bufferView" : 2,
            "componentType" : 5126,
            "count" : 215,
            "type" : "VEC2"
        },
        {
            "bufferView" : 3,
            "componentType" : 5123,
            "count" : 474,
            "type" : "SCALAR"
        },
        {
            "bufferView" : 4,
            "componentType" : 5126,
            "count" : 16,
            "max" : [
                827389.875,
                503014.8125,
                -26620.365234375
            ],
            "min" : [
                825442.5,
                501748.9375,
                -27335.53515625
            ],
            "type" : "VEC3"
        },
        {
            "bufferView" : 5,
            "componentType" : 5126,
            "count" : 16,
            "type" : "VEC3"
        },
        {
            "bufferView" : 6,
            "componentType" : 5126,
            "count" : 16,
            "type" : "VEC2"
        },
        {
            "bufferView" : 7,
            "componentType" : 5123,
            "count" : 24,
            "type" : "SCALAR"
        },
        {
            "bufferView" : 8,
            "componentType" : 5126,
            "count" : 4,
            "max" : [
                827389.875,
                503014.8125,
                -27335.53515625
            ],
            "min" : [
                825442.5,
                501748.9375,
                -27335.53515625
            ],
            "type" : "VEC3"
        },
        {
            "bufferView" : 9,
            "componentType" : 5126,
            "count" : 4,
            "type" : "VEC3"
        },
        {
            "bufferView" : 10,
            "componentType" : 5126,
            "count" : 4,
            "type" : "VEC2"
        },
        {
            "bufferView" : 11,
            "componentType" : 5123,
            "count" : 6,
            "type" : "SCALAR"
        },
        {
            "bufferView" : 12,
            "componentType" : 5126,
            "count" : 16,
            "max" : [
                829127.25,
                502359.6875,
                -26620.373046875
            ],
            "min" : [
                827713.875,
                501248.4375,
                -27335.53515625
            ],
            "type" : "VEC3"
        },
        {
            "bufferView" : 13,
            "componentType" : 5126,
            "count" : 16,
            "type" : "VEC3"
        },
        {
            "bufferView" : 14,
            "componentType" : 5126,
            "count" : 16,
            "type" : "VEC2"
        },
        {
            "bufferView" : 15,
            "componentType" : 5126,
            "count" : 4,
            "max" : [
                829127.25,
                502359.6875,
                -27335.53515625
            ],
            "min" : [
                827713.875,
                501248.4375,
                -27335.53515625
            ],
            "type" : "VEC3"
        },
        {
            "bufferView" : 16,
            "componentType" : 5126,
            "count" : 4,
            "type" : "VEC3"
        },
        {
            "bufferView" : 17,
            "componentType" : 5126,
            "count" : 4,
            "type" : "VEC2"
        },
        {
            "bufferView" : 18,
            "componentType" : 5126,
            "count" : 16,
            "max" : [
                827874.1875,
                502289.4375,
                -26620.365234375
            ],
            "min" : [
                827175.9375,
                501620.1875,
                -27811.13671875
            ],
            "type" : "VEC3"
        },
        {
            "bufferView" : 19,
            "componentType" : 5126,
            "count" : 16,
            "type" : "VEC3"
        },
        {
            "bufferView" : 20,
            "componentType" : 5126,
            "count" : 16,
            "type" : "VEC2"
        },
        {
            "bufferView" : 21,
            "componentType" : 5126,
            "count" : 4,
            "max" : [
                827874.1875,
                502289.4375,
                -27811.13671875
            ],
            "min" : [
                827175.9375,
                501620.1875,
                -27811.13671875
            ],
            "type" : "VEC3"
        },
        {
            "bufferView" : 22,
            "componentType" : 5126,
            "count" : 4,
            "type" : "VEC3"
        },
        {
            "bufferView" : 23,
            "componentType" : 5126,
            "count" : 4,
            "type" : "VEC2"
        },
        {
            "bufferView" : 24,
            "componentType" : 5126,
            "count" : 16,
            "max" : [
                830318.3125,
                502017.3125,
                -26620.373046875
            ],
            "min" : [
                828905.125,
                500906.0625,
                -27335.53515625
            ],
            "type" : "VEC3"
        },
        {
            "bufferView" : 25,
            "componentType" : 5126,
            "count" : 16,
            "type" : "VEC3"
        },
        {
            "bufferView" : 26,
            "componentType" : 5126,
            "count" : 16,
            "type" : "VEC2"
        },
        {
            "bufferView" : 27,
            "componentType" : 5126,
            "count" : 4,
            "max" : [
                830318.3125,
                502017.3125,
                -27335.53515625
            ],
            "min" : [
                828905.125,
                500906.0625,
                -27335.53515625
            ],
            "type" : "VEC3"
        },
        {
            "bufferView" : 28,
            "componentType" : 5126,
            "count" : 4,
            "type" : "VEC3"
        },
        {
            "bufferView" : 29,
            "componentType" : 5126,
            "count" : 4,
            "type" : "VEC2"
        },
        {
            "bufferView" : 30,
            "componentType" : 5126,
            "count" : 16,
            "max" : [
                821126.875,
                493519.0625,
                -26085.61328125
            ],
            "min" : [
                817736.875,
                490472.3125,
                -27120.896484375
            ],
            "type" : "VEC3"
        },
        {
            "bufferView" : 31,
            "componentType" : 5126,
            "count" : 16,
            "type" : "VEC3"
        },
        {
            "bufferView" : 32,
            "componentType" : 5126,
            "count" : 16,
            "type" : "VEC2"
        },
        {
            "bufferView" : 33,
            "componentType" : 5126,
            "count" : 28,
            "max" : [
                821126.875,
                493519.0625,
                -27093.529296875
            ],
            "min" : [
                817736.875,
                490472.3125,
                -27120.896484375
            ],
            "type" : "VEC3"
        },
        {
            "bufferView" : 34,
            "componentType" : 5126,
            "count" : 28,
            "type" : "VEC3"
        },
        {
            "bufferView" : 35,
            "componentType" : 5126,
            "count" : 28,
            "type" : "VEC2"
        },
        {
            "bufferView" : 36,
            "componentType" : 5123,
            "count" : 54,
            "type" : "SCALAR"
        },
        {
            "bufferView" : 37,
            "componentType" : 5126,
            "count" : 16,
            "max" : [
                822016.6875,
                491303.03125,
                -26085.615234375
            ],
            "min" : [
                820031.8125,
                489239.53125,
                -26604.75390625
            ],
            "type" : "VEC3"
        },
        {
            "bufferView" : 38,
            "componentType" : 5126,
            "count" : 16,
            "type" : "VEC3"
        },
        {
            "bufferView" : 39,
            "componentType" : 5126,
            "count" : 16,
            "type" : "VEC2"
        },
        {
            "bufferView" : 40,
            "componentType" : 5123,
            "count" : 24,
            "type" : "SCALAR"
        },
        {
            "bufferView" : 41,
            "componentType" : 5126,
            "count" : 4,
            "max" : [
                822016.6875,
                491303.03125,
                -26604.75390625
            ],
            "min" : [
                820031.8125,
                489239.53125,
                -26604.75390625
            ],
            "type" : "VEC3"
        },
        {
            "bufferView" : 42,
            "componentType" : 5126,
            "count" : 4,
            "type" : "VEC3"
        },
        {
            "bufferView" : 43,
            "componentType" : 5126,
            "count" : 4,
            "type" : "VEC2"
        },
        {
            "bufferView" : 44,
            "componentType" : 5126,
            "count" : 16,
            "max" : [
                820417.6875,
                492688.375,
                -26085.615234375
            ],
            "min" : [
                817131.1875,
                489743.9375,
                -26604.75390625
            ],
            "type" : "VEC3"
        },
        {
            "bufferView" : 45,
            "componentType" : 5126,
            "count" : 16,
            "type" : "VEC3"
        },
        {
            "bufferView" : 46,
            "componentType" : 5126,
            "count" : 16,
            "type" : "VEC2"
        },
        {
            "bufferView" : 47,
            "componentType" : 5126,
            "count" : 4,
            "max" : [
                820417.6875,
                492688.375,
                -26604.75390625
            ],
            "min" : [
                817131.1875,
                489743.9375,
                -26604.75390625
            ],
            "type" : "VEC3"
        },
        {
            "bufferView" : 48,
            "componentType" : 5126,
            "count" : 4,
            "type" : "VEC3"
        },
        {
            "bufferView" : 49,
            "componentType" : 5126,
            "count" : 4,
            "type" : "VEC2"
        },
        {
            "bufferView" : 50,
            "componentType" : 5126,
            "count" : 16,
            "max" : [
                818659.75,
                491140.5625,
                -26085.615234375
            ],
            "min" : [
                816136.3125,
                489615.4375,
                -26456.81640625
            ],
            "type" : "VEC3"
        },
        {
            "bufferView" : 51,
            "componentType" : 5126,
            "count" : 16,
            "type" : "VEC3"
        },
        {
            "bufferView" : 52,
            "componentType" : 5126,
            "count" : 16,
            "type" : "VEC2"
        },
        {
            "bufferView" : 53,
            "componentType" : 5126,
            "count" : 4,
            "max" : [
                818659.75,
                491140.5625,
                -26456.81640625
            ],
            "min" : [
                816136.3125,
                489615.4375,
                -26456.81640625
            ],
            "type" : "VEC3"
        },
        {
            "bufferView" : 54,
            "componentType" : 5126,
            "count" : 4,
            "type" : "VEC3"
        },
        {
            "bufferView" : 55,
            "componentType" : 5126,
            "count" : 4,
            "type" : "VEC2"
        },
        {
            "bufferView" : 56,
            "componentType" : 5126,
            "count" : 16,
            "max" : [
                827192.9375,
                497724.40625,
                -26620.373046875
            ],
            "min" : [
                825006.25,
                496695.03125,
                -26991.56640625
            ],
            "type" : "VEC3"
        },
        {
            "bufferView" : 57,
            "componentType" : 5126,
            "count" : 16,
            "type" : "VEC3"
        },
        {
            "bufferView" : 58,
            "componentType" : 5126,
            "count" : 16,
            "type" : "VEC2"
        },
        {
            "bufferView" : 59,
            "componentType" : 5126,
            "count" : 4,
            "max" : [
                827192.9375,
                497724.40625,
                -26991.56640625
            ],
            "min" : [
                825006.25,
                496695.03125,
                -26991.56640625
            ],
            "type" : "VEC3"
        },
        {
            "bufferView" : 60,
            "componentType" : 5126,
            "count" : 4,
            "type" : "VEC3"
        },
        {
            "bufferView" : 61,
            "componentType" : 5126,
            "count" : 4,
            "type" : "VEC2"
        },
        {
            "bufferView" : 62,
            "componentType" : 5126,
            "count" : 16,
            "max" : [
                819533.8125,
                501127.625,
                -26085.615234375
            ],
            "min" : [
                816675.375,
                498766.5,
                -26619.03515625
            ],
            "type" : "VEC3"
        },
        {
            "bufferView" : 63,
            "componentType" : 5126,
            "count" : 16,
            "type" : "VEC3"
        },
        {
            "bufferView" : 64,
            "componentType" : 5126,
            "count" : 16,
            "type" : "VEC2"
        },
        {
            "bufferView" : 65,
            "componentType" : 5123,
            "count" : 24,
            "type" : "SCALAR"
        },
        {
            "bufferView" : 66,
            "componentType" : 5126,
            "count" : 4,
            "max" : [
                819533.8125,
                501127.625,
                -26619.03515625
            ],
            "min" : [
                816675.375,
                498766.5,
                -26619.03515625
            ],
            "type" : "VEC3"
        },
        {
            "bufferView" : 67,
            "componentType" : 5126,
            "count" : 4,
            "type" : "VEC3"
        },
        {
            "bufferView" : 68,
            "componentType" : 5126,
            "count" : 4,
            "type" : "VEC2"
        },
        {
            "bufferView" : 69,
            "componentType" : 5126,
            "count" : 16,
            "max" : [
                816092.5,
                500534.0625,
                -26085.615234375
            ],
            "min" : [
                813286.25,
                498083.8125,
                -26832.63671875
            ],
            "type" : "VEC3"
        },
        {
            "bufferView" : 70,
            "componentType" : 5126,
            "count" : 16,
            "type" : "VEC3"
        },
        {
            "bufferView" : 71,
            "componentType" : 5126,
            "count" : 16,
            "type" : "VEC2"
        },
        {
            "bufferView" : 72,
            "componentType" : 5126,
            "count" : 4,
            "max" : [
                816092.5,
                500534.0625,
                -26832.63671875
            ],
            "min" : [
                813286.25,
                498083.8125,
                -26832.63671875
            ],
            "type" : "VEC3"
        },
        {
            "bufferView" : 73,
            "componentType" : 5126,
            "count" : 4,
            "type" : "VEC3"
        },
        {
            "bufferView" : 74,
            "componentType" : 5126,
            "count" : 4,
            "type" : "VEC2"
        },
        {
            "bufferView" : 75,
            "componentType" : 5126,
            "count" : 16,
            "max" : [
                815299.0625,
                499861,
                -26085.615234375
            ],
            "min" : [
                812841.6875,
                497723.1875,
                -26658.83203125
            ],
            "type" : "VEC3"
        },
        {
            "bufferView" : 76,
            "componentType" : 5126,
            "count" : 16,
            "type" : "VEC3"
        },
        {
            "bufferView" : 77,
            "componentType" : 5126,
            "count" : 16,
            "type" : "VEC2"
        },
        {
            "bufferView" : 78,
            "componentType" : 5126,
            "count" : 4,
            "max" : [
                815299.0625,
                499861,
                -26658.83203125
            ],
            "min" : [
                812841.6875,
                497723.1875,
                -26658.83203125
            ],
            "type" : "VEC3"
        },
        {
            "bufferView" : 79,
            "componentType" : 5126,
            "count" : 4,
            "type" : "VEC3"
        },
        {
            "bufferView" : 80,
            "componentType" : 5126,
            "count" : 4,
            "type" : "VEC2"
        },
        {
            "bufferView" : 81,
            "componentType" : 5126,
            "count" : 16,
            "max" : [
                817171.375,
                496925,
                -26085.615234375
            ],
            "min" : [
                815039.1875,
                495083,
                -26772.08984375
            ],
            "type" : "VEC3"
        },
        {
            "bufferView" : 82,
            "componentType" : 5126,
            "count" : 16,
            "type" : "VEC3"
        },
        {
            "bufferView" : 83,
            "componentType" : 5126,
            "count" : 16,
            "type" : "VEC2"
        },
        {
            "bufferView" : 84,
            "componentType" : 5126,
            "count" : 4,
            "max" : [
                817171.375,
                496925,
                -26772.08984375
            ],
            "min" : [
                815039.1875,
                495083,
                -26772.08984375
            ],
            "type" : "VEC3"
        },
        {
            "bufferView" : 85,
            "componentType" : 5126,
            "count" : 4,
            "type" : "VEC3"
        },
        {
            "bufferView" : 86,
            "componentType" : 5126,
            "count" : 4,
            "type" : "VEC2"
        },
        {
            "bufferView" : 87,
            "componentType" : 5126,
            "count" : 16,
            "max" : [
                818257.125,
                497990.3125,
                -26085.619140625
            ],
            "min" : [
                815470.5,
                496506.3125,
                -26658.837890625
            ],
            "type" : "VEC3"
        },
        {
            "bufferView" : 88,
            "componentType" : 5126,
            "count" : 16,
            "type" : "VEC3"
        },
        {
            "bufferView" : 89,
            "componentType" : 5126,
            "count" : 16,
            "type" : "VEC2"
        },
        {
            "bufferView" : 90,
            "componentType" : 5123,
            "count" : 30,
            "type" : "SCALAR"
        },
        {
            "bufferView" : 91,
            "componentType" : 5126,
            "count" : 5,
            "max" : [
                818257.125,
                497990.3125,
                -26658.837890625
            ],
            "min" : [
                815470.5,
                496506.3125,
                -26658.837890625
            ],
            "type" : "VEC3"
        },
        {
            "bufferView" : 92,
            "componentType" : 5126,
            "count" : 5,
            "type" : "VEC3"
        },
        {
            "bufferView" : 93,
            "componentType" : 5126,
            "count" : 5,
            "type" : "VEC2"
        },
        {
            "bufferView" : 94,
            "componentType" : 5123,
            "count" : 9,
            "type" : "SCALAR"
        },
        {
            "bufferView" : 95,
            "componentType" : 5126,
            "count" : 16,
            "max" : [
                813395.0625,
                499424.875,
                -26085.615234375
            ],
            "min" : [
                812288.25,
                498372.25,
                -26488.25390625
            ],
            "type" : "VEC3"
        },
        {
            "bufferView" : 96,
            "componentType" : 5126,
            "count" : 16,
            "type" : "VEC3"
        },
        {
            "bufferView" : 97,
            "componentType" : 5126,
            "count" : 16,
            "type" : "VEC2"
        },
        {
            "bufferView" : 98,
            "componentType" : 5126,
            "count" : 4,
            "max" : [
                813395.0625,
                499424.875,
                -26488.25390625
            ],
            "min" : [
                812288.25,
                498372.25,
                -26488.25390625
            ],
            "type" : "VEC3"
        },
        {
            "bufferView" : 99,
            "componentType" : 5126,
            "count" : 4,
            "type" : "VEC3"
        },
        {
            "bufferView" : 100,
            "componentType" : 5126,
            "count" : 4,
            "type" : "VEC2"
        },
        {
            "bufferView" : 101,
            "componentType" : 5126,
            "count" : 16,
            "max" : [
                813648.5,
                498861.1875,
                -26085.615234375
            ],
            "min" : [
                813013.375,
                498176.875,
                -26622.76953125
            ],
            "type" : "VEC3"
        },
        {
            "bufferView" : 102,
            "componentType" : 5126,
            "count" : 16,
            "type" : "VEC3"
        },
        {
            "bufferView" : 103,
            "componentType" : 5126,
            "count" : 16,
            "type" : "VEC2"
        },
        {
            "bufferView" : 104,
            "componentType" : 5126,
            "count" : 4,
            "max" : [
                813648.5,
                498861.1875,
                -26622.76953125
            ],
            "min" : [
                813013.375,
                498176.9375,
                -26622.76953125
            ],
            "type" : "VEC3"
        },
        {
            "bufferView" : 105,
            "componentType" : 5126,
            "count" : 4,
            "type" : "VEC3"
        },
        {
            "bufferView" : 106,
            "componentType" : 5126,
            "count" : 4,
            "type" : "VEC2"
        },
        {
            "bufferView" : 107,
            "componentType" : 5126,
            "count" : 16,
            "max" : [
                814319.75,
                498665.8125,
                -26085.607421875
            ],
            "min" : [
                813329.125,
                497735.5,
                -26387.02734375
            ],
            "type" : "VEC3"
        },
        {
            "bufferView" : 108,
            "componentType" : 5126,
            "count" : 16,
            "type" : "VEC3"
        },
        {
            "bufferView" : 109,
            "componentType" : 5126,
            "count" : 16,
            "type" : "VEC2"
        },
        {
            "bufferView" : 110,
            "componentType" : 5126,
            "count" : 4,
            "max" : [
                814319.75,
                498665.8125,
                -26387.02734375
            ],
            "min" : [
                813329.125,
                497735.5,
                -26387.02734375
            ],
            "type" : "VEC3"
        },
        {
            "bufferView" : 111,
            "componentType" : 5126,
            "count" : 4,
            "type" : "VEC3"
        },
        {
            "bufferView" : 112,
            "componentType" : 5126,
            "count" : 4,
            "type" : "VEC2"
        },
        {
            "bufferView" : 113,
            "componentType" : 5126,
            "count" : 16,
            "max" : [
                812552.5,
                499036.5,
                -26085.615234375
            ],
            "min" : [
                811364.875,
                498001.9375,
                -26387.02734375
            ],
            "type" : "VEC3"
        },
        {
            "bufferView" : 114,
            "componentType" : 5126,
            "count" : 16,
            "type" : "VEC3"
        },
        {
            "bufferView" : 115,
            "componentType" : 5126,
            "count" : 16,
            "type" : "VEC2"
        },
        {
            "bufferView" : 116,
            "componentType" : 5126,
            "count" : 4,
            "max" : [
                812552.5,
                499036.5,
                -26387.02734375
            ],
            "min" : [
                811364.875,
                498001.9375,
                -26387.02734375
            ],
            "type" : "VEC3"
        },
        {
            "bufferView" : 117,
            "componentType" : 5126,
            "count" : 4,
            "type" : "VEC3"
        },
        {
            "bufferView" : 118,
            "componentType" : 5126,
            "count" : 4,
            "type" : "VEC2"
        },
        {
            "bufferView" : 119,
            "componentType" : 5126,
            "count" : 16,
            "max" : [
                819248.8125,
                496590.75,
                -26085.599609375
            ],
            "min" : [
                818126.1875,
                495435.5,
                -26387.02734375
            ],
            "type" : "VEC3"
        },
        {
            "bufferView" : 120,
            "componentType" : 5126,
            "count" : 16,
            "type" : "VEC3"
        },
        {
            "bufferView" : 121,
            "componentType" : 5126,
            "count" : 16,
            "type" : "VEC2"
        },
        {
            "bufferView" : 122,
            "componentType" : 5126,
            "count" : 4,
            "max" : [
                819248.8125,
                496590.75,
                -26387.01953125
            ],
            "min" : [
                818126.1875,
                495435.5,
                -26387.02734375
            ],
            "type" : "VEC3"
        },
        {
            "bufferView" : 123,
            "componentType" : 5126,
            "count" : 4,
            "type" : "VEC3"
        },
        {
            "bufferView" : 124,
            "componentType" : 5126,
            "count" : 4,
            "type" : "VEC2"
        },
        {
            "bufferView" : 125,
            "componentType" : 5126,
            "count" : 16,
            "max" : [
                815444.75,
                494601.125,
                -26085.591796875
            ],
            "min" : [
                814094.3125,
                493934.4375,
                -26387.02734375
            ],
            "type" : "VEC3"
        },
        {
            "bufferView" : 126,
            "componentType" : 5126,
            "count" : 16,
            "type" : "VEC3"
        },
        {
            "bufferView" : 127,
            "componentType" : 5126,
            "count" : 16,
            "type" : "VEC2"
        },
        {
            "bufferView" : 128,
            "componentType" : 5126,
            "count" : 4,
            "max" : [
                815444.75,
                494601.125,
                -26387.00390625
            ],
            "min" : [
                814094.3125,
                493934.4375,
                -26387.02734375
            ],
            "type" : "VEC3"
        },
        {
            "bufferView" : 129,
            "componentType" : 5126,
            "count" : 4,
            "type" : "VEC3"
        },
        {
            "bufferView" : 130,
            "componentType" : 5126,
            "count" : 4,
            "type" : "VEC2"
        },
        {
            "bufferView" : 131,
            "componentType" : 5126,
            "count" : 16,
            "max" : [
                812149.25,
                493162.5,
                -26085.615234375
            ],
            "min" : [
                811141.4375,
                492197.875,
                -26387.07421875
            ],
            "type" : "VEC3"
        },
        {
            "bufferView" : 132,
            "componentType" : 5126,
            "count" : 16,
            "type" : "VEC3"
        },
        {
            "bufferView" : 133,
            "componentType" : 5126,
            "count" : 16,
            "type" : "VEC2"
        },
        {
            "bufferView" : 134,
            "componentType" : 5123,
            "count" : 24,
            "type" : "SCALAR"
        },
        {
            "bufferView" : 135,
            "componentType" : 5126,
            "count" : 4,
            "max" : [
                812149.25,
                493162.4375,
                -26387.02734375
            ],
            "min" : [
                811141.4375,
                492197.875,
                -26387.07421875
            ],
            "type" : "VEC3"
        },
        {
            "bufferView" : 136,
            "componentType" : 5126,
            "count" : 4,
            "type" : "VEC3"
        },
        {
            "bufferView" : 137,
            "componentType" : 5126,
            "count" : 4,
            "type" : "VEC2"
        },
        {
            "bufferView" : 138,
            "componentType" : 5126,
            "count" : 16,
            "max" : [
                809190.9375,
                490833.1875,
                -26085.615234375
            ],
            "min" : [
                808517.125,
                489764.9375,
                -26405.78515625
            ],
            "type" : "VEC3"
        },
        {
            "bufferView" : 139,
            "componentType" : 5126,
            "count" : 16,
            "type" : "VEC3"
        },
        {
            "bufferView" : 140,
            "componentType" : 5126,
            "count" : 16,
            "type" : "VEC2"
        },
        {
            "bufferView" : 141,
            "componentType" : 5126,
            "count" : 4,
            "max" : [
                809190.9375,
                490833.1875,
                -26405.78515625
            ],
            "min" : [
                808517.125,
                489764.9375,
                -26405.78515625
            ],
            "type" : "VEC3"
        },
        {
            "bufferView" : 142,
            "componentType" : 5126,
            "count" : 4,
            "type" : "VEC3"
        },
        {
            "bufferView" : 143,
            "componentType" : 5126,
            "count" : 4,
            "type" : "VEC2"
        },
        {
            "bufferView" : 144,
            "componentType" : 5126,
            "count" : 16,
            "max" : [
                809080.5,
                489825.375,
                -26085.615234375
            ],
            "min" : [
                808481.75,
                489458.25,
                -26322.19140625
            ],
            "type" : "VEC3"
        },
        {
            "bufferView" : 145,
            "componentType" : 5126,
            "count" : 16,
            "type" : "VEC3"
        },
        {
            "bufferView" : 146,
            "componentType" : 5126,
            "count" : 16,
            "type" : "VEC2"
        },
        {
            "bufferView" : 147,
            "componentType" : 5126,
            "count" : 4,
            "max" : [
                809080.5,
                489825.375,
                -26322.19140625
            ],
            "min" : [
                808481.75,
                489458.25,
                -26322.19140625
            ],
            "type" : "VEC3"
        },
        {
            "bufferView" : 148,
            "componentType" : 5126,
            "count" : 4,
            "type" : "VEC3"
        },
        {
            "bufferView" : 149,
            "componentType" : 5126,
            "count" : 4,
            "type" : "VEC2"
        }
    ],
    "bufferViews" : [
        {
            "buffer" : 0,
            "byteLength" : 2580,
            "byteOffset" : 0
        },
        {
            "buffer" : 0,
            "byteLength" : 2580,
            "byteOffset" : 2580
        },
        {
            "buffer" : 0,
            "byteLength" : 1720,
            "byteOffset" : 5160
        },
        {
            "buffer" : 0,
            "byteLength" : 948,
            "byteOffset" : 6880
        },
        {
            "buffer" : 0,
            "byteLength" : 192,
            "byteOffset" : 7828
        },
        {
            "buffer" : 0,
            "byteLength" : 192,
            "byteOffset" : 8020
        },
        {
            "buffer" : 0,
            "byteLength" : 128,
            "byteOffset" : 8212
        },
        {
            "buffer" : 0,
            "byteLength" : 48,
            "byteOffset" : 8340
        },
        {
            "buffer" : 0,
            "byteLength" : 48,
            "byteOffset" : 8388
        },
        {
            "buffer" : 0,
            "byteLength" : 48,
            "byteOffset" : 8436
        },
        {
            "buffer" : 0,
            "byteLength" : 32,
            "byteOffset" : 8484
        },
        {
            "buffer" : 0,
            "byteLength" : 12,
            "byteOffset" : 8516
        },
        {
            "buffer" : 0,
            "byteLength" : 192,
            "byteOffset" : 8528
        },
        {
            "buffer" : 0,
            "byteLength" : 192,
            "byteOffset" : 8720
        },
        {
            "buffer" : 0,
            "byteLength" : 128,
            "byteOffset" : 8912
        },
        {
            "buffer" : 0,
            "byteLength" : 48,
            "byteOffset" : 9040
        },
        {
            "buffer" : 0,
            "byteLength" : 48,
            "byteOffset" : 9088
        },
        {
            "buffer" : 0,
            "byteLength" : 32,
            "byteOffset" : 9136
        },
        {
            "buffer" : 0,
            "byteLength" : 192,
            "byteOffset" : 9168
        },
        {
            "buffer" : 0,
            "byteLength" : 192,
            "byteOffset" : 9360
        },
        {
            "buffer" : 0,
            "byteLength" : 128,
            "byteOffset" : 9552
        },
        {
            "buffer" : 0,
            "byteLength" : 48,
            "byteOffset" : 9680
        },
        {
            "buffer" : 0,
            "byteLength" : 48,
            "byteOffset" : 9728
        },
        {
            "buffer" : 0,
            "byteLength" : 32,
            "byteOffset" : 9776
        },
        {
            "buffer" : 0,
            "byteLength" : 192,
            "byteOffset" : 9808
        },
        {
            "buffer" : 0,
            "byteLength" : 192,
            "byteOffset" : 10000
        },
        {
            "buffer" : 0,
            "byteLength" : 128,
            "byteOffset" : 10192
        },
        {
            "buffer" : 0,
            "byteLength" : 48,
            "byteOffset" : 10320
        },
        {
            "buffer" : 0,
            "byteLength" : 48,
            "byteOffset" : 10368
        },
        {
            "buffer" : 0,
            "byteLength" : 32,
            "byteOffset" : 10416
        },
        {
            "buffer" : 0,
            "byteLength" : 192,
            "byteOffset" : 10448
        },
        {
            "buffer" : 0,
            "byteLength" : 192,
            "byteOffset" : 10640
        },
        {
            "buffer" : 0,
            "byteLength" : 128,
            "byteOffset" : 10832
        },
        {
            "buffer" : 0,
            "byteLength" : 336,
            "byteOffset" : 10960
        },
        {
            "buffer" : 0,
            "byteLength" : 336,
            "byteOffset" : 11296
        },
        {
            "buffer" : 0,
            "byteLength" : 224,
            "byteOffset" : 11632
        },
        {
            "buffer" : 0,
            "byteLength" : 108,
            "byteOffset" : 11856
        },
        {
            "buffer" : 0,
            "byteLength" : 192,
            "byteOffset" : 11964
        },
        {
            "buffer" : 0,
            "byteLength" : 192,
            "byteOffset" : 12156
        },
        {
            "buffer" : 0,
            "byteLength" : 128,
            "byteOffset" : 12348
        },
        {
            "buffer" : 0,
            "byteLength" : 48,
            "byteOffset" : 12476
        },
        {
            "buffer" : 0,
            "byteLength" : 48,
            "byteOffset" : 12524
        },
        {
            "buffer" : 0,
            "byteLength" : 48,
            "byteOffset" : 12572
        },
        {
            "buffer" : 0,
            "byteLength" : 32,
            "byteOffset" : 12620
        },
        {
            "buffer" : 0,
            "byteLength" : 192,
            "byteOffset" : 12652
        },
        {
            "buffer" : 0,
            "byteLength" : 192,
            "byteOffset" : 12844
        },
        {
            "buffer" : 0,
            "byteLength" : 128,
            "byteOffset" : 13036
        },
        {
            "buffer" : 0,
            "byteLength" : 48,
            "byteOffset" : 13164
        },
        {
            "buffer" : 0,
            "byteLength" : 48,
            "byteOffset" : 13212
        },
        {
            "buffer" : 0,
            "byteLength" : 32,
            "byteOffset" : 13260
        },
        {
            "buffer" : 0,
            "byteLength" : 192,
            "byteOffset" : 13292
        },
        {
            "buffer" : 0,
            "byteLength" : 192,
            "byteOffset" : 13484
        },
        {
            "buffer" : 0,
            "byteLength" : 128,
            "byteOffset" : 13676
        },
        {
            "buffer" : 0,
            "byteLength" : 48,
            "byteOffset" : 13804
        },
        {
            "buffer" : 0,
            "byteLength" : 48,
            "byteOffset" : 13852
        },
        {
            "buffer" : 0,
            "byteLength" : 32,
            "byteOffset" : 13900
        },
        {
            "buffer" : 0,
            "byteLength" : 192,
            "byteOffset" : 13932
        },
        {
            "buffer" : 0,
            "byteLength" : 192,
            "byteOffset" : 14124
        },
        {
            "buffer" : 0,
            "byteLength" : 128,
            "byteOffset" : 14316
        },
        {
            "buffer" : 0,
            "byteLength" : 48,
            "byteOffset" : 14444
        },
        {
            "buffer" : 0,
            "byteLength" : 48,
            "byteOffset" : 14492
        },
        {
            "buffer" : 0,
            "byteLength" : 32,
            "byteOffset" : 14540
        },
        {
            "buffer" : 0,
            "byteLength" : 192,
            "byteOffset" : 14572
        },
        {
            "buffer" : 0,
            "byteLength" : 192,
            "byteOffset" : 14764
        },
        {
            "buffer" : 0,
            "byteLength" : 128,
            "byteOffset" : 14956
        },
        {
            "buffer" : 0,
            "byteLength" : 48,
            "byteOffset" : 15084
        },
        {
            "buffer" : 0,
            "byteLength" : 48,
            "byteOffset" : 15132
        },
        {
            "buffer" : 0,
            "byteLength" : 48,
            "byteOffset" : 15180
        },
        {
            "buffer" : 0,
            "byteLength" : 32,
            "byteOffset" : 15228
        },
        {
            "buffer" : 0,
            "byteLength" : 192,
            "byteOffset" : 15260
        },
        {
            "buffer" : 0,
            "byteLength" : 192,
            "byteOffset" : 15452
        },
        {
            "buffer" : 0,
            "byteLength" : 128,
            "byteOffset" : 15644
        },
        {
            "buffer" : 0,
            "byteLength" : 48,
            "byteOffset" : 15772
        },
        {
            "buffer" : 0,
            "byteLength" : 48,
            "byteOffset" : 15820
        },
        {
            "buffer" : 0,
            "byteLength" : 32,
            "byteOffset" : 15868
        },
        {
            "buffer" : 0,
            "byteLength" : 192,
            "byteOffset" : 15900
        },
        {
            "buffer" : 0,
            "byteLength" : 192,
            "byteOffset" : 16092
        },
        {
            "buffer" : 0,
            "byteLength" : 128,
            "byteOffset" : 16284
        },
        {
            "buffer" : 0,
            "byteLength" : 48,
            "byteOffset" : 16412
        },
        {
            "buffer" : 0,
            "byteLength" : 48,
            "byteOffset" : 16460
        },
        {
            "buffer" : 0,
            "byteLength" : 32,
            "byteOffset" : 16508
        },
        {
            "buffer" : 0,
            "byteLength" : 192,
            "byteOffset" : 16540
        },
        {
            "buffer" : 0,
            "byteLength" : 192,
            "byteOffset" : 16732
        },
        {
            "buffer" : 0,
            "byteLength" : 128,
            "byteOffset" : 16924
        },
        {
            "buffer" : 0,
            "byteLength" : 48,
            "byteOffset" : 17052
        },
        {
            "buffer" : 0,
            "byteLength" : 48,
            "byteOffset" : 17100
        },
        {
            "buffer" : 0,
            "byteLength" : 32,
            "byteOffset" : 17148
        },
        {
            "buffer" : 0,
            "byteLength" : 192,
            "byteOffset" : 17180
        },
        {
            "buffer" : 0,
            "byteLength" : 192,
            "byteOffset" : 17372
        },
        {
            "buffer" : 0,
            "byteLength" : 128,
            "byteOffset" : 17564
        },
        {
            "buffer" : 0,
            "byteLength" : 60,
            "byteOffset" : 17692
        },
        {
            "buffer" : 0,
            "byteLength" : 60,
            "byteOffset" : 17752
        },
        {
            "buffer" : 0,
            "byteLength" : 60,
            "byteOffset" : 17812
        },
        {
            "buffer" : 0,
            "byteLength" : 40,
            "byteOffset" : 17872
        },
        {
            "buffer" : 0,
            "byteLength" : 18,
            "byteOffset" : 17912
        },
        {
            "buffer" : 0,
            "byteLength" : 192,
            "byteOffset" : 17932
        },
        {
            "buffer" : 0,
            "byteLength" : 192,
            "byteOffset" : 18124
        },
        {
            "buffer" : 0,
            "byteLength" : 128,
            "byteOffset" : 18316
        },
        {
            "buffer" : 0,
            "byteLength" : 48,
            "byteOffset" : 18444
        },
        {
            "buffer" : 0,
            "byteLength" : 48,
            "byteOffset" : 18492
        },
        {
            "buffer" : 0,
            "byteLength" : 32,
            "byteOffset" : 18540
        },
        {
            "buffer" : 0,
            "byteLength" : 192,
            "byteOffset" : 18572
        },
        {
            "buffer" : 0,
            "byteLength" : 192,
            "byteOffset" : 18764
        },
        {
            "buffer" : 0,
            "byteLength" : 128,
            "byteOffset" : 18956
        },
        {
            "buffer" : 0,
            "byteLength" : 48,
            "byteOffset" : 19084
        },
        {
            "buffer" : 0,
            "byteLength" : 48,
            "byteOffset" : 19132
        },
        {
            "buffer" : 0,
            "byteLength" : 32,
            "byteOffset" : 19180
        },
        {
            "buffer" : 0,
            "byteLength" : 192,
            "byteOffset" : 19212
        },
        {
            "buffer" : 0,
            "byteLength" : 192,
            "byteOffset" : 19404
        },
        {
            "buffer" : 0,
            "byteLength" : 128,
            "byteOffset" : 19596
        },
        {
            "buffer" : 0,
            "byteLength" : 48,
            "byteOffset" : 19724
        },
        {
            "buffer" : 0,
            "byteLength" : 48,
            "byteOffset" : 19772
        },
        {
            "buffer" : 0,
            "byteLength" : 32,
            "byteOffset" : 19820
        },
        {
            "buffer" : 0,
            "byteLength" : 192,
            "byteOffset" : 19852
        },
        {
            "buffer" : 0,
            "byteLength" : 192,
            "byteOffset" : 20044
        },
        {
            "buffer" : 0,
            "byteLength" : 128,
            "byteOffset" : 20236
        },
        {
            "buffer" : 0,
            "byteLength" : 48,
            "byteOffset" : 20364
        },
        {
            "buffer" : 0,
            "byteLength" : 48,
            "byteOffset" : 20412
        },
        {
            "buffer" : 0,
            "byteLength" : 32,
            "byteOffset" : 20460
        },
        {
            "buffer" : 0,
            "byteLength" : 192,
            "byteOffset" : 20492
        },
        {
            "buffer" : 0,
            "byteLength" : 192,
            "byteOffset" : 20684
        },
        {
            "buffer" : 0,
            "byteLength" : 128,
            "byteOffset" : 20876
        },
        {
            "buffer" : 0,
            "byteLength" : 48,
            "byteOffset" : 21004
        },
        {
            "buffer" : 0,
            "byteLength" : 48,
            "byteOffset" : 21052
        },
        {
            "buffer" : 0,
            "byteLength" : 32,
            "byteOffset" : 21100
        },
        {
            "buffer" : 0,
            "byteLength" : 192,
            "byteOffset" : 21132
        },
        {
            "buffer" : 0,
            "byteLength" : 192,
            "byteOffset" : 21324
        },
        {
            "buffer" : 0,
            "byteLength" : 128,
            "byteOffset" : 21516
        },
        {
            "buffer" : 0,
            "byteLength" : 48,
            "byteOffset" : 21644
        },
        {
            "buffer" : 0,
            "byteLength" : 48,
            "byteOffset" : 21692
        },
        {
            "buffer" : 0,
            "byteLength" : 32,
            "byteOffset" : 21740
        },
        {
            "buffer" : 0,
            "byteLength" : 192,
            "byteOffset" : 21772
        },
        {
            "buffer" : 0,
            "byteLength" : 192,
            "byteOffset" : 21964
        },
        {
            "buffer" : 0,
            "byteLength" : 128,
            "byteOffset" : 22156
        },
        {
            "buffer" : 0,
            "byteLength" : 48,
            "byteOffset" : 22284
        },
        {
            "buffer" : 0,
            "byteLength" : 48,
            "byteOffset" : 22332
        },
        {
            "buffer" : 0,
            "byteLength" : 48,
            "byteOffset" : 22380
        },
        {
            "buffer" : 0,
            "byteLength" : 32,
            "byteOffset" : 22428
        },
        {
            "buffer" : 0,
            "byteLength" : 192,
            "byteOffset" : 22460
        },
        {
            "buffer" : 0,
            "byteLength" : 192,
            "byteOffset" : 22652
        },
        {
            "buffer" : 0,
            "byteLength" : 128,
            "byteOffset" : 22844
        },
        {
            "buffer" : 0,
            "byteLength" : 48,
            "byteOffset" : 22972
        },
        {
            "buffer" : 0,
            "byteLength" : 48,
            "byteOffset" : 23020
        },
        {
            "buffer" : 0,
            "byteLength" : 32,
            "byteOffset" : 23068
        },
        {
            "buffer" : 0,
            "byteLength" : 192,
            "byteOffset" : 23100
        },
        {
            "buffer" : 0,
            "byteLength" : 192,
            "byteOffset" : 23292
        },
        {
            "buffer" : 0,
            "byteLength" : 128,
            "byteOffset" : 23484
        },
        {
            "buffer" : 0,
            "byteLength" : 48,
            "byteOffset" : 23612
        },
        {
            "buffer" : 0,
            "byteLength" : 48,
            "byteOffset" : 23660
        },
        {
            "buffer" : 0,
            "byteLength" : 32,
            "byteOffset" : 23708
        }
    ],
    "samplers" : [
        {
            "magFilter" : 9729,
            "minFilter" : 9987
        }
    ],
    "buffers" : [
        {
            "byteLength" : 23740,
            "uri" : "huiyijiancai.bin"
        }
    ]
}
