{
    "asset" : {
        "generator" : "Khronos glTF Blender I/O v1.7.33",
        "version" : "2.0"
    },
    "scene" : 0,
    "scenes" : [
        {
            "name" : "Scene",
            "nodes" : [
                20
            ]
        }
    ],
    "nodes" : [
        {
            "mesh" : 0,
            "name" : "pCube770"
        },
        {
            "mesh" : 1,
            "name" : "pCube771"
        },
        {
            "mesh" : 2,
            "name" : "pCube772"
        },
        {
            "mesh" : 3,
            "name" : "pCube773"
        },
        {
            "mesh" : 4,
            "name" : "pCube774"
        },
        {
            "mesh" : 5,
            "name" : "pCylinder213"
        },
        {
            "mesh" : 6,
            "name" : "pCylinder214"
        },
        {
            "mesh" : 7,
            "name" : "pCylinder221"
        },
        {
            "mesh" : 8,
            "name" : "polySurface6356"
        },
        {
            "mesh" : 9,
            "name" : "polySurface6357"
        },
        {
            "mesh" : 10,
            "name" : "polySurface6358"
        },
        {
            "mesh" : 11,
            "name" : "polySurface6360"
        },
        {
            "mesh" : 12,
            "name" : "polySurface6361"
        },
        {
            "mesh" : 13,
            "name" : "polySurface6362"
        },
        {
            "mesh" : 14,
            "name" : "polySurface6363"
        },
        {
            "mesh" : 15,
            "name" : "polySurface6365"
        },
        {
            "mesh" : 16,
            "name" : "polySurface6367"
        },
        {
            "mesh" : 17,
            "name" : "polySurface9186"
        },
        {
            "children" : [
                0,
                1,
                2,
                3,
                4,
                5,
                6,
                7,
                8,
                9,
                10,
                11,
                12,
                13,
                14,
                15,
                16,
                17
            ],
            "name" : "liuerxiao"
        },
        {
            "children" : [
                18
            ],
            "name" : "qiye"
        },
        {
            "children" : [
                19
            ],
            "name" : "jinluo",
            "rotation" : [
                0.7071068286895752,
                0,
                0,
                0.7071067094802856
            ],
            "scale" : [
                0.009999999776482582,
                0.009999999776482582,
                0.009999999776482582
            ]
        }
    ],
    "materials" : [
        {
            "doubleSided" : true,
            "emissiveFactor" : [
                0.6000000238418579,
                0.6000000238418579,
                0.6000000238418579
            ],
            "emissiveTexture" : {
                "index" : 0
            },
            "name" : "roof_3",
            "pbrMetallicRoughness" : {
                "baseColorTexture" : {
                    "index" : 1
                },
                "metallicFactor" : 0
            }
        },
        {
            "doubleSided" : true,
            "emissiveFactor" : [
                0.5,
                0.5,
                0.5
            ],
            "emissiveTexture" : {
                "index" : 2
            },
            "name" : "roof_5",
            "pbrMetallicRoughness" : {
                "baseColorTexture" : {
                    "index" : 3
                },
                "metallicFactor" : 0.2590909004211426
            }
        },
        {
            "doubleSided" : true,
            "name" : "shuini2",
            "pbrMetallicRoughness" : {
                "baseColorTexture" : {
                    "index" : 4
                },
                "metallicFactor" : 0
            }
        },
        {
            "doubleSided" : true,
            "name" : "stainless_steel2",
            "pbrMetallicRoughness" : {
                "baseColorFactor" : [
                    0.9720279574394226,
                    0.9720279574394226,
                    0.9720279574394226,
                    1
                ],
                "metallicFactor" : 0.24090909957885742,
                "roughnessFactor" : 0.2442217469215393
            }
        },
        {
            "doubleSided" : true,
            "emissiveFactor" : [
                0.20368212461471558,
                0.20368212461471558,
                0.20368212461471558
            ],
            "name" : "lambert1",
            "pbrMetallicRoughness" : {
                "baseColorFactor" : [
                    0.8043156862258911,
                    0.8043156862258911,
                    0.8043156862258911,
                    1
                ],
                "metallicFactor" : 0
            }
        },
        {
            "doubleSided" : true,
            "emissiveFactor" : [
                1,
                1,
                1
            ],
            "emissiveTexture" : {
                "index" : 5
            },
            "name" : "baiqi",
            "pbrMetallicRoughness" : {
                "baseColorTexture" : {
                    "index" : 6
                },
                "metallicFactor" : 0
            }
        },
        {
            "doubleSided" : true,
            "emissiveFactor" : [
                0.4999999701976776,
                0.4999999701976776,
                0.4999999701976776
            ],
            "emissiveTexture" : {
                "index" : 7
            },
            "name" : "roof_4",
            "pbrMetallicRoughness" : {
                "baseColorTexture" : {
                    "index" : 8
                },
                "metallicFactor" : 0
            }
        },
        {
            "doubleSided" : true,
            "name" : "shuimian",
            "pbrMetallicRoughness" : {
                "baseColorTexture" : {
                    "index" : 9
                },
                "metallicFactor" : 0,
                "roughnessFactor" : 0.07551369071006775
            }
        },
        {
            "doubleSided" : true,
            "emissiveFactor" : [
                0.5,
                0.5,
                0.5
            ],
            "emissiveTexture" : {
                "index" : 10
            },
            "name" : "roof_1",
            "pbrMetallicRoughness" : {
                "baseColorTexture" : {
                    "index" : 11
                },
                "metallicFactor" : 0
            }
        },
        {
            "doubleSided" : true,
            "emissiveFactor" : [
                0.6000000238418579,
                0.6000000238418579,
                0.6000000238418579
            ],
            "emissiveTexture" : {
                "index" : 12
            },
            "name" : "dimianshuini1",
            "pbrMetallicRoughness" : {
                "baseColorTexture" : {
                    "index" : 13
                },
                "metallicFactor" : 0
            }
        }
    ],
    "meshes" : [
        {
            "name" : "\u7f51\u683c.246",
            "primitives" : [
                {
                    "attributes" : {
                        "POSITION" : 0,
                        "NORMAL" : 1,
                        "TEXCOORD_0" : 2
                    },
                    "indices" : 3,
                    "material" : 0
                }
            ]
        },
        {
            "name" : "\u7f51\u683c.255",
            "primitives" : [
                {
                    "attributes" : {
                        "POSITION" : 4,
                        "NORMAL" : 5,
                        "TEXCOORD_0" : 6
                    },
                    "indices" : 3,
                    "material" : 1
                }
            ]
        },
        {
            "name" : "\u7f51\u683c.256",
            "primitives" : [
                {
                    "attributes" : {
                        "POSITION" : 7,
                        "NORMAL" : 8,
                        "TEXCOORD_0" : 9
                    },
                    "indices" : 3,
                    "material" : 1
                }
            ]
        },
        {
            "name" : "\u7f51\u683c.240",
            "primitives" : [
                {
                    "attributes" : {
                        "POSITION" : 10,
                        "NORMAL" : 11,
                        "TEXCOORD_0" : 12
                    },
                    "indices" : 13,
                    "material" : 2
                }
            ]
        },
        {
            "name" : "\u7f51\u683c.241",
            "primitives" : [
                {
                    "attributes" : {
                        "POSITION" : 14,
                        "NORMAL" : 15,
                        "TEXCOORD_0" : 16
                    },
                    "indices" : 17,
                    "material" : 2
                }
            ]
        },
        {
            "name" : "\u7f51\u683c.245",
            "primitives" : [
                {
                    "attributes" : {
                        "POSITION" : 18,
                        "NORMAL" : 19,
                        "TEXCOORD_0" : 20
                    },
                    "indices" : 21,
                    "material" : 3
                }
            ]
        },
        {
            "name" : "\u7f51\u683c.252",
            "primitives" : [
                {
                    "attributes" : {
                        "POSITION" : 22,
                        "NORMAL" : 23,
                        "TEXCOORD_0" : 24
                    },
                    "indices" : 21,
                    "material" : 4
                }
            ]
        },
        {
            "name" : "\u7f51\u683c.250",
            "primitives" : [
                {
                    "attributes" : {
                        "POSITION" : 25,
                        "NORMAL" : 26,
                        "TEXCOORD_0" : 27
                    },
                    "indices" : 28,
                    "material" : 3
                }
            ]
        },
        {
            "name" : "\u7f51\u683c.248",
            "primitives" : [
                {
                    "attributes" : {
                        "POSITION" : 29,
                        "NORMAL" : 30,
                        "TEXCOORD_0" : 31
                    },
                    "indices" : 32,
                    "material" : 1
                },
                {
                    "attributes" : {
                        "POSITION" : 33,
                        "NORMAL" : 34,
                        "TEXCOORD_0" : 35
                    },
                    "indices" : 36,
                    "material" : 2
                }
            ]
        },
        {
            "name" : "\u7f51\u683c.254",
            "primitives" : [
                {
                    "attributes" : {
                        "POSITION" : 37,
                        "NORMAL" : 38,
                        "TEXCOORD_0" : 39
                    },
                    "indices" : 40,
                    "material" : 5
                }
            ]
        },
        {
            "name" : "\u7f51\u683c.242",
            "primitives" : [
                {
                    "attributes" : {
                        "POSITION" : 41,
                        "NORMAL" : 42,
                        "TEXCOORD_0" : 43
                    },
                    "indices" : 44,
                    "material" : 6
                }
            ]
        },
        {
            "name" : "\u7f51\u683c.257",
            "primitives" : [
                {
                    "attributes" : {
                        "POSITION" : 45,
                        "NORMAL" : 46,
                        "TEXCOORD_0" : 47
                    },
                    "indices" : 48,
                    "material" : 2
                }
            ]
        },
        {
            "name" : "\u7f51\u683c.247",
            "primitives" : [
                {
                    "attributes" : {
                        "POSITION" : 49,
                        "NORMAL" : 50,
                        "TEXCOORD_0" : 51
                    },
                    "indices" : 52,
                    "material" : 7
                }
            ]
        },
        {
            "name" : "\u7f51\u683c.243",
            "primitives" : [
                {
                    "attributes" : {
                        "POSITION" : 53,
                        "NORMAL" : 54,
                        "TEXCOORD_0" : 55
                    },
                    "indices" : 44,
                    "material" : 8
                },
                {
                    "attributes" : {
                        "POSITION" : 56,
                        "NORMAL" : 57,
                        "TEXCOORD_0" : 58
                    },
                    "indices" : 40,
                    "material" : 5
                }
            ]
        },
        {
            "name" : "\u7f51\u683c.249",
            "primitives" : [
                {
                    "attributes" : {
                        "POSITION" : 59,
                        "NORMAL" : 60,
                        "TEXCOORD_0" : 61
                    },
                    "indices" : 44,
                    "material" : 8
                },
                {
                    "attributes" : {
                        "POSITION" : 62,
                        "NORMAL" : 63,
                        "TEXCOORD_0" : 64
                    },
                    "indices" : 40,
                    "material" : 5
                }
            ]
        },
        {
            "name" : "\u7f51\u683c.251",
            "primitives" : [
                {
                    "attributes" : {
                        "POSITION" : 65,
                        "NORMAL" : 66,
                        "TEXCOORD_0" : 67
                    },
                    "indices" : 68,
                    "material" : 0
                },
                {
                    "attributes" : {
                        "POSITION" : 69,
                        "NORMAL" : 70,
                        "TEXCOORD_0" : 71
                    },
                    "indices" : 72,
                    "material" : 5
                }
            ]
        },
        {
            "name" : "\u7f51\u683c.244",
            "primitives" : [
                {
                    "attributes" : {
                        "POSITION" : 73,
                        "NORMAL" : 74,
                        "TEXCOORD_0" : 75
                    },
                    "indices" : 76,
                    "material" : 2
                }
            ]
        },
        {
            "name" : "\u7f51\u683c.253",
            "primitives" : [
                {
                    "attributes" : {
                        "POSITION" : 77,
                        "NORMAL" : 78,
                        "TEXCOORD_0" : 79
                    },
                    "indices" : 80,
                    "material" : 9
                }
            ]
        }
    ],
    "textures" : [
        {
            "sampler" : 0,
            "source" : 0
        },
        {
            "sampler" : 0,
            "source" : 0
        },
        {
            "sampler" : 0,
            "source" : 1
        },
        {
            "sampler" : 0,
            "source" : 1
        },
        {
            "sampler" : 0,
            "source" : 2
        },
        {
            "sampler" : 0,
            "source" : 3
        },
        {
            "sampler" : 0,
            "source" : 3
        },
        {
            "sampler" : 0,
            "source" : 4
        },
        {
            "sampler" : 0,
            "source" : 4
        },
        {
            "sampler" : 0,
            "source" : 5
        },
        {
            "sampler" : 0,
            "source" : 6
        },
        {
            "sampler" : 0,
            "source" : 6
        },
        {
            "sampler" : 0,
            "source" : 7
        },
        {
            "sampler" : 0,
            "source" : 7
        }
    ],
    "images" : [
        {
            "mimeType" : "image/jpeg",
            "name" : "houseTop",
            "uri" : "houseTop.jpg"
        },
        {
            "mimeType" : "image/jpeg",
            "name" : "houseTop1",
            "uri" : "houseTop1.jpg"
        },
        {
            "mimeType" : "image/jpeg",
            "name" : "883047",
            "uri" : "883047.jpg"
        },
        {
            "mimeType" : "image/jpeg",
            "name" : "baiqiang_clorl",
            "uri" : "baiqiang_clorl.jpg"
        },
        {
            "mimeType" : "image/jpeg",
            "name" : "roof_4",
            "uri" : "roof_4.jpg"
        },
        {
            "mimeType" : "image/jpeg",
            "name" : "shuimian",
            "uri" : "shuimian.jpg"
        },
        {
            "mimeType" : "image/jpeg",
            "name" : "roof_1",
            "uri" : "roof_1.jpg"
        },
        {
            "mimeType" : "image/png",
            "name" : "land_shadow",
            "uri" : "land_shadow.png"
        }
    ],
    "accessors" : [
        {
            "bufferView" : 0,
            "componentType" : 5126,
            "count" : 4,
            "max" : [
                -306910.03125,
                -355627.21875,
                -10179.24609375
            ],
            "min" : [
                -307447.03125,
                -356174.53125,
                -10192.8125
            ],
            "type" : "VEC3"
        },
        {
            "bufferView" : 1,
            "componentType" : 5126,
            "count" : 4,
            "type" : "VEC3"
        },
        {
            "bufferView" : 2,
            "componentType" : 5126,
            "count" : 4,
            "type" : "VEC2"
        },
        {
            "bufferView" : 3,
            "componentType" : 5123,
            "count" : 6,
            "type" : "SCALAR"
        },
        {
            "bufferView" : 4,
            "componentType" : 5126,
            "count" : 4,
            "max" : [
                -306486.53125,
                -355165.21875,
                -9963.48046875
            ],
            "min" : [
                -306845.25,
                -355515.3125,
                -9963.48046875
            ],
            "type" : "VEC3"
        },
        {
            "bufferView" : 5,
            "componentType" : 5126,
            "count" : 4,
            "type" : "VEC3"
        },
        {
            "bufferView" : 6,
            "componentType" : 5126,
            "count" : 4,
            "type" : "VEC2"
        },
        {
            "bufferView" : 7,
            "componentType" : 5126,
            "count" : 4,
            "max" : [
                -306378.0625,
                -355871.9375,
                -10291.84375
            ],
            "min" : [
                -308205.09375,
                -357939.78125,
                -10314.9375
            ],
            "type" : "VEC3"
        },
        {
            "bufferView" : 8,
            "componentType" : 5126,
            "count" : 4,
            "type" : "VEC3"
        },
        {
            "bufferView" : 9,
            "componentType" : 5126,
            "count" : 4,
            "type" : "VEC2"
        },
        {
            "bufferView" : 10,
            "componentType" : 5126,
            "count" : 48,
            "max" : [
                -304365,
                -353256.59375,
                -9851.99609375
            ],
            "min" : [
                -304468.90625,
                -353360.46875,
                -10182.0185546875
            ],
            "type" : "VEC3"
        },
        {
            "bufferView" : 11,
            "componentType" : 5126,
            "count" : 48,
            "type" : "VEC3"
        },
        {
            "bufferView" : 12,
            "componentType" : 5126,
            "count" : 48,
            "type" : "VEC2"
        },
        {
            "bufferView" : 13,
            "componentType" : 5123,
            "count" : 84,
            "type" : "SCALAR"
        },
        {
            "bufferView" : 14,
            "componentType" : 5126,
            "count" : 56,
            "max" : [
                -303751.46875,
                -353743.6875,
                -9851.99609375
            ],
            "min" : [
                -303855.34375,
                -353847.625,
                -10182.0185546875
            ],
            "type" : "VEC3"
        },
        {
            "bufferView" : 15,
            "componentType" : 5126,
            "count" : 56,
            "type" : "VEC3"
        },
        {
            "bufferView" : 16,
            "componentType" : 5126,
            "count" : 56,
            "type" : "VEC2"
        },
        {
            "bufferView" : 17,
            "componentType" : 5123,
            "count" : 84,
            "type" : "SCALAR"
        },
        {
            "bufferView" : 18,
            "componentType" : 5126,
            "count" : 48,
            "max" : [
                -306945.75,
                -355645.59375,
                -9851.99609375
            ],
            "min" : [
                -307179.5625,
                -355834.53125,
                -10187.220703125
            ],
            "type" : "VEC3"
        },
        {
            "bufferView" : 19,
            "componentType" : 5126,
            "count" : 48,
            "type" : "VEC3"
        },
        {
            "bufferView" : 20,
            "componentType" : 5126,
            "count" : 48,
            "type" : "VEC2"
        },
        {
            "bufferView" : 21,
            "componentType" : 5123,
            "count" : 72,
            "type" : "SCALAR"
        },
        {
            "bufferView" : 22,
            "componentType" : 5126,
            "count" : 48,
            "max" : [
                -306633.65625,
                -355335.1875,
                -9851.99609375
            ],
            "min" : [
                -306809.5,
                -355477.21875,
                -9960.5712890625
            ],
            "type" : "VEC3"
        },
        {
            "bufferView" : 23,
            "componentType" : 5126,
            "count" : 48,
            "type" : "VEC3"
        },
        {
            "bufferView" : 24,
            "componentType" : 5126,
            "count" : 48,
            "type" : "VEC2"
        },
        {
            "bufferView" : 25,
            "componentType" : 5126,
            "count" : 168,
            "max" : [
                -306464.34375,
                -356024.40625,
                -9851.99609375
            ],
            "min" : [
                -307970.9375,
                -357778.4375,
                -10307.580078125
            ],
            "type" : "VEC3"
        },
        {
            "bufferView" : 26,
            "componentType" : 5126,
            "count" : 168,
            "type" : "VEC3"
        },
        {
            "bufferView" : 27,
            "componentType" : 5126,
            "count" : 168,
            "type" : "VEC2"
        },
        {
            "bufferView" : 28,
            "componentType" : 5123,
            "count" : 432,
            "type" : "SCALAR"
        },
        {
            "bufferView" : 29,
            "componentType" : 5126,
            "count" : 86,
            "max" : [
                -302441.21875,
                -356264.28125,
                -10192.0400390625
            ],
            "min" : [
                -311784.375,
                -366197.15625,
                -11952.3466796875
            ],
            "type" : "VEC3"
        },
        {
            "bufferView" : 30,
            "componentType" : 5126,
            "count" : 86,
            "type" : "VEC3"
        },
        {
            "bufferView" : 31,
            "componentType" : 5126,
            "count" : 86,
            "type" : "VEC2"
        },
        {
            "bufferView" : 32,
            "componentType" : 5123,
            "count" : 216,
            "type" : "SCALAR"
        },
        {
            "bufferView" : 33,
            "componentType" : 5126,
            "count" : 24,
            "max" : [
                -302441.21875,
                -356264.28125,
                -9851.99609375
            ],
            "min" : [
                -311784.375,
                -366197.15625,
                -10192.0439453125
            ],
            "type" : "VEC3"
        },
        {
            "bufferView" : 34,
            "componentType" : 5126,
            "count" : 24,
            "type" : "VEC3"
        },
        {
            "bufferView" : 35,
            "componentType" : 5126,
            "count" : 24,
            "type" : "VEC2"
        },
        {
            "bufferView" : 36,
            "componentType" : 5123,
            "count" : 42,
            "type" : "SCALAR"
        },
        {
            "bufferView" : 37,
            "componentType" : 5126,
            "count" : 20,
            "max" : [
                -304520.25,
                -352827.3125,
                -9851.99609375
            ],
            "min" : [
                -305757.59375,
                -354167.0625,
                -10272.6259765625
            ],
            "type" : "VEC3"
        },
        {
            "bufferView" : 38,
            "componentType" : 5126,
            "count" : 20,
            "type" : "VEC3"
        },
        {
            "bufferView" : 39,
            "componentType" : 5126,
            "count" : 20,
            "type" : "VEC2"
        },
        {
            "bufferView" : 40,
            "componentType" : 5123,
            "count" : 30,
            "type" : "SCALAR"
        },
        {
            "bufferView" : 41,
            "componentType" : 5126,
            "count" : 24,
            "max" : [
                -304494.75,
                -352802.1875,
                -10245.0712890625
            ],
            "min" : [
                -305783.09375,
                -354192.09375,
                -10284.4501953125
            ],
            "type" : "VEC3"
        },
        {
            "bufferView" : 42,
            "componentType" : 5126,
            "count" : 24,
            "type" : "VEC3"
        },
        {
            "bufferView" : 43,
            "componentType" : 5126,
            "count" : 24,
            "type" : "VEC2"
        },
        {
            "bufferView" : 44,
            "componentType" : 5123,
            "count" : 36,
            "type" : "SCALAR"
        },
        {
            "bufferView" : 45,
            "componentType" : 5126,
            "count" : 40,
            "max" : [
                -305606.4375,
                -354166.78125,
                -9851.99609375
            ],
            "min" : [
                -306745.03125,
                -355428.125,
                -9963.478515625
            ],
            "type" : "VEC3"
        },
        {
            "bufferView" : 46,
            "componentType" : 5126,
            "count" : 40,
            "type" : "VEC3"
        },
        {
            "bufferView" : 47,
            "componentType" : 5126,
            "count" : 40,
            "type" : "VEC2"
        },
        {
            "bufferView" : 48,
            "componentType" : 5123,
            "count" : 72,
            "type" : "SCALAR"
        },
        {
            "bufferView" : 49,
            "componentType" : 5126,
            "count" : 4,
            "max" : [
                -305624.34375,
                -354184.65625,
                -9892.0859375
            ],
            "min" : [
                -306727.09375,
                -355410.21875,
                -9892.0859375
            ],
            "type" : "VEC3"
        },
        {
            "bufferView" : 50,
            "componentType" : 5126,
            "count" : 4,
            "type" : "VEC3"
        },
        {
            "bufferView" : 51,
            "componentType" : 5126,
            "count" : 4,
            "type" : "VEC2"
        },
        {
            "bufferView" : 52,
            "componentType" : 5123,
            "count" : 6,
            "type" : "SCALAR"
        },
        {
            "bufferView" : 53,
            "componentType" : 5126,
            "count" : 24,
            "max" : [
                -307001.3125,
                -355887.15625,
                -10245.0751953125
            ],
            "min" : [
                -308773.21875,
                -357886.0625,
                -10284.44921875
            ],
            "type" : "VEC3"
        },
        {
            "bufferView" : 54,
            "componentType" : 5126,
            "count" : 24,
            "type" : "VEC3"
        },
        {
            "bufferView" : 55,
            "componentType" : 5126,
            "count" : 24,
            "type" : "VEC2"
        },
        {
            "bufferView" : 56,
            "componentType" : 5126,
            "count" : 20,
            "max" : [
                -307026.84375,
                -355912.25,
                -9851.99609375
            ],
            "min" : [
                -308747.6875,
                -357861,
                -10272.6259765625
            ],
            "type" : "VEC3"
        },
        {
            "bufferView" : 57,
            "componentType" : 5126,
            "count" : 20,
            "type" : "VEC3"
        },
        {
            "bufferView" : 58,
            "componentType" : 5126,
            "count" : 20,
            "type" : "VEC2"
        },
        {
            "bufferView" : 59,
            "componentType" : 5126,
            "count" : 24,
            "max" : [
                -308273.15625,
                -357388.96875,
                -10245.0751953125
            ],
            "min" : [
                -310171.1875,
                -359488.09375,
                -10291.7578125
            ],
            "type" : "VEC3"
        },
        {
            "bufferView" : 60,
            "componentType" : 5126,
            "count" : 24,
            "type" : "VEC3"
        },
        {
            "bufferView" : 61,
            "componentType" : 5126,
            "count" : 24,
            "type" : "VEC2"
        },
        {
            "bufferView" : 62,
            "componentType" : 5126,
            "count" : 20,
            "max" : [
                -308298.6875,
                -357414.09375,
                -9851.99609375
            ],
            "min" : [
                -310145.71875,
                -359462.9375,
                -10279.9345703125
            ],
            "type" : "VEC3"
        },
        {
            "bufferView" : 63,
            "componentType" : 5126,
            "count" : 20,
            "type" : "VEC3"
        },
        {
            "bufferView" : 64,
            "componentType" : 5126,
            "count" : 20,
            "type" : "VEC2"
        },
        {
            "bufferView" : 65,
            "componentType" : 5126,
            "count" : 24,
            "max" : [
                -312185.25,
                -361879.5,
                -10132.0869140625
            ],
            "min" : [
                -312809.875,
                -362546.34375,
                -10152.33984375
            ],
            "type" : "VEC3"
        },
        {
            "bufferView" : 66,
            "componentType" : 5126,
            "count" : 24,
            "type" : "VEC3"
        },
        {
            "bufferView" : 67,
            "componentType" : 5126,
            "count" : 24,
            "type" : "VEC2"
        },
        {
            "bufferView" : 68,
            "componentType" : 5123,
            "count" : 36,
            "type" : "SCALAR"
        },
        {
            "bufferView" : 69,
            "componentType" : 5126,
            "count" : 20,
            "max" : [
                -312198.375,
                -361892.34375,
                -9851.99609375
            ],
            "min" : [
                -312796.75,
                -362533.5,
                -10146.2548828125
            ],
            "type" : "VEC3"
        },
        {
            "bufferView" : 70,
            "componentType" : 5126,
            "count" : 20,
            "type" : "VEC3"
        },
        {
            "bufferView" : 71,
            "componentType" : 5126,
            "count" : 20,
            "type" : "VEC2"
        },
        {
            "bufferView" : 72,
            "componentType" : 5123,
            "count" : 30,
            "type" : "SCALAR"
        },
        {
            "bufferView" : 73,
            "componentType" : 5126,
            "count" : 104,
            "max" : [
                -300224.5,
                -352700.3125,
                -9851.99609375
            ],
            "min" : [
                -312796.71875,
                -366243.3125,
                -10124.8525390625
            ],
            "type" : "VEC3"
        },
        {
            "bufferView" : 74,
            "componentType" : 5126,
            "count" : 104,
            "type" : "VEC3"
        },
        {
            "bufferView" : 75,
            "componentType" : 5126,
            "count" : 104,
            "type" : "VEC2"
        },
        {
            "bufferView" : 76,
            "componentType" : 5123,
            "count" : 228,
            "type" : "SCALAR"
        },
        {
            "bufferView" : 77,
            "componentType" : 5126,
            "count" : 8,
            "max" : [
                -300237.15625,
                -352714,
                -9851.99609375
            ],
            "min" : [
                -312784.0625,
                -366229.6875,
                -9851.99609375
            ],
            "type" : "VEC3"
        },
        {
            "bufferView" : 78,
            "componentType" : 5126,
            "count" : 8,
            "type" : "VEC3"
        },
        {
            "bufferView" : 79,
            "componentType" : 5126,
            "count" : 8,
            "type" : "VEC2"
        },
        {
            "bufferView" : 80,
            "componentType" : 5123,
            "count" : 18,
            "type" : "SCALAR"
        }
    ],
    "bufferViews" : [
        {
            "buffer" : 0,
            "byteLength" : 48,
            "byteOffset" : 0
        },
        {
            "buffer" : 0,
            "byteLength" : 48,
            "byteOffset" : 48
        },
        {
            "buffer" : 0,
            "byteLength" : 32,
            "byteOffset" : 96
        },
        {
            "buffer" : 0,
            "byteLength" : 12,
            "byteOffset" : 128
        },
        {
            "buffer" : 0,
            "byteLength" : 48,
            "byteOffset" : 140
        },
        {
            "buffer" : 0,
            "byteLength" : 48,
            "byteOffset" : 188
        },
        {
            "buffer" : 0,
            "byteLength" : 32,
            "byteOffset" : 236
        },
        {
            "buffer" : 0,
            "byteLength" : 48,
            "byteOffset" : 268
        },
        {
            "buffer" : 0,
            "byteLength" : 48,
            "byteOffset" : 316
        },
        {
            "buffer" : 0,
            "byteLength" : 32,
            "byteOffset" : 364
        },
        {
            "buffer" : 0,
            "byteLength" : 576,
            "byteOffset" : 396
        },
        {
            "buffer" : 0,
            "byteLength" : 576,
            "byteOffset" : 972
        },
        {
            "buffer" : 0,
            "byteLength" : 384,
            "byteOffset" : 1548
        },
        {
            "buffer" : 0,
            "byteLength" : 168,
            "byteOffset" : 1932
        },
        {
            "buffer" : 0,
            "byteLength" : 672,
            "byteOffset" : 2100
        },
        {
            "buffer" : 0,
            "byteLength" : 672,
            "byteOffset" : 2772
        },
        {
            "buffer" : 0,
            "byteLength" : 448,
            "byteOffset" : 3444
        },
        {
            "buffer" : 0,
            "byteLength" : 168,
            "byteOffset" : 3892
        },
        {
            "buffer" : 0,
            "byteLength" : 576,
            "byteOffset" : 4060
        },
        {
            "buffer" : 0,
            "byteLength" : 576,
            "byteOffset" : 4636
        },
        {
            "buffer" : 0,
            "byteLength" : 384,
            "byteOffset" : 5212
        },
        {
            "buffer" : 0,
            "byteLength" : 144,
            "byteOffset" : 5596
        },
        {
            "buffer" : 0,
            "byteLength" : 576,
            "byteOffset" : 5740
        },
        {
            "buffer" : 0,
            "byteLength" : 576,
            "byteOffset" : 6316
        },
        {
            "buffer" : 0,
            "byteLength" : 384,
            "byteOffset" : 6892
        },
        {
            "buffer" : 0,
            "byteLength" : 2016,
            "byteOffset" : 7276
        },
        {
            "buffer" : 0,
            "byteLength" : 2016,
            "byteOffset" : 9292
        },
        {
            "buffer" : 0,
            "byteLength" : 1344,
            "byteOffset" : 11308
        },
        {
            "buffer" : 0,
            "byteLength" : 864,
            "byteOffset" : 12652
        },
        {
            "buffer" : 0,
            "byteLength" : 1032,
            "byteOffset" : 13516
        },
        {
            "buffer" : 0,
            "byteLength" : 1032,
            "byteOffset" : 14548
        },
        {
            "buffer" : 0,
            "byteLength" : 688,
            "byteOffset" : 15580
        },
        {
            "buffer" : 0,
            "byteLength" : 432,
            "byteOffset" : 16268
        },
        {
            "buffer" : 0,
            "byteLength" : 288,
            "byteOffset" : 16700
        },
        {
            "buffer" : 0,
            "byteLength" : 288,
            "byteOffset" : 16988
        },
        {
            "buffer" : 0,
            "byteLength" : 192,
            "byteOffset" : 17276
        },
        {
            "buffer" : 0,
            "byteLength" : 84,
            "byteOffset" : 17468
        },
        {
            "buffer" : 0,
            "byteLength" : 240,
            "byteOffset" : 17552
        },
        {
            "buffer" : 0,
            "byteLength" : 240,
            "byteOffset" : 17792
        },
        {
            "buffer" : 0,
            "byteLength" : 160,
            "byteOffset" : 18032
        },
        {
            "buffer" : 0,
            "byteLength" : 60,
            "byteOffset" : 18192
        },
        {
            "buffer" : 0,
            "byteLength" : 288,
            "byteOffset" : 18252
        },
        {
            "buffer" : 0,
            "byteLength" : 288,
            "byteOffset" : 18540
        },
        {
            "buffer" : 0,
            "byteLength" : 192,
            "byteOffset" : 18828
        },
        {
            "buffer" : 0,
            "byteLength" : 72,
            "byteOffset" : 19020
        },
        {
            "buffer" : 0,
            "byteLength" : 480,
            "byteOffset" : 19092
        },
        {
            "buffer" : 0,
            "byteLength" : 480,
            "byteOffset" : 19572
        },
        {
            "buffer" : 0,
            "byteLength" : 320,
            "byteOffset" : 20052
        },
        {
            "buffer" : 0,
            "byteLength" : 144,
            "byteOffset" : 20372
        },
        {
            "buffer" : 0,
            "byteLength" : 48,
            "byteOffset" : 20516
        },
        {
            "buffer" : 0,
            "byteLength" : 48,
            "byteOffset" : 20564
        },
        {
            "buffer" : 0,
            "byteLength" : 32,
            "byteOffset" : 20612
        },
        {
            "buffer" : 0,
            "byteLength" : 12,
            "byteOffset" : 20644
        },
        {
            "buffer" : 0,
            "byteLength" : 288,
            "byteOffset" : 20656
        },
        {
            "buffer" : 0,
            "byteLength" : 288,
            "byteOffset" : 20944
        },
        {
            "buffer" : 0,
            "byteLength" : 192,
            "byteOffset" : 21232
        },
        {
            "buffer" : 0,
            "byteLength" : 240,
            "byteOffset" : 21424
        },
        {
            "buffer" : 0,
            "byteLength" : 240,
            "byteOffset" : 21664
        },
        {
            "buffer" : 0,
            "byteLength" : 160,
            "byteOffset" : 21904
        },
        {
            "buffer" : 0,
            "byteLength" : 288,
            "byteOffset" : 22064
        },
        {
            "buffer" : 0,
            "byteLength" : 288,
            "byteOffset" : 22352
        },
        {
            "buffer" : 0,
            "byteLength" : 192,
            "byteOffset" : 22640
        },
        {
            "buffer" : 0,
            "byteLength" : 240,
            "byteOffset" : 22832
        },
        {
            "buffer" : 0,
            "byteLength" : 240,
            "byteOffset" : 23072
        },
        {
            "buffer" : 0,
            "byteLength" : 160,
            "byteOffset" : 23312
        },
        {
            "buffer" : 0,
            "byteLength" : 288,
            "byteOffset" : 23472
        },
        {
            "buffer" : 0,
            "byteLength" : 288,
            "byteOffset" : 23760
        },
        {
            "buffer" : 0,
            "byteLength" : 192,
            "byteOffset" : 24048
        },
        {
            "buffer" : 0,
            "byteLength" : 72,
            "byteOffset" : 24240
        },
        {
            "buffer" : 0,
            "byteLength" : 240,
            "byteOffset" : 24312
        },
        {
            "buffer" : 0,
            "byteLength" : 240,
            "byteOffset" : 24552
        },
        {
            "buffer" : 0,
            "byteLength" : 160,
            "byteOffset" : 24792
        },
        {
            "buffer" : 0,
            "byteLength" : 60,
            "byteOffset" : 24952
        },
        {
            "buffer" : 0,
            "byteLength" : 1248,
            "byteOffset" : 25012
        },
        {
            "buffer" : 0,
            "byteLength" : 1248,
            "byteOffset" : 26260
        },
        {
            "buffer" : 0,
            "byteLength" : 832,
            "byteOffset" : 27508
        },
        {
            "buffer" : 0,
            "byteLength" : 456,
            "byteOffset" : 28340
        },
        {
            "buffer" : 0,
            "byteLength" : 96,
            "byteOffset" : 28796
        },
        {
            "buffer" : 0,
            "byteLength" : 96,
            "byteOffset" : 28892
        },
        {
            "buffer" : 0,
            "byteLength" : 64,
            "byteOffset" : 28988
        },
        {
            "buffer" : 0,
            "byteLength" : 36,
            "byteOffset" : 29052
        }
    ],
    "samplers" : [
        {
            "magFilter" : 9729,
            "minFilter" : 9987
        }
    ],
    "buffers" : [
        {
            "byteLength" : 29088,
            "uri" : "liuerxiao.bin"
        }
    ]
}
