{
    "asset" : {
        "generator" : "Khronos glTF Blender I/O v1.7.33",
        "version" : "2.0"
    },
    "scene" : 0,
    "scenes" : [
        {
            "name" : "Scene",
            "nodes" : [
                11
            ]
        }
    ],
    "nodes" : [
        {
            "mesh" : 0,
            "name" : "pCube1162"
        },
        {
            "mesh" : 1,
            "name" : "pCube1163"
        },
        {
            "mesh" : 2,
            "name" : "pCube1164"
        },
        {
            "mesh" : 3,
            "name" : "pCube1165"
        },
        {
            "mesh" : 4,
            "name" : "pCube1166"
        },
        {
            "mesh" : 5,
            "name" : "pCube1167"
        },
        {
            "mesh" : 6,
            "name" : "pCylinder276"
        },
        {
            "mesh" : 7,
            "name" : "polySurface10463"
        },
        {
            "mesh" : 8,
            "name" : "polySurface10470"
        },
        {
            "children" : [
                0,
                1,
                2,
                3,
                4,
                5,
                6,
                7,
                8
            ],
            "name" : "wenhaoxuanmeishebei"
        },
        {
            "children" : [
                9
            ],
            "name" : "qiye"
        },
        {
            "children" : [
                10
            ],
            "name" : "jinluo",
            "rotation" : [
                0.7071068286895752,
                0,
                0,
                0.7071067094802856
            ],
            "scale" : [
                0.009999999776482582,
                0.009999999776482582,
                0.009999999776482582
            ]
        }
    ],
    "materials" : [
        {
            "doubleSided" : true,
            "emissiveFactor" : [
                1,
                1,
                1
            ],
            "emissiveTexture" : {
                "index" : 0
            },
            "name" : "baiqi",
            "pbrMetallicRoughness" : {
                "baseColorTexture" : {
                    "index" : 1
                },
                "metallicFactor" : 0
            }
        },
        {
            "doubleSided" : true,
            "emissiveFactor" : [
                0.6000000238418579,
                0.6000000238418579,
                0.6000000238418579
            ],
            "emissiveTexture" : {
                "index" : 2
            },
            "name" : "roof_3",
            "pbrMetallicRoughness" : {
                "baseColorTexture" : {
                    "index" : 3
                },
                "metallicFactor" : 0
            }
        },
        {
            "doubleSided" : true,
            "name" : "roof_6",
            "pbrMetallicRoughness" : {
                "baseColorTexture" : {
                    "index" : 4
                },
                "metallicFactor" : 0
            }
        },
        {
            "doubleSided" : true,
            "emissiveFactor" : [
                0.20368212461471558,
                0.20368212461471558,
                0.20368212461471558
            ],
            "name" : "lambert1",
            "pbrMetallicRoughness" : {
                "baseColorFactor" : [
                    0.8043156862258911,
                    0.8043156862258911,
                    0.8043156862258911,
                    1
                ],
                "metallicFactor" : 0
            }
        },
        {
            "doubleSided" : true,
            "emissiveFactor" : [
                0.5,
                0.5,
                0.5
            ],
            "emissiveTexture" : {
                "index" : 5
            },
            "name" : "roof_2",
            "pbrMetallicRoughness" : {
                "baseColorTexture" : {
                    "index" : 6
                },
                "metallicFactor" : 0
            }
        },
        {
            "doubleSided" : true,
            "emissiveFactor" : [
                1,
                1,
                1
            ],
            "emissiveTexture" : {
                "index" : 7
            },
            "name" : "lambert24",
            "pbrMetallicRoughness" : {
                "baseColorTexture" : {
                    "index" : 8
                },
                "metallicFactor" : 0
            }
        }
    ],
    "meshes" : [
        {
            "name" : "\u7f51\u683c.1121",
            "primitives" : [
                {
                    "attributes" : {
                        "POSITION" : 0,
                        "NORMAL" : 1,
                        "TEXCOORD_0" : 2
                    },
                    "indices" : 3,
                    "material" : 0
                },
                {
                    "attributes" : {
                        "POSITION" : 4,
                        "NORMAL" : 5,
                        "TEXCOORD_0" : 6
                    },
                    "indices" : 7,
                    "material" : 1
                }
            ]
        },
        {
            "name" : "\u7f51\u683c.1124",
            "primitives" : [
                {
                    "attributes" : {
                        "POSITION" : 8,
                        "NORMAL" : 9,
                        "TEXCOORD_0" : 10
                    },
                    "indices" : 3,
                    "material" : 0
                },
                {
                    "attributes" : {
                        "POSITION" : 11,
                        "NORMAL" : 12,
                        "TEXCOORD_0" : 13
                    },
                    "indices" : 14,
                    "material" : 2
                }
            ]
        },
        {
            "name" : "\u7f51\u683c.1127",
            "primitives" : [
                {
                    "attributes" : {
                        "POSITION" : 15,
                        "NORMAL" : 16,
                        "TEXCOORD_0" : 17
                    },
                    "indices" : 18,
                    "material" : 3
                }
            ]
        },
        {
            "name" : "\u7f51\u683c.1123",
            "primitives" : [
                {
                    "attributes" : {
                        "POSITION" : 19,
                        "NORMAL" : 20,
                        "TEXCOORD_0" : 21
                    },
                    "indices" : 3,
                    "material" : 0
                },
                {
                    "attributes" : {
                        "POSITION" : 22,
                        "NORMAL" : 23,
                        "TEXCOORD_0" : 24
                    },
                    "indices" : 14,
                    "material" : 2
                }
            ]
        },
        {
            "name" : "\u7f51\u683c.1125",
            "primitives" : [
                {
                    "attributes" : {
                        "POSITION" : 25,
                        "NORMAL" : 26,
                        "TEXCOORD_0" : 27
                    },
                    "indices" : 3,
                    "material" : 0
                },
                {
                    "attributes" : {
                        "POSITION" : 28,
                        "NORMAL" : 29,
                        "TEXCOORD_0" : 30
                    },
                    "indices" : 7,
                    "material" : 1
                }
            ]
        },
        {
            "name" : "\u7f51\u683c.1122",
            "primitives" : [
                {
                    "attributes" : {
                        "POSITION" : 31,
                        "NORMAL" : 32,
                        "TEXCOORD_0" : 33
                    },
                    "indices" : 3,
                    "material" : 0
                },
                {
                    "attributes" : {
                        "POSITION" : 34,
                        "NORMAL" : 35,
                        "TEXCOORD_0" : 36
                    },
                    "indices" : 7,
                    "material" : 1
                }
            ]
        },
        {
            "name" : "\u7f51\u683c.1120",
            "primitives" : [
                {
                    "attributes" : {
                        "POSITION" : 37,
                        "NORMAL" : 38,
                        "TEXCOORD_0" : 39
                    },
                    "indices" : 40,
                    "material" : 3
                }
            ]
        },
        {
            "name" : "\u7f51\u683c.1126",
            "primitives" : [
                {
                    "attributes" : {
                        "POSITION" : 41,
                        "NORMAL" : 42,
                        "TEXCOORD_0" : 43
                    },
                    "indices" : 44,
                    "material" : 4
                }
            ]
        },
        {
            "name" : "\u7f51\u683c.1128",
            "primitives" : [
                {
                    "attributes" : {
                        "POSITION" : 45,
                        "NORMAL" : 46,
                        "TEXCOORD_0" : 47
                    },
                    "indices" : 48,
                    "material" : 5
                }
            ]
        }
    ],
    "textures" : [
        {
            "sampler" : 0,
            "source" : 0
        },
        {
            "sampler" : 0,
            "source" : 0
        },
        {
            "sampler" : 0,
            "source" : 1
        },
        {
            "sampler" : 0,
            "source" : 1
        },
        {
            "sampler" : 0,
            "source" : 2
        },
        {
            "sampler" : 0,
            "source" : 3
        },
        {
            "sampler" : 0,
            "source" : 3
        },
        {
            "sampler" : 0,
            "source" : 4
        },
        {
            "sampler" : 0,
            "source" : 4
        }
    ],
    "images" : [
        {
            "mimeType" : "image/jpeg",
            "name" : "baiqiang_clorl",
            "uri" : "baiqiang_clorl.jpg"
        },
        {
            "mimeType" : "image/jpeg",
            "name" : "houseTop",
            "uri" : "houseTop.jpg"
        },
        {
            "mimeType" : "image/jpeg",
            "name" : "fangding2",
            "uri" : "fangding2.jpg"
        },
        {
            "mimeType" : "image/jpeg",
            "name" : "roof_2",
            "uri" : "roof_2.jpg"
        },
        {
            "mimeType" : "image/jpeg",
            "name" : "land_shadow1",
            "uri" : "land_shadow1.jpg"
        }
    ],
    "accessors" : [
        {
            "bufferView" : 0,
            "componentType" : 5126,
            "count" : 20,
            "max" : [
                -246698.765625,
                -155688.5,
                -9044.36328125
            ],
            "min" : [
                -248313.8125,
                -157482.875,
                -9717.3408203125
            ],
            "type" : "VEC3"
        },
        {
            "bufferView" : 1,
            "componentType" : 5126,
            "count" : 20,
            "type" : "VEC3"
        },
        {
            "bufferView" : 2,
            "componentType" : 5126,
            "count" : 20,
            "type" : "VEC2"
        },
        {
            "bufferView" : 3,
            "componentType" : 5123,
            "count" : 30,
            "type" : "SCALAR"
        },
        {
            "bufferView" : 4,
            "componentType" : 5126,
            "count" : 4,
            "max" : [
                -246699.65625,
                -155688.5,
                -9692.4140625
            ],
            "min" : [
                -248313.8125,
                -157482.1875,
                -9717.3408203125
            ],
            "type" : "VEC3"
        },
        {
            "bufferView" : 5,
            "componentType" : 5126,
            "count" : 4,
            "type" : "VEC3"
        },
        {
            "bufferView" : 6,
            "componentType" : 5126,
            "count" : 4,
            "type" : "VEC2"
        },
        {
            "bufferView" : 7,
            "componentType" : 5123,
            "count" : 6,
            "type" : "SCALAR"
        },
        {
            "bufferView" : 8,
            "componentType" : 5126,
            "count" : 20,
            "max" : [
                -249843.953125,
                -154863.625,
                -9029.0927734375
            ],
            "min" : [
                -252140.5625,
                -157182.859375,
                -10045.7236328125
            ],
            "type" : "VEC3"
        },
        {
            "bufferView" : 9,
            "componentType" : 5126,
            "count" : 20,
            "type" : "VEC3"
        },
        {
            "bufferView" : 10,
            "componentType" : 5126,
            "count" : 20,
            "type" : "VEC2"
        },
        {
            "bufferView" : 11,
            "componentType" : 5126,
            "count" : 28,
            "max" : [
                -249843.953125,
                -154863.625,
                -10026.1162109375
            ],
            "min" : [
                -252140.5625,
                -157182.859375,
                -10045.7236328125
            ],
            "type" : "VEC3"
        },
        {
            "bufferView" : 12,
            "componentType" : 5126,
            "count" : 28,
            "type" : "VEC3"
        },
        {
            "bufferView" : 13,
            "componentType" : 5126,
            "count" : 28,
            "type" : "VEC2"
        },
        {
            "bufferView" : 14,
            "componentType" : 5123,
            "count" : 54,
            "type" : "SCALAR"
        },
        {
            "bufferView" : 15,
            "componentType" : 5126,
            "count" : 32,
            "max" : [
                -248339.125,
                -155821.453125,
                -8900.7607421875
            ],
            "min" : [
                -250812.75,
                -158241.515625,
                -10005.8486328125
            ],
            "type" : "VEC3"
        },
        {
            "bufferView" : 16,
            "componentType" : 5126,
            "count" : 32,
            "type" : "VEC3"
        },
        {
            "bufferView" : 17,
            "componentType" : 5126,
            "count" : 32,
            "type" : "VEC2"
        },
        {
            "bufferView" : 18,
            "componentType" : 5123,
            "count" : 60,
            "type" : "SCALAR"
        },
        {
            "bufferView" : 19,
            "componentType" : 5126,
            "count" : 20,
            "max" : [
                -245228,
                -153684.078125,
                -9029.0927734375
            ],
            "min" : [
                -247046.109375,
                -155637.921875,
                -10045.7236328125
            ],
            "type" : "VEC3"
        },
        {
            "bufferView" : 20,
            "componentType" : 5126,
            "count" : 20,
            "type" : "VEC3"
        },
        {
            "bufferView" : 21,
            "componentType" : 5126,
            "count" : 20,
            "type" : "VEC2"
        },
        {
            "bufferView" : 22,
            "componentType" : 5126,
            "count" : 28,
            "max" : [
                -245228,
                -153684.078125,
                -10026.1162109375
            ],
            "min" : [
                -247046.109375,
                -155637.921875,
                -10045.7236328125
            ],
            "type" : "VEC3"
        },
        {
            "bufferView" : 23,
            "componentType" : 5126,
            "count" : 28,
            "type" : "VEC3"
        },
        {
            "bufferView" : 24,
            "componentType" : 5126,
            "count" : 28,
            "type" : "VEC2"
        },
        {
            "bufferView" : 25,
            "componentType" : 5126,
            "count" : 20,
            "max" : [
                -245755.921875,
                -154354.84375,
                -9042.0908203125
            ],
            "min" : [
                -247280.96875,
                -156079.578125,
                -9641.2138671875
            ],
            "type" : "VEC3"
        },
        {
            "bufferView" : 26,
            "componentType" : 5126,
            "count" : 20,
            "type" : "VEC3"
        },
        {
            "bufferView" : 27,
            "componentType" : 5126,
            "count" : 20,
            "type" : "VEC2"
        },
        {
            "bufferView" : 28,
            "componentType" : 5126,
            "count" : 4,
            "max" : [
                -245757.65625,
                -154354.84375,
                -9614.0234375
            ],
            "min" : [
                -247280.96875,
                -156078.203125,
                -9641.2138671875
            ],
            "type" : "VEC3"
        },
        {
            "bufferView" : 29,
            "componentType" : 5126,
            "count" : 4,
            "type" : "VEC3"
        },
        {
            "bufferView" : 30,
            "componentType" : 5126,
            "count" : 4,
            "type" : "VEC2"
        },
        {
            "bufferView" : 31,
            "componentType" : 5126,
            "count" : 20,
            "max" : [
                -250988.0625,
                -151933.3125,
                -9043.0419921875
            ],
            "min" : [
                -252248.46875,
                -153227.28125,
                -9641.2138671875
            ],
            "type" : "VEC3"
        },
        {
            "bufferView" : 32,
            "componentType" : 5126,
            "count" : 20,
            "type" : "VEC3"
        },
        {
            "bufferView" : 33,
            "componentType" : 5126,
            "count" : 20,
            "type" : "VEC2"
        },
        {
            "bufferView" : 34,
            "componentType" : 5126,
            "count" : 4,
            "max" : [
                -250989.796875,
                -151933.3125,
                -9614.974609375
            ],
            "min" : [
                -252248.46875,
                -153225.90625,
                -9641.2138671875
            ],
            "type" : "VEC3"
        },
        {
            "bufferView" : 35,
            "componentType" : 5126,
            "count" : 4,
            "type" : "VEC3"
        },
        {
            "bufferView" : 36,
            "componentType" : 5126,
            "count" : 4,
            "type" : "VEC2"
        },
        {
            "bufferView" : 37,
            "componentType" : 5126,
            "count" : 72,
            "max" : [
                -246922.875,
                -153993.6875,
                -9058.416015625
            ],
            "min" : [
                -249846.40625,
                -156998.109375,
                -9821.0068359375
            ],
            "type" : "VEC3"
        },
        {
            "bufferView" : 38,
            "componentType" : 5126,
            "count" : 72,
            "type" : "VEC3"
        },
        {
            "bufferView" : 39,
            "componentType" : 5126,
            "count" : 72,
            "type" : "VEC2"
        },
        {
            "bufferView" : 40,
            "componentType" : 5123,
            "count" : 192,
            "type" : "SCALAR"
        },
        {
            "bufferView" : 41,
            "componentType" : 5126,
            "count" : 36,
            "max" : [
                -246876.453125,
                -153976.578125,
                -9821.0068359375
            ],
            "min" : [
                -249854.25,
                -157023.5625,
                -10166.51953125
            ],
            "type" : "VEC3"
        },
        {
            "bufferView" : 42,
            "componentType" : 5126,
            "count" : 36,
            "type" : "VEC3"
        },
        {
            "bufferView" : 43,
            "componentType" : 5126,
            "count" : 36,
            "type" : "VEC2"
        },
        {
            "bufferView" : 44,
            "componentType" : 5123,
            "count" : 60,
            "type" : "SCALAR"
        },
        {
            "bufferView" : 45,
            "componentType" : 5126,
            "count" : 30,
            "max" : [
                -242081.734375,
                -150484.21875,
                -9062.380859375
            ],
            "min" : [
                -253795.15625,
                -159220.953125,
                -9062.380859375
            ],
            "type" : "VEC3"
        },
        {
            "bufferView" : 46,
            "componentType" : 5126,
            "count" : 30,
            "type" : "VEC3"
        },
        {
            "bufferView" : 47,
            "componentType" : 5126,
            "count" : 30,
            "type" : "VEC2"
        },
        {
            "bufferView" : 48,
            "componentType" : 5123,
            "count" : 84,
            "type" : "SCALAR"
        }
    ],
    "bufferViews" : [
        {
            "buffer" : 0,
            "byteLength" : 240,
            "byteOffset" : 0
        },
        {
            "buffer" : 0,
            "byteLength" : 240,
            "byteOffset" : 240
        },
        {
            "buffer" : 0,
            "byteLength" : 160,
            "byteOffset" : 480
        },
        {
            "buffer" : 0,
            "byteLength" : 60,
            "byteOffset" : 640
        },
        {
            "buffer" : 0,
            "byteLength" : 48,
            "byteOffset" : 700
        },
        {
            "buffer" : 0,
            "byteLength" : 48,
            "byteOffset" : 748
        },
        {
            "buffer" : 0,
            "byteLength" : 32,
            "byteOffset" : 796
        },
        {
            "buffer" : 0,
            "byteLength" : 12,
            "byteOffset" : 828
        },
        {
            "buffer" : 0,
            "byteLength" : 240,
            "byteOffset" : 840
        },
        {
            "buffer" : 0,
            "byteLength" : 240,
            "byteOffset" : 1080
        },
        {
            "buffer" : 0,
            "byteLength" : 160,
            "byteOffset" : 1320
        },
        {
            "buffer" : 0,
            "byteLength" : 336,
            "byteOffset" : 1480
        },
        {
            "buffer" : 0,
            "byteLength" : 336,
            "byteOffset" : 1816
        },
        {
            "buffer" : 0,
            "byteLength" : 224,
            "byteOffset" : 2152
        },
        {
            "buffer" : 0,
            "byteLength" : 108,
            "byteOffset" : 2376
        },
        {
            "buffer" : 0,
            "byteLength" : 384,
            "byteOffset" : 2484
        },
        {
            "buffer" : 0,
            "byteLength" : 384,
            "byteOffset" : 2868
        },
        {
            "buffer" : 0,
            "byteLength" : 256,
            "byteOffset" : 3252
        },
        {
            "buffer" : 0,
            "byteLength" : 120,
            "byteOffset" : 3508
        },
        {
            "buffer" : 0,
            "byteLength" : 240,
            "byteOffset" : 3628
        },
        {
            "buffer" : 0,
            "byteLength" : 240,
            "byteOffset" : 3868
        },
        {
            "buffer" : 0,
            "byteLength" : 160,
            "byteOffset" : 4108
        },
        {
            "buffer" : 0,
            "byteLength" : 336,
            "byteOffset" : 4268
        },
        {
            "buffer" : 0,
            "byteLength" : 336,
            "byteOffset" : 4604
        },
        {
            "buffer" : 0,
            "byteLength" : 224,
            "byteOffset" : 4940
        },
        {
            "buffer" : 0,
            "byteLength" : 240,
            "byteOffset" : 5164
        },
        {
            "buffer" : 0,
            "byteLength" : 240,
            "byteOffset" : 5404
        },
        {
            "buffer" : 0,
            "byteLength" : 160,
            "byteOffset" : 5644
        },
        {
            "buffer" : 0,
            "byteLength" : 48,
            "byteOffset" : 5804
        },
        {
            "buffer" : 0,
            "byteLength" : 48,
            "byteOffset" : 5852
        },
        {
            "buffer" : 0,
            "byteLength" : 32,
            "byteOffset" : 5900
        },
        {
            "buffer" : 0,
            "byteLength" : 240,
            "byteOffset" : 5932
        },
        {
            "buffer" : 0,
            "byteLength" : 240,
            "byteOffset" : 6172
        },
        {
            "buffer" : 0,
            "byteLength" : 160,
            "byteOffset" : 6412
        },
        {
            "buffer" : 0,
            "byteLength" : 48,
            "byteOffset" : 6572
        },
        {
            "buffer" : 0,
            "byteLength" : 48,
            "byteOffset" : 6620
        },
        {
            "buffer" : 0,
            "byteLength" : 32,
            "byteOffset" : 6668
        },
        {
            "buffer" : 0,
            "byteLength" : 864,
            "byteOffset" : 6700
        },
        {
            "buffer" : 0,
            "byteLength" : 864,
            "byteOffset" : 7564
        },
        {
            "buffer" : 0,
            "byteLength" : 576,
            "byteOffset" : 8428
        },
        {
            "buffer" : 0,
            "byteLength" : 384,
            "byteOffset" : 9004
        },
        {
            "buffer" : 0,
            "byteLength" : 432,
            "byteOffset" : 9388
        },
        {
            "buffer" : 0,
            "byteLength" : 432,
            "byteOffset" : 9820
        },
        {
            "buffer" : 0,
            "byteLength" : 288,
            "byteOffset" : 10252
        },
        {
            "buffer" : 0,
            "byteLength" : 120,
            "byteOffset" : 10540
        },
        {
            "buffer" : 0,
            "byteLength" : 360,
            "byteOffset" : 10660
        },
        {
            "buffer" : 0,
            "byteLength" : 360,
            "byteOffset" : 11020
        },
        {
            "buffer" : 0,
            "byteLength" : 240,
            "byteOffset" : 11380
        },
        {
            "buffer" : 0,
            "byteLength" : 168,
            "byteOffset" : 11620
        }
    ],
    "samplers" : [
        {
            "magFilter" : 9729,
            "minFilter" : 9987
        }
    ],
    "buffers" : [
        {
            "byteLength" : 11788,
            "uri" : "wenhaoxuanmeishebei.bin"
        }
    ]
}
