{
    "asset" : {
        "generator" : "Khronos glTF Blender I/O v1.7.33",
        "version" : "2.0"
    },
    "scene" : 0,
    "scenes" : [
        {
            "name" : "Scene",
            "nodes" : [
                36
            ]
        }
    ],
    "nodes" : [
        {
            "mesh" : 0,
            "name" : "pasted__polySurface333"
        },
        {
            "mesh" : 1,
            "name" : "pasted__polySurface6736"
        },
        {
            "mesh" : 2,
            "name" : "pasted__polySurface6737"
        },
        {
            "mesh" : 3,
            "name" : "pasted__polySurface6738"
        },
        {
            "mesh" : 4,
            "name" : "pasted__polySurface6739"
        },
        {
            "mesh" : 5,
            "name" : "pasted__polySurface6740"
        },
        {
            "mesh" : 6,
            "name" : "pasted__polySurface6741"
        },
        {
            "mesh" : 7,
            "name" : "pasted__polySurface6742"
        },
        {
            "mesh" : 8,
            "name" : "pasted__polySurface6743"
        },
        {
            "mesh" : 9,
            "name" : "pCube593"
        },
        {
            "mesh" : 10,
            "name" : "pCube594"
        },
        {
            "mesh" : 11,
            "name" : "pCube595"
        },
        {
            "mesh" : 12,
            "name" : "pCube596"
        },
        {
            "mesh" : 13,
            "name" : "pCube598"
        },
        {
            "mesh" : 14,
            "name" : "pCube599"
        },
        {
            "mesh" : 15,
            "name" : "pCube600"
        },
        {
            "mesh" : 16,
            "name" : "pCube602"
        },
        {
            "mesh" : 17,
            "name" : "pCylinder128"
        },
        {
            "mesh" : 18,
            "name" : "pCylinder134"
        },
        {
            "mesh" : 19,
            "name" : "pCylinder135"
        },
        {
            "mesh" : 20,
            "name" : "pCylinder149"
        },
        {
            "mesh" : 21,
            "name" : "pCylinder150"
        },
        {
            "mesh" : 22,
            "name" : "pCylinder151"
        },
        {
            "mesh" : 23,
            "name" : "pCylinder152"
        },
        {
            "mesh" : 24,
            "name" : "polySurface5953"
        },
        {
            "mesh" : 25,
            "name" : "polySurface5954"
        },
        {
            "mesh" : 26,
            "name" : "polySurface5955"
        },
        {
            "mesh" : 27,
            "name" : "polySurface5956"
        },
        {
            "mesh" : 28,
            "name" : "polySurface5957"
        },
        {
            "mesh" : 29,
            "name" : "polySurface5958"
        },
        {
            "mesh" : 30,
            "name" : "polySurface5959"
        },
        {
            "mesh" : 31,
            "name" : "polySurface5961"
        },
        {
            "mesh" : 32,
            "name" : "polySurface5962"
        },
        {
            "mesh" : 33,
            "name" : "polySurface9170"
        },
        {
            "children" : [
                0,
                1,
                2,
                3,
                4,
                5,
                6,
                7,
                8,
                9,
                10,
                11,
                12,
                13,
                14,
                15,
                16,
                17,
                18,
                19,
                20,
                21,
                22,
                23,
                24,
                25,
                26,
                27,
                28,
                29,
                30,
                31,
                32,
                33
            ],
            "name" : "zhongxinjiancai"
        },
        {
            "children" : [
                34
            ],
            "name" : "qiye"
        },
        {
            "children" : [
                35
            ],
            "name" : "jinluo",
            "rotation" : [
                0.7071068286895752,
                0,
                0,
                0.7071067094802856
            ],
            "scale" : [
                0.009999999776482582,
                0.009999999776482582,
                0.009999999776482582
            ]
        }
    ],
    "materials" : [
        {
            "doubleSided" : true,
            "name" : "stainless_steel2",
            "pbrMetallicRoughness" : {
                "baseColorFactor" : [
                    0.9720279574394226,
                    0.9720279574394226,
                    0.9720279574394226,
                    1
                ],
                "metallicFactor" : 0.24090909957885742,
                "roughnessFactor" : 0.2442217469215393
            }
        },
        {
            "doubleSided" : true,
            "emissiveFactor" : [
                1,
                1,
                1
            ],
            "emissiveTexture" : {
                "index" : 0
            },
            "name" : "baiqi",
            "pbrMetallicRoughness" : {
                "baseColorTexture" : {
                    "index" : 1
                },
                "metallicFactor" : 0
            }
        },
        {
            "doubleSided" : true,
            "emissiveFactor" : [
                0.5,
                0.5,
                0.5
            ],
            "emissiveTexture" : {
                "index" : 2
            },
            "name" : "red_ding",
            "pbrMetallicRoughness" : {
                "baseColorTexture" : {
                    "index" : 3
                },
                "metallicFactor" : 0
            }
        },
        {
            "doubleSided" : true,
            "emissiveFactor" : [
                0.6000000238418579,
                0.6000000238418579,
                0.6000000238418579
            ],
            "emissiveTexture" : {
                "index" : 4
            },
            "name" : "roof_3",
            "pbrMetallicRoughness" : {
                "baseColorTexture" : {
                    "index" : 5
                },
                "metallicFactor" : 0
            }
        },
        {
            "doubleSided" : true,
            "name" : "blue",
            "pbrMetallicRoughness" : {
                "baseColorFactor" : [
                    0.03400000184774399,
                    0.11410000175237656,
                    0.5782999992370605,
                    1
                ],
                "roughnessFactor" : 0.5527864098548889
            }
        },
        {
            "doubleSided" : true,
            "name" : "red",
            "pbrMetallicRoughness" : {
                "baseColorFactor" : [
                    0.5419355034828186,
                    0.09551259875297546,
                    0.09551259875297546,
                    1
                ],
                "metallicFactor" : 0.11818182468414307
            }
        },
        {
            "doubleSided" : true,
            "name" : "fangzi_lambert5",
            "pbrMetallicRoughness" : {
                "baseColorFactor" : [
                    0.9225806593894958,
                    0.9225806593894958,
                    0.9225806593894958,
                    1
                ],
                "roughnessFactor" : 0.5527864098548889
            }
        },
        {
            "doubleSided" : true,
            "name" : "shuini2",
            "pbrMetallicRoughness" : {
                "baseColorTexture" : {
                    "index" : 6
                },
                "metallicFactor" : 0
            }
        },
        {
            "doubleSided" : true,
            "emissiveFactor" : [
                0.20368212461471558,
                0.20368212461471558,
                0.20368212461471558
            ],
            "name" : "lambert1",
            "pbrMetallicRoughness" : {
                "baseColorFactor" : [
                    0.8043156862258911,
                    0.8043156862258911,
                    0.8043156862258911,
                    1
                ],
                "metallicFactor" : 0
            }
        },
        {
            "doubleSided" : true,
            "name" : "shuimian",
            "pbrMetallicRoughness" : {
                "baseColorTexture" : {
                    "index" : 7
                },
                "metallicFactor" : 0,
                "roughnessFactor" : 0.07551369071006775
            }
        },
        {
            "doubleSided" : true,
            "name" : "boli",
            "pbrMetallicRoughness" : {
                "baseColorFactor" : [
                    0,
                    0,
                    0,
                    1
                ],
                "metallicFactor" : 0,
                "roughnessFactor" : 0.08513082563877106
            }
        },
        {
            "doubleSided" : true,
            "name" : "shuini",
            "pbrMetallicRoughness" : {
                "baseColorTexture" : {
                    "index" : 8
                },
                "metallicFactor" : 0
            }
        },
        {
            "doubleSided" : true,
            "name" : "chuanghu",
            "pbrMetallicRoughness" : {
                "metallicFactor" : 0.5,
                "roughnessFactor" : 0.7487671971321106
            }
        },
        {
            "doubleSided" : true,
            "emissiveFactor" : [
                0.6000000238418579,
                0.6000000238418579,
                0.6000000238418579
            ],
            "emissiveTexture" : {
                "index" : 9
            },
            "name" : "dimianshuini1",
            "pbrMetallicRoughness" : {
                "baseColorTexture" : {
                    "index" : 10
                },
                "metallicFactor" : 0
            }
        }
    ],
    "meshes" : [
        {
            "name" : "\u7f51\u683c.587",
            "primitives" : [
                {
                    "attributes" : {
                        "POSITION" : 0,
                        "NORMAL" : 1,
                        "TEXCOORD_0" : 2
                    },
                    "indices" : 3,
                    "material" : 0
                }
            ]
        },
        {
            "name" : "\u7f51\u683c.580",
            "primitives" : [
                {
                    "attributes" : {
                        "POSITION" : 4,
                        "NORMAL" : 5,
                        "TEXCOORD_0" : 6
                    },
                    "indices" : 7,
                    "material" : 0
                }
            ]
        },
        {
            "name" : "\u7f51\u683c.579",
            "primitives" : [
                {
                    "attributes" : {
                        "POSITION" : 8,
                        "NORMAL" : 9,
                        "TEXCOORD_0" : 10
                    },
                    "indices" : 7,
                    "material" : 0
                }
            ]
        },
        {
            "name" : "\u7f51\u683c.575",
            "primitives" : [
                {
                    "attributes" : {
                        "POSITION" : 11,
                        "NORMAL" : 12,
                        "TEXCOORD_0" : 13
                    },
                    "indices" : 7,
                    "material" : 0
                }
            ]
        },
        {
            "name" : "\u7f51\u683c.574",
            "primitives" : [
                {
                    "attributes" : {
                        "POSITION" : 14,
                        "NORMAL" : 15,
                        "TEXCOORD_0" : 16
                    },
                    "indices" : 7,
                    "material" : 0
                }
            ]
        },
        {
            "name" : "\u7f51\u683c.573",
            "primitives" : [
                {
                    "attributes" : {
                        "POSITION" : 17,
                        "NORMAL" : 18,
                        "TEXCOORD_0" : 19
                    },
                    "indices" : 20,
                    "material" : 0
                }
            ]
        },
        {
            "name" : "\u7f51\u683c.572",
            "primitives" : [
                {
                    "attributes" : {
                        "POSITION" : 21,
                        "NORMAL" : 22,
                        "TEXCOORD_0" : 23
                    },
                    "indices" : 20,
                    "material" : 0
                }
            ]
        },
        {
            "name" : "\u7f51\u683c.571",
            "primitives" : [
                {
                    "attributes" : {
                        "POSITION" : 24,
                        "NORMAL" : 25,
                        "TEXCOORD_0" : 26
                    },
                    "indices" : 20,
                    "material" : 0
                }
            ]
        },
        {
            "name" : "\u7f51\u683c.570",
            "primitives" : [
                {
                    "attributes" : {
                        "POSITION" : 27,
                        "NORMAL" : 28,
                        "TEXCOORD_0" : 29
                    },
                    "indices" : 20,
                    "material" : 0
                }
            ]
        },
        {
            "name" : "\u7f51\u683c.578",
            "primitives" : [
                {
                    "attributes" : {
                        "POSITION" : 30,
                        "NORMAL" : 31,
                        "TEXCOORD_0" : 32
                    },
                    "indices" : 33,
                    "material" : 1
                },
                {
                    "attributes" : {
                        "POSITION" : 34,
                        "NORMAL" : 35,
                        "TEXCOORD_0" : 36
                    },
                    "indices" : 37,
                    "material" : 2
                }
            ]
        },
        {
            "name" : "\u7f51\u683c.577",
            "primitives" : [
                {
                    "attributes" : {
                        "POSITION" : 38,
                        "NORMAL" : 39,
                        "TEXCOORD_0" : 40
                    },
                    "indices" : 41,
                    "material" : 1
                }
            ]
        },
        {
            "name" : "\u7f51\u683c.569",
            "primitives" : [
                {
                    "attributes" : {
                        "POSITION" : 42,
                        "NORMAL" : 43,
                        "TEXCOORD_0" : 44
                    },
                    "indices" : 45,
                    "material" : 1
                },
                {
                    "attributes" : {
                        "POSITION" : 46,
                        "NORMAL" : 47,
                        "TEXCOORD_0" : 48
                    },
                    "indices" : 37,
                    "material" : 2
                }
            ]
        },
        {
            "name" : "\u7f51\u683c.564",
            "primitives" : [
                {
                    "attributes" : {
                        "POSITION" : 49,
                        "NORMAL" : 50,
                        "TEXCOORD_0" : 51
                    },
                    "indices" : 52,
                    "material" : 1
                }
            ]
        },
        {
            "name" : "\u7f51\u683c.560",
            "primitives" : [
                {
                    "attributes" : {
                        "POSITION" : 53,
                        "NORMAL" : 54,
                        "TEXCOORD_0" : 55
                    },
                    "indices" : 33,
                    "material" : 1
                },
                {
                    "attributes" : {
                        "POSITION" : 56,
                        "NORMAL" : 57,
                        "TEXCOORD_0" : 58
                    },
                    "indices" : 37,
                    "material" : 3
                }
            ]
        },
        {
            "name" : "\u7f51\u683c.559",
            "primitives" : [
                {
                    "attributes" : {
                        "POSITION" : 59,
                        "NORMAL" : 60,
                        "TEXCOORD_0" : 61
                    },
                    "indices" : 45,
                    "material" : 1
                },
                {
                    "attributes" : {
                        "POSITION" : 62,
                        "NORMAL" : 63,
                        "TEXCOORD_0" : 64
                    },
                    "indices" : 37,
                    "material" : 2
                }
            ]
        },
        {
            "name" : "\u7f51\u683c.562",
            "primitives" : [
                {
                    "attributes" : {
                        "POSITION" : 65,
                        "NORMAL" : 66,
                        "TEXCOORD_0" : 67
                    },
                    "indices" : 68,
                    "material" : 1
                },
                {
                    "attributes" : {
                        "POSITION" : 69,
                        "NORMAL" : 70,
                        "TEXCOORD_0" : 71
                    },
                    "indices" : 72,
                    "material" : 2
                }
            ]
        },
        {
            "name" : "\u7f51\u683c.557",
            "primitives" : [
                {
                    "attributes" : {
                        "POSITION" : 73,
                        "NORMAL" : 74,
                        "TEXCOORD_0" : 75
                    },
                    "indices" : 45,
                    "material" : 4
                },
                {
                    "attributes" : {
                        "POSITION" : 76,
                        "NORMAL" : 77,
                        "TEXCOORD_0" : 78
                    },
                    "indices" : 37,
                    "material" : 2
                }
            ]
        },
        {
            "name" : "\u7f51\u683c.588",
            "primitives" : [
                {
                    "attributes" : {
                        "POSITION" : 79,
                        "NORMAL" : 80,
                        "TEXCOORD_0" : 81
                    },
                    "indices" : 82,
                    "material" : 2
                },
                {
                    "attributes" : {
                        "POSITION" : 83,
                        "NORMAL" : 84,
                        "TEXCOORD_0" : 85
                    },
                    "indices" : 86,
                    "material" : 5
                }
            ]
        },
        {
            "name" : "\u7f51\u683c.576",
            "primitives" : [
                {
                    "attributes" : {
                        "POSITION" : 87,
                        "NORMAL" : 88,
                        "TEXCOORD_0" : 89
                    },
                    "indices" : 90,
                    "material" : 0
                }
            ]
        },
        {
            "name" : "\u7f51\u683c.568",
            "primitives" : [
                {
                    "attributes" : {
                        "POSITION" : 91,
                        "NORMAL" : 92,
                        "TEXCOORD_0" : 93
                    },
                    "indices" : 94,
                    "material" : 6
                }
            ]
        },
        {
            "name" : "\u7f51\u683c.563",
            "primitives" : [
                {
                    "attributes" : {
                        "POSITION" : 95,
                        "NORMAL" : 96,
                        "TEXCOORD_0" : 97
                    },
                    "indices" : 98,
                    "material" : 4
                },
                {
                    "attributes" : {
                        "POSITION" : 99,
                        "NORMAL" : 100,
                        "TEXCOORD_0" : 101
                    },
                    "indices" : 102,
                    "material" : 7
                }
            ]
        },
        {
            "name" : "\u7f51\u683c.567",
            "primitives" : [
                {
                    "attributes" : {
                        "POSITION" : 103,
                        "NORMAL" : 104,
                        "TEXCOORD_0" : 105
                    },
                    "indices" : 98,
                    "material" : 4
                },
                {
                    "attributes" : {
                        "POSITION" : 106,
                        "NORMAL" : 107,
                        "TEXCOORD_0" : 108
                    },
                    "indices" : 102,
                    "material" : 7
                }
            ]
        },
        {
            "name" : "\u7f51\u683c.566",
            "primitives" : [
                {
                    "attributes" : {
                        "POSITION" : 109,
                        "NORMAL" : 110,
                        "TEXCOORD_0" : 111
                    },
                    "indices" : 112,
                    "material" : 1
                }
            ]
        },
        {
            "name" : "\u7f51\u683c.565",
            "primitives" : [
                {
                    "attributes" : {
                        "POSITION" : 113,
                        "NORMAL" : 114,
                        "TEXCOORD_0" : 115
                    },
                    "indices" : 112,
                    "material" : 1
                }
            ]
        },
        {
            "name" : "\u7f51\u683c.586",
            "primitives" : [
                {
                    "attributes" : {
                        "POSITION" : 116,
                        "NORMAL" : 117,
                        "TEXCOORD_0" : 118
                    },
                    "indices" : 119,
                    "material" : 8
                }
            ]
        },
        {
            "name" : "\u7f51\u683c.584",
            "primitives" : [
                {
                    "attributes" : {
                        "POSITION" : 120,
                        "NORMAL" : 121,
                        "TEXCOORD_0" : 122
                    },
                    "indices" : 123,
                    "material" : 9
                }
            ]
        },
        {
            "name" : "\u7f51\u683c.583",
            "primitives" : [
                {
                    "attributes" : {
                        "POSITION" : 124,
                        "NORMAL" : 125,
                        "TEXCOORD_0" : 126
                    },
                    "indices" : 127,
                    "material" : 8
                }
            ]
        },
        {
            "name" : "\u7f51\u683c.582",
            "primitives" : [
                {
                    "attributes" : {
                        "POSITION" : 128,
                        "NORMAL" : 129,
                        "TEXCOORD_0" : 130
                    },
                    "indices" : 131,
                    "material" : 1
                }
            ]
        },
        {
            "name" : "\u7f51\u683c.581",
            "primitives" : [
                {
                    "attributes" : {
                        "POSITION" : 132,
                        "NORMAL" : 133,
                        "TEXCOORD_0" : 134
                    },
                    "indices" : 135,
                    "material" : 2
                }
            ]
        },
        {
            "name" : "\u7f51\u683c.561",
            "primitives" : [
                {
                    "attributes" : {
                        "POSITION" : 136,
                        "NORMAL" : 137,
                        "TEXCOORD_0" : 138
                    },
                    "indices" : 45,
                    "material" : 1
                }
            ]
        },
        {
            "name" : "\u7f51\u683c.558",
            "primitives" : [
                {
                    "attributes" : {
                        "POSITION" : 139,
                        "NORMAL" : 140,
                        "TEXCOORD_0" : 141
                    },
                    "indices" : 142,
                    "material" : 2
                }
            ]
        },
        {
            "name" : "\u7f51\u683c.556",
            "primitives" : [
                {
                    "attributes" : {
                        "POSITION" : 143,
                        "NORMAL" : 144,
                        "TEXCOORD_0" : 145
                    },
                    "indices" : 146,
                    "material" : 7
                },
                {
                    "attributes" : {
                        "POSITION" : 147,
                        "NORMAL" : 148,
                        "TEXCOORD_0" : 149
                    },
                    "indices" : 150,
                    "material" : 1
                },
                {
                    "attributes" : {
                        "POSITION" : 151,
                        "NORMAL" : 152,
                        "TEXCOORD_0" : 153
                    },
                    "indices" : 154,
                    "material" : 10
                }
            ]
        },
        {
            "name" : "\u7f51\u683c.555",
            "primitives" : [
                {
                    "attributes" : {
                        "POSITION" : 155,
                        "NORMAL" : 156,
                        "TEXCOORD_0" : 157
                    },
                    "indices" : 158,
                    "material" : 7
                },
                {
                    "attributes" : {
                        "POSITION" : 159,
                        "NORMAL" : 160,
                        "TEXCOORD_0" : 161
                    },
                    "indices" : 162,
                    "material" : 1
                },
                {
                    "attributes" : {
                        "POSITION" : 163,
                        "NORMAL" : 164,
                        "TEXCOORD_0" : 165
                    },
                    "indices" : 166,
                    "material" : 11
                },
                {
                    "attributes" : {
                        "POSITION" : 167,
                        "NORMAL" : 168,
                        "TEXCOORD_0" : 169
                    },
                    "indices" : 170,
                    "material" : 12
                },
                {
                    "attributes" : {
                        "POSITION" : 171,
                        "NORMAL" : 172,
                        "TEXCOORD_0" : 173
                    },
                    "indices" : 154,
                    "material" : 10
                }
            ]
        },
        {
            "name" : "\u7f51\u683c.585",
            "primitives" : [
                {
                    "attributes" : {
                        "POSITION" : 174,
                        "NORMAL" : 175,
                        "TEXCOORD_0" : 176
                    },
                    "indices" : 177,
                    "material" : 13
                }
            ]
        }
    ],
    "textures" : [
        {
            "sampler" : 0,
            "source" : 0
        },
        {
            "sampler" : 0,
            "source" : 0
        },
        {
            "sampler" : 0,
            "source" : 1
        },
        {
            "sampler" : 0,
            "source" : 1
        },
        {
            "sampler" : 0,
            "source" : 2
        },
        {
            "sampler" : 0,
            "source" : 2
        },
        {
            "sampler" : 0,
            "source" : 3
        },
        {
            "sampler" : 0,
            "source" : 4
        },
        {
            "sampler" : 0,
            "source" : 5
        },
        {
            "sampler" : 0,
            "source" : 6
        },
        {
            "sampler" : 0,
            "source" : 6
        }
    ],
    "images" : [
        {
            "mimeType" : "image/jpeg",
            "name" : "baiqiang_clorl",
            "uri" : "baiqiang_clorl.jpg"
        },
        {
            "mimeType" : "image/jpeg",
            "name" : "ding3",
            "uri" : "ding3.jpg"
        },
        {
            "mimeType" : "image/jpeg",
            "name" : "houseTop",
            "uri" : "houseTop.jpg"
        },
        {
            "mimeType" : "image/jpeg",
            "name" : "883047",
            "uri" : "883047.jpg"
        },
        {
            "mimeType" : "image/jpeg",
            "name" : "shuimian",
            "uri" : "shuimian.jpg"
        },
        {
            "mimeType" : "image/jpeg",
            "name" : "jinluozhen13:jinluozhen7:jinluozhen:jinluozhen:yitai_fe_e8cc355",
            "uri" : "jinluozhen13jinluozhen7jinluozhenjinluozhenyitai_fe_e8cc355.jpg"
        },
        {
            "mimeType" : "image/png",
            "name" : "land_shadow",
            "uri" : "land_shadow.png"
        }
    ],
    "accessors" : [
        {
            "bufferView" : 0,
            "componentType" : 5126,
            "count" : 233,
            "max" : [
                -32654.908203125,
                -67250.2734375,
                -9312.8896484375
            ],
            "min" : [
                -33440.4609375,
                -69573.921875,
                -9584.2998046875
            ],
            "type" : "VEC3"
        },
        {
            "bufferView" : 1,
            "componentType" : 5126,
            "count" : 233,
            "type" : "VEC3"
        },
        {
            "bufferView" : 2,
            "componentType" : 5126,
            "count" : 233,
            "type" : "VEC2"
        },
        {
            "bufferView" : 3,
            "componentType" : 5123,
            "count" : 1200,
            "type" : "SCALAR"
        },
        {
            "bufferView" : 4,
            "componentType" : 5126,
            "count" : 126,
            "max" : [
                -31605.408203125,
                -68954.046875,
                -9231.8837890625
            ],
            "min" : [
                -33243.1328125,
                -69495.7109375,
                -9584.130859375
            ],
            "type" : "VEC3"
        },
        {
            "bufferView" : 5,
            "componentType" : 5126,
            "count" : 126,
            "type" : "VEC3"
        },
        {
            "bufferView" : 6,
            "componentType" : 5126,
            "count" : 126,
            "type" : "VEC2"
        },
        {
            "bufferView" : 7,
            "componentType" : 5123,
            "count" : 624,
            "type" : "SCALAR"
        },
        {
            "bufferView" : 8,
            "componentType" : 5126,
            "count" : 126,
            "max" : [
                -32031.310546875,
                -68205.859375,
                -9429.4931640625
            ],
            "min" : [
                -32961.328125,
                -68527.40625,
                -9567.240234375
            ],
            "type" : "VEC3"
        },
        {
            "bufferView" : 9,
            "componentType" : 5126,
            "count" : 126,
            "type" : "VEC3"
        },
        {
            "bufferView" : 10,
            "componentType" : 5126,
            "count" : 126,
            "type" : "VEC2"
        },
        {
            "bufferView" : 11,
            "componentType" : 5126,
            "count" : 126,
            "max" : [
                -32070.494140625,
                -69517.671875,
                -9231.8837890625
            ],
            "min" : [
                -33419.61328125,
                -69974.1640625,
                -9583.521484375
            ],
            "type" : "VEC3"
        },
        {
            "bufferView" : 12,
            "componentType" : 5126,
            "count" : 126,
            "type" : "VEC3"
        },
        {
            "bufferView" : 13,
            "componentType" : 5126,
            "count" : 126,
            "type" : "VEC2"
        },
        {
            "bufferView" : 14,
            "componentType" : 5126,
            "count" : 126,
            "max" : [
                -32136.595703125,
                -69235.265625,
                -9444.6103515625
            ],
            "min" : [
                -33334.71484375,
                -69643.140625,
                -9583.103515625
            ],
            "type" : "VEC3"
        },
        {
            "bufferView" : 15,
            "componentType" : 5126,
            "count" : 126,
            "type" : "VEC3"
        },
        {
            "bufferView" : 16,
            "componentType" : 5126,
            "count" : 126,
            "type" : "VEC2"
        },
        {
            "bufferView" : 17,
            "componentType" : 5126,
            "count" : 108,
            "max" : [
                -32528.625,
                -69056.640625,
                -9231.8837890625
            ],
            "min" : [
                -32584.470703125,
                -69173.21875,
                -9571.0693359375
            ],
            "type" : "VEC3"
        },
        {
            "bufferView" : 18,
            "componentType" : 5126,
            "count" : 108,
            "type" : "VEC3"
        },
        {
            "bufferView" : 19,
            "componentType" : 5126,
            "count" : 108,
            "type" : "VEC2"
        },
        {
            "bufferView" : 20,
            "componentType" : 5123,
            "count" : 528,
            "type" : "SCALAR"
        },
        {
            "bufferView" : 21,
            "componentType" : 5126,
            "count" : 108,
            "max" : [
                -32852.26171875,
                -68951.5625,
                -9231.8837890625
            ],
            "min" : [
                -32908.078125,
                -69068.1328125,
                -9571.0693359375
            ],
            "type" : "VEC3"
        },
        {
            "bufferView" : 22,
            "componentType" : 5126,
            "count" : 108,
            "type" : "VEC3"
        },
        {
            "bufferView" : 23,
            "componentType" : 5126,
            "count" : 108,
            "type" : "VEC2"
        },
        {
            "bufferView" : 24,
            "componentType" : 5126,
            "count" : 108,
            "max" : [
                -32207.76171875,
                -69169.2578125,
                -9231.8837890625
            ],
            "min" : [
                -32263.546875,
                -69285.8359375,
                -9571.0693359375
            ],
            "type" : "VEC3"
        },
        {
            "bufferView" : 25,
            "componentType" : 5126,
            "count" : 108,
            "type" : "VEC3"
        },
        {
            "bufferView" : 26,
            "componentType" : 5126,
            "count" : 108,
            "type" : "VEC2"
        },
        {
            "bufferView" : 27,
            "componentType" : 5126,
            "count" : 108,
            "max" : [
                -31878.35546875,
                -69263.78125,
                -9231.8837890625
            ],
            "min" : [
                -31934.171875,
                -69380.3515625,
                -9571.0693359375
            ],
            "type" : "VEC3"
        },
        {
            "bufferView" : 28,
            "componentType" : 5126,
            "count" : 108,
            "type" : "VEC3"
        },
        {
            "bufferView" : 29,
            "componentType" : 5126,
            "count" : 108,
            "type" : "VEC2"
        },
        {
            "bufferView" : 30,
            "componentType" : 5126,
            "count" : 20,
            "max" : [
                -33210.75,
                -68655.2109375,
                -9231.8828125
            ],
            "min" : [
                -33844.90625,
                -69381.4609375,
                -9579.3291015625
            ],
            "type" : "VEC3"
        },
        {
            "bufferView" : 31,
            "componentType" : 5126,
            "count" : 20,
            "type" : "VEC3"
        },
        {
            "bufferView" : 32,
            "componentType" : 5126,
            "count" : 20,
            "type" : "VEC2"
        },
        {
            "bufferView" : 33,
            "componentType" : 5123,
            "count" : 30,
            "type" : "SCALAR"
        },
        {
            "bufferView" : 34,
            "componentType" : 5126,
            "count" : 4,
            "max" : [
                -33210.75,
                -68655.2109375,
                -9493.6689453125
            ],
            "min" : [
                -33844.87890625,
                -69381.4609375,
                -9579.3291015625
            ],
            "type" : "VEC3"
        },
        {
            "bufferView" : 35,
            "componentType" : 5126,
            "count" : 4,
            "type" : "VEC3"
        },
        {
            "bufferView" : 36,
            "componentType" : 5126,
            "count" : 4,
            "type" : "VEC2"
        },
        {
            "bufferView" : 37,
            "componentType" : 5123,
            "count" : 6,
            "type" : "SCALAR"
        },
        {
            "bufferView" : 38,
            "componentType" : 5126,
            "count" : 48,
            "max" : [
                -31292.48046875,
                -68116.9140625,
                -9231.87890625
            ],
            "min" : [
                -33581.54296875,
                -70478.5234375,
                -9443.0869140625
            ],
            "type" : "VEC3"
        },
        {
            "bufferView" : 39,
            "componentType" : 5126,
            "count" : 48,
            "type" : "VEC3"
        },
        {
            "bufferView" : 40,
            "componentType" : 5126,
            "count" : 48,
            "type" : "VEC2"
        },
        {
            "bufferView" : 41,
            "componentType" : 5123,
            "count" : 96,
            "type" : "SCALAR"
        },
        {
            "bufferView" : 42,
            "componentType" : 5126,
            "count" : 20,
            "max" : [
                -28893.431640625,
                -68436.109375,
                -9231.8828125
            ],
            "min" : [
                -29958.158203125,
                -69365.2578125,
                -9802.4775390625
            ],
            "type" : "VEC3"
        },
        {
            "bufferView" : 43,
            "componentType" : 5126,
            "count" : 20,
            "type" : "VEC3"
        },
        {
            "bufferView" : 44,
            "componentType" : 5126,
            "count" : 20,
            "type" : "VEC2"
        },
        {
            "bufferView" : 45,
            "componentType" : 5123,
            "count" : 30,
            "type" : "SCALAR"
        },
        {
            "bufferView" : 46,
            "componentType" : 5126,
            "count" : 4,
            "max" : [
                -28893.431640625,
                -68436.109375,
                -9716.8134765625
            ],
            "min" : [
                -29958.158203125,
                -69365.2578125,
                -9802.4775390625
            ],
            "type" : "VEC3"
        },
        {
            "bufferView" : 47,
            "componentType" : 5126,
            "count" : 4,
            "type" : "VEC3"
        },
        {
            "bufferView" : 48,
            "componentType" : 5126,
            "count" : 4,
            "type" : "VEC2"
        },
        {
            "bufferView" : 49,
            "componentType" : 5126,
            "count" : 44,
            "max" : [
                -28321.53125,
                -66316.6640625,
                -9231.8828125
            ],
            "min" : [
                -29386.259765625,
                -67245.796875,
                -10175.97265625
            ],
            "type" : "VEC3"
        },
        {
            "bufferView" : 50,
            "componentType" : 5126,
            "count" : 44,
            "type" : "VEC3"
        },
        {
            "bufferView" : 51,
            "componentType" : 5126,
            "count" : 44,
            "type" : "VEC2"
        },
        {
            "bufferView" : 52,
            "componentType" : 5123,
            "count" : 78,
            "type" : "SCALAR"
        },
        {
            "bufferView" : 53,
            "componentType" : 5126,
            "count" : 20,
            "max" : [
                -28147.337890625,
                -68894.84375,
                -9231.8828125
            ],
            "min" : [
                -28995.451171875,
                -69758.9921875,
                -9747.1533203125
            ],
            "type" : "VEC3"
        },
        {
            "bufferView" : 54,
            "componentType" : 5126,
            "count" : 20,
            "type" : "VEC3"
        },
        {
            "bufferView" : 55,
            "componentType" : 5126,
            "count" : 20,
            "type" : "VEC2"
        },
        {
            "bufferView" : 56,
            "componentType" : 5126,
            "count" : 4,
            "max" : [
                -28147.337890625,
                -68894.84375,
                -9703.3876953125
            ],
            "min" : [
                -28995.451171875,
                -69758.9921875,
                -9747.1533203125
            ],
            "type" : "VEC3"
        },
        {
            "bufferView" : 57,
            "componentType" : 5126,
            "count" : 4,
            "type" : "VEC3"
        },
        {
            "bufferView" : 58,
            "componentType" : 5126,
            "count" : 4,
            "type" : "VEC2"
        },
        {
            "bufferView" : 59,
            "componentType" : 5126,
            "count" : 20,
            "max" : [
                -28886.353515625,
                -67020.625,
                -9231.8828125
            ],
            "min" : [
                -29748.291015625,
                -68566.8984375,
                -9596.2744140625
            ],
            "type" : "VEC3"
        },
        {
            "bufferView" : 60,
            "componentType" : 5126,
            "count" : 20,
            "type" : "VEC3"
        },
        {
            "bufferView" : 61,
            "componentType" : 5126,
            "count" : 20,
            "type" : "VEC2"
        },
        {
            "bufferView" : 62,
            "componentType" : 5126,
            "count" : 4,
            "max" : [
                -28886.353515625,
                -67020.625,
                -9557.6416015625
            ],
            "min" : [
                -29748.259765625,
                -68566.890625,
                -9596.2744140625
            ],
            "type" : "VEC3"
        },
        {
            "bufferView" : 63,
            "componentType" : 5126,
            "count" : 4,
            "type" : "VEC3"
        },
        {
            "bufferView" : 64,
            "componentType" : 5126,
            "count" : 4,
            "type" : "VEC2"
        },
        {
            "bufferView" : 65,
            "componentType" : 5126,
            "count" : 38,
            "max" : [
                -27135.955078125,
                -67580.546875,
                -9231.8828125
            ],
            "min" : [
                -28837.064453125,
                -69176.53125,
                -9759.6484375
            ],
            "type" : "VEC3"
        },
        {
            "bufferView" : 66,
            "componentType" : 5126,
            "count" : 38,
            "type" : "VEC3"
        },
        {
            "bufferView" : 67,
            "componentType" : 5126,
            "count" : 38,
            "type" : "VEC2"
        },
        {
            "bufferView" : 68,
            "componentType" : 5123,
            "count" : 66,
            "type" : "SCALAR"
        },
        {
            "bufferView" : 69,
            "componentType" : 5126,
            "count" : 8,
            "max" : [
                -27135.955078125,
                -67580.546875,
                -9703.01171875
            ],
            "min" : [
                -28837.064453125,
                -69176.53125,
                -9759.6484375
            ],
            "type" : "VEC3"
        },
        {
            "bufferView" : 70,
            "componentType" : 5126,
            "count" : 8,
            "type" : "VEC3"
        },
        {
            "bufferView" : 71,
            "componentType" : 5126,
            "count" : 8,
            "type" : "VEC2"
        },
        {
            "bufferView" : 72,
            "componentType" : 5123,
            "count" : 18,
            "type" : "SCALAR"
        },
        {
            "bufferView" : 73,
            "componentType" : 5126,
            "count" : 20,
            "max" : [
                -26906.5234375,
                -66590.484375,
                -9231.8828125
            ],
            "min" : [
                -28571.623046875,
                -67952.1640625,
                -9759.6455078125
            ],
            "type" : "VEC3"
        },
        {
            "bufferView" : 74,
            "componentType" : 5126,
            "count" : 20,
            "type" : "VEC3"
        },
        {
            "bufferView" : 75,
            "componentType" : 5126,
            "count" : 20,
            "type" : "VEC2"
        },
        {
            "bufferView" : 76,
            "componentType" : 5126,
            "count" : 4,
            "max" : [
                -26906.5234375,
                -66590.484375,
                -9759.6455078125
            ],
            "min" : [
                -28571.623046875,
                -67952.15625,
                -9759.6455078125
            ],
            "type" : "VEC3"
        },
        {
            "bufferView" : 77,
            "componentType" : 5126,
            "count" : 4,
            "type" : "VEC3"
        },
        {
            "bufferView" : 78,
            "componentType" : 5126,
            "count" : 4,
            "type" : "VEC2"
        },
        {
            "bufferView" : 79,
            "componentType" : 5126,
            "count" : 30,
            "max" : [
                -32827.453125,
                -62455.44921875,
                -9969.96875
            ],
            "min" : [
                -35242.98046875,
                -65799.8203125,
                -10425.109375
            ],
            "type" : "VEC3"
        },
        {
            "bufferView" : 80,
            "componentType" : 5126,
            "count" : 30,
            "type" : "VEC3"
        },
        {
            "bufferView" : 81,
            "componentType" : 5126,
            "count" : 30,
            "type" : "VEC2"
        },
        {
            "bufferView" : 82,
            "componentType" : 5123,
            "count" : 72,
            "type" : "SCALAR"
        },
        {
            "bufferView" : 83,
            "componentType" : 5126,
            "count" : 24,
            "max" : [
                -32827.453125,
                -62455.44921875,
                -9231.8828125
            ],
            "min" : [
                -35242.98046875,
                -65799.8203125,
                -9969.97265625
            ],
            "type" : "VEC3"
        },
        {
            "bufferView" : 84,
            "componentType" : 5126,
            "count" : 24,
            "type" : "VEC3"
        },
        {
            "bufferView" : 85,
            "componentType" : 5126,
            "count" : 24,
            "type" : "VEC2"
        },
        {
            "bufferView" : 86,
            "componentType" : 5123,
            "count" : 36,
            "type" : "SCALAR"
        },
        {
            "bufferView" : 87,
            "componentType" : 5126,
            "count" : 260,
            "max" : [
                -31363.5546875,
                -68125.390625,
                -9231.8837890625
            ],
            "min" : [
                -33476.1640625,
                -70398.1640625,
                -9505.380859375
            ],
            "type" : "VEC3"
        },
        {
            "bufferView" : 88,
            "componentType" : 5126,
            "count" : 260,
            "type" : "VEC3"
        },
        {
            "bufferView" : 89,
            "componentType" : 5126,
            "count" : 260,
            "type" : "VEC2"
        },
        {
            "bufferView" : 90,
            "componentType" : 5123,
            "count" : 720,
            "type" : "SCALAR"
        },
        {
            "bufferView" : 91,
            "componentType" : 5126,
            "count" : 186,
            "max" : [
                -34248.50390625,
                -65822.34375,
                -9231.8828125
            ],
            "min" : [
                -35299.41015625,
                -66305.4453125,
                -9445.796875
            ],
            "type" : "VEC3"
        },
        {
            "bufferView" : 92,
            "componentType" : 5126,
            "count" : 186,
            "type" : "VEC3"
        },
        {
            "bufferView" : 93,
            "componentType" : 5126,
            "count" : 186,
            "type" : "VEC2"
        },
        {
            "bufferView" : 94,
            "componentType" : 5123,
            "count" : 360,
            "type" : "SCALAR"
        },
        {
            "bufferView" : 95,
            "componentType" : 5126,
            "count" : 434,
            "max" : [
                -28471.740234375,
                -66593.8984375,
                -10175.2451171875
            ],
            "min" : [
                -28760.83203125,
                -66882.96875,
                -10763.8037109375
            ],
            "type" : "VEC3"
        },
        {
            "bufferView" : 96,
            "componentType" : 5126,
            "count" : 434,
            "type" : "VEC3"
        },
        {
            "bufferView" : 97,
            "componentType" : 5126,
            "count" : 434,
            "type" : "VEC2"
        },
        {
            "bufferView" : 98,
            "componentType" : 5123,
            "count" : 1512,
            "type" : "SCALAR"
        },
        {
            "bufferView" : 99,
            "componentType" : 5126,
            "count" : 33,
            "max" : [
                -28471.740234375,
                -66593.8984375,
                -10719.1591796875
            ],
            "min" : [
                -28760.83203125,
                -66882.96875,
                -10821.291015625
            ],
            "type" : "VEC3"
        },
        {
            "bufferView" : 100,
            "componentType" : 5126,
            "count" : 33,
            "type" : "VEC3"
        },
        {
            "bufferView" : 101,
            "componentType" : 5126,
            "count" : 33,
            "type" : "VEC2"
        },
        {
            "bufferView" : 102,
            "componentType" : 5123,
            "count" : 66,
            "type" : "SCALAR"
        },
        {
            "bufferView" : 103,
            "componentType" : 5126,
            "count" : 434,
            "max" : [
                -28872.52734375,
                -66470.7734375,
                -10175.2451171875
            ],
            "min" : [
                -29161.619140625,
                -66759.8515625,
                -10763.8037109375
            ],
            "type" : "VEC3"
        },
        {
            "bufferView" : 104,
            "componentType" : 5126,
            "count" : 434,
            "type" : "VEC3"
        },
        {
            "bufferView" : 105,
            "componentType" : 5126,
            "count" : 434,
            "type" : "VEC2"
        },
        {
            "bufferView" : 106,
            "componentType" : 5126,
            "count" : 33,
            "max" : [
                -28872.52734375,
                -66470.7734375,
                -10719.1591796875
            ],
            "min" : [
                -29161.619140625,
                -66759.8515625,
                -10821.291015625
            ],
            "type" : "VEC3"
        },
        {
            "bufferView" : 107,
            "componentType" : 5126,
            "count" : 33,
            "type" : "VEC3"
        },
        {
            "bufferView" : 108,
            "componentType" : 5126,
            "count" : 33,
            "type" : "VEC2"
        },
        {
            "bufferView" : 109,
            "componentType" : 5126,
            "count" : 63,
            "max" : [
                -29244.505859375,
                -65846.4921875,
                -9231.8857421875
            ],
            "min" : [
                -29486.6015625,
                -66088.640625,
                -9710.548828125
            ],
            "type" : "VEC3"
        },
        {
            "bufferView" : 110,
            "componentType" : 5126,
            "count" : 63,
            "type" : "VEC3"
        },
        {
            "bufferView" : 111,
            "componentType" : 5126,
            "count" : 63,
            "type" : "VEC2"
        },
        {
            "bufferView" : 112,
            "componentType" : 5123,
            "count" : 252,
            "type" : "SCALAR"
        },
        {
            "bufferView" : 113,
            "componentType" : 5126,
            "count" : 63,
            "max" : [
                -28964.017578125,
                -65939.984375,
                -9231.8857421875
            ],
            "min" : [
                -29206.1171875,
                -66182.1328125,
                -9710.548828125
            ],
            "type" : "VEC3"
        },
        {
            "bufferView" : 114,
            "componentType" : 5126,
            "count" : 63,
            "type" : "VEC3"
        },
        {
            "bufferView" : 115,
            "componentType" : 5126,
            "count" : 63,
            "type" : "VEC2"
        },
        {
            "bufferView" : 116,
            "componentType" : 5126,
            "count" : 56,
            "max" : [
                -33628.90625,
                -62225.70703125,
                -9231.884765625
            ],
            "min" : [
                -34160.67578125,
                -62624.8984375,
                -9309.701171875
            ],
            "type" : "VEC3"
        },
        {
            "bufferView" : 117,
            "componentType" : 5126,
            "count" : 56,
            "type" : "VEC3"
        },
        {
            "bufferView" : 118,
            "componentType" : 5126,
            "count" : 56,
            "type" : "VEC2"
        },
        {
            "bufferView" : 119,
            "componentType" : 5123,
            "count" : 96,
            "type" : "SCALAR"
        },
        {
            "bufferView" : 120,
            "componentType" : 5126,
            "count" : 9,
            "max" : [
                -33631.1328125,
                -62227.390625,
                -9269.951171875
            ],
            "min" : [
                -34158.4453125,
                -62623.25390625,
                -9269.951171875
            ],
            "type" : "VEC3"
        },
        {
            "bufferView" : 121,
            "componentType" : 5126,
            "count" : 9,
            "type" : "VEC3"
        },
        {
            "bufferView" : 122,
            "componentType" : 5126,
            "count" : 9,
            "type" : "VEC2"
        },
        {
            "bufferView" : 123,
            "componentType" : 5123,
            "count" : 24,
            "type" : "SCALAR"
        },
        {
            "bufferView" : 124,
            "componentType" : 5126,
            "count" : 48,
            "max" : [
                -33680.51171875,
                -62314.43359375,
                -9231.8828125
            ],
            "min" : [
                -34111.7265625,
                -62540.1328125,
                -9297.64453125
            ],
            "type" : "VEC3"
        },
        {
            "bufferView" : 125,
            "componentType" : 5126,
            "count" : 48,
            "type" : "VEC3"
        },
        {
            "bufferView" : 126,
            "componentType" : 5126,
            "count" : 48,
            "type" : "VEC2"
        },
        {
            "bufferView" : 127,
            "componentType" : 5123,
            "count" : 72,
            "type" : "SCALAR"
        },
        {
            "bufferView" : 128,
            "componentType" : 5126,
            "count" : 26,
            "max" : [
                -29044.46484375,
                -65264.5390625,
                -9231.8828125
            ],
            "min" : [
                -33000.2734375,
                -69091.4375,
                -10072.1865234375
            ],
            "type" : "VEC3"
        },
        {
            "bufferView" : 129,
            "componentType" : 5126,
            "count" : 26,
            "type" : "VEC3"
        },
        {
            "bufferView" : 130,
            "componentType" : 5126,
            "count" : 26,
            "type" : "VEC2"
        },
        {
            "bufferView" : 131,
            "componentType" : 5123,
            "count" : 48,
            "type" : "SCALAR"
        },
        {
            "bufferView" : 132,
            "componentType" : 5126,
            "count" : 6,
            "max" : [
                -29019.775390625,
                -65240.65234375,
                -9825.13671875
            ],
            "min" : [
                -33024.9609375,
                -69115.3046875,
                -10073.7119140625
            ],
            "type" : "VEC3"
        },
        {
            "bufferView" : 133,
            "componentType" : 5126,
            "count" : 6,
            "type" : "VEC3"
        },
        {
            "bufferView" : 134,
            "componentType" : 5126,
            "count" : 6,
            "type" : "VEC2"
        },
        {
            "bufferView" : 135,
            "componentType" : 5123,
            "count" : 12,
            "type" : "SCALAR"
        },
        {
            "bufferView" : 136,
            "componentType" : 5126,
            "count" : 20,
            "max" : [
                -25852.203125,
                -67103.375,
                -9231.8828125
            ],
            "min" : [
                -27619.87109375,
                -68857.5703125,
                -9798.830078125
            ],
            "type" : "VEC3"
        },
        {
            "bufferView" : 137,
            "componentType" : 5126,
            "count" : 20,
            "type" : "VEC3"
        },
        {
            "bufferView" : 138,
            "componentType" : 5126,
            "count" : 20,
            "type" : "VEC2"
        },
        {
            "bufferView" : 139,
            "componentType" : 5126,
            "count" : 4,
            "max" : [
                -25814.421875,
                -67065.8828125,
                -9803.091796875
            ],
            "min" : [
                -27657.65234375,
                -68895.046875,
                -9803.091796875
            ],
            "type" : "VEC3"
        },
        {
            "bufferView" : 140,
            "componentType" : 5126,
            "count" : 4,
            "type" : "VEC3"
        },
        {
            "bufferView" : 141,
            "componentType" : 5126,
            "count" : 4,
            "type" : "VEC2"
        },
        {
            "bufferView" : 142,
            "componentType" : 5123,
            "count" : 6,
            "type" : "SCALAR"
        },
        {
            "bufferView" : 143,
            "componentType" : 5126,
            "count" : 92,
            "max" : [
                -29352.05078125,
                -61112.984375,
                -9451.900390625
            ],
            "min" : [
                -31193.908203125,
                -63108.85546875,
                -9677.390625
            ],
            "type" : "VEC3"
        },
        {
            "bufferView" : 144,
            "componentType" : 5126,
            "count" : 92,
            "type" : "VEC3"
        },
        {
            "bufferView" : 145,
            "componentType" : 5126,
            "count" : 92,
            "type" : "VEC2"
        },
        {
            "bufferView" : 146,
            "componentType" : 5123,
            "count" : 198,
            "type" : "SCALAR"
        },
        {
            "bufferView" : 147,
            "componentType" : 5126,
            "count" : 1236,
            "max" : [
                -29471.982421875,
                -61232.94140625,
                -9231.8828125
            ],
            "min" : [
                -31073.943359375,
                -62988.91796875,
                -9677.390625
            ],
            "type" : "VEC3"
        },
        {
            "bufferView" : 148,
            "componentType" : 5126,
            "count" : 1236,
            "type" : "VEC3"
        },
        {
            "bufferView" : 149,
            "componentType" : 5126,
            "count" : 1236,
            "type" : "VEC2"
        },
        {
            "bufferView" : 150,
            "componentType" : 5123,
            "count" : 2310,
            "type" : "SCALAR"
        },
        {
            "bufferView" : 151,
            "componentType" : 5126,
            "count" : 112,
            "max" : [
                -30425.994140625,
                -61421.03125,
                -9231.8828125
            ],
            "min" : [
                -30896.23828125,
                -62179.5390625,
                -9634.7919921875
            ],
            "type" : "VEC3"
        },
        {
            "bufferView" : 152,
            "componentType" : 5126,
            "count" : 112,
            "type" : "VEC3"
        },
        {
            "bufferView" : 153,
            "componentType" : 5126,
            "count" : 112,
            "type" : "VEC2"
        },
        {
            "bufferView" : 154,
            "componentType" : 5123,
            "count" : 168,
            "type" : "SCALAR"
        },
        {
            "bufferView" : 155,
            "componentType" : 5126,
            "count" : 32,
            "max" : [
                -30034.251953125,
                -62759.32421875,
                -9477.697265625
            ],
            "min" : [
                -31322.978515625,
                -64057.8359375,
                -9488.6943359375
            ],
            "type" : "VEC3"
        },
        {
            "bufferView" : 156,
            "componentType" : 5126,
            "count" : 32,
            "type" : "VEC3"
        },
        {
            "bufferView" : 157,
            "componentType" : 5126,
            "count" : 32,
            "type" : "VEC2"
        },
        {
            "bufferView" : 158,
            "componentType" : 5123,
            "count" : 72,
            "type" : "SCALAR"
        },
        {
            "bufferView" : 159,
            "componentType" : 5126,
            "count" : 36,
            "max" : [
                -30121.654296875,
                -62841.4765625,
                -9212.55859375
            ],
            "min" : [
                -31238.66015625,
                -63980.640625,
                -9675.5703125
            ],
            "type" : "VEC3"
        },
        {
            "bufferView" : 160,
            "componentType" : 5126,
            "count" : 36,
            "type" : "VEC3"
        },
        {
            "bufferView" : 161,
            "componentType" : 5126,
            "count" : 36,
            "type" : "VEC2"
        },
        {
            "bufferView" : 162,
            "componentType" : 5123,
            "count" : 54,
            "type" : "SCALAR"
        },
        {
            "bufferView" : 163,
            "componentType" : 5126,
            "count" : 60,
            "max" : [
                -30026.134765625,
                -62746.3984375,
                -9642.37890625
            ],
            "min" : [
                -31334.7890625,
                -64076.78515625,
                -9675.69140625
            ],
            "type" : "VEC3"
        },
        {
            "bufferView" : 164,
            "componentType" : 5126,
            "count" : 60,
            "type" : "VEC3"
        },
        {
            "bufferView" : 165,
            "componentType" : 5126,
            "count" : 60,
            "type" : "VEC2"
        },
        {
            "bufferView" : 166,
            "componentType" : 5123,
            "count" : 126,
            "type" : "SCALAR"
        },
        {
            "bufferView" : 167,
            "componentType" : 5126,
            "count" : 1200,
            "max" : [
                -30804.943359375,
                -62869.796875,
                -9224.18359375
            ],
            "min" : [
                -31195.84375,
                -63492.89453125,
                -9630.259765625
            ],
            "type" : "VEC3"
        },
        {
            "bufferView" : 168,
            "componentType" : 5126,
            "count" : 1200,
            "type" : "VEC3"
        },
        {
            "bufferView" : 169,
            "componentType" : 5126,
            "count" : 1200,
            "type" : "VEC2"
        },
        {
            "bufferView" : 170,
            "componentType" : 5123,
            "count" : 2256,
            "type" : "SCALAR"
        },
        {
            "bufferView" : 171,
            "componentType" : 5126,
            "count" : 112,
            "max" : [
                -30812.390625,
                -62873.4921875,
                -9224.18359375
            ],
            "min" : [
                -31189.25,
                -63481.43359375,
                -9624.2880859375
            ],
            "type" : "VEC3"
        },
        {
            "bufferView" : 172,
            "componentType" : 5126,
            "count" : 112,
            "type" : "VEC3"
        },
        {
            "bufferView" : 173,
            "componentType" : 5126,
            "count" : 112,
            "type" : "VEC2"
        },
        {
            "bufferView" : 174,
            "componentType" : 5126,
            "count" : 32,
            "max" : [
                -25798.888671875,
                -54118.5546875,
                -9231.8828125
            ],
            "min" : [
                -38861.14453125,
                -78136.1171875,
                -9231.8828125
            ],
            "type" : "VEC3"
        },
        {
            "bufferView" : 175,
            "componentType" : 5126,
            "count" : 32,
            "type" : "VEC3"
        },
        {
            "bufferView" : 176,
            "componentType" : 5126,
            "count" : 32,
            "type" : "VEC2"
        },
        {
            "bufferView" : 177,
            "componentType" : 5123,
            "count" : 90,
            "type" : "SCALAR"
        }
    ],
    "bufferViews" : [
        {
            "buffer" : 0,
            "byteLength" : 2796,
            "byteOffset" : 0
        },
        {
            "buffer" : 0,
            "byteLength" : 2796,
            "byteOffset" : 2796
        },
        {
            "buffer" : 0,
            "byteLength" : 1864,
            "byteOffset" : 5592
        },
        {
            "buffer" : 0,
            "byteLength" : 2400,
            "byteOffset" : 7456
        },
        {
            "buffer" : 0,
            "byteLength" : 1512,
            "byteOffset" : 9856
        },
        {
            "buffer" : 0,
            "byteLength" : 1512,
            "byteOffset" : 11368
        },
        {
            "buffer" : 0,
            "byteLength" : 1008,
            "byteOffset" : 12880
        },
        {
            "buffer" : 0,
            "byteLength" : 1248,
            "byteOffset" : 13888
        },
        {
            "buffer" : 0,
            "byteLength" : 1512,
            "byteOffset" : 15136
        },
        {
            "buffer" : 0,
            "byteLength" : 1512,
            "byteOffset" : 16648
        },
        {
            "buffer" : 0,
            "byteLength" : 1008,
            "byteOffset" : 18160
        },
        {
            "buffer" : 0,
            "byteLength" : 1512,
            "byteOffset" : 19168
        },
        {
            "buffer" : 0,
            "byteLength" : 1512,
            "byteOffset" : 20680
        },
        {
            "buffer" : 0,
            "byteLength" : 1008,
            "byteOffset" : 22192
        },
        {
            "buffer" : 0,
            "byteLength" : 1512,
            "byteOffset" : 23200
        },
        {
            "buffer" : 0,
            "byteLength" : 1512,
            "byteOffset" : 24712
        },
        {
            "buffer" : 0,
            "byteLength" : 1008,
            "byteOffset" : 26224
        },
        {
            "buffer" : 0,
            "byteLength" : 1296,
            "byteOffset" : 27232
        },
        {
            "buffer" : 0,
            "byteLength" : 1296,
            "byteOffset" : 28528
        },
        {
            "buffer" : 0,
            "byteLength" : 864,
            "byteOffset" : 29824
        },
        {
            "buffer" : 0,
            "byteLength" : 1056,
            "byteOffset" : 30688
        },
        {
            "buffer" : 0,
            "byteLength" : 1296,
            "byteOffset" : 31744
        },
        {
            "buffer" : 0,
            "byteLength" : 1296,
            "byteOffset" : 33040
        },
        {
            "buffer" : 0,
            "byteLength" : 864,
            "byteOffset" : 34336
        },
        {
            "buffer" : 0,
            "byteLength" : 1296,
            "byteOffset" : 35200
        },
        {
            "buffer" : 0,
            "byteLength" : 1296,
            "byteOffset" : 36496
        },
        {
            "buffer" : 0,
            "byteLength" : 864,
            "byteOffset" : 37792
        },
        {
            "buffer" : 0,
            "byteLength" : 1296,
            "byteOffset" : 38656
        },
        {
            "buffer" : 0,
            "byteLength" : 1296,
            "byteOffset" : 39952
        },
        {
            "buffer" : 0,
            "byteLength" : 864,
            "byteOffset" : 41248
        },
        {
            "buffer" : 0,
            "byteLength" : 240,
            "byteOffset" : 42112
        },
        {
            "buffer" : 0,
            "byteLength" : 240,
            "byteOffset" : 42352
        },
        {
            "buffer" : 0,
            "byteLength" : 160,
            "byteOffset" : 42592
        },
        {
            "buffer" : 0,
            "byteLength" : 60,
            "byteOffset" : 42752
        },
        {
            "buffer" : 0,
            "byteLength" : 48,
            "byteOffset" : 42812
        },
        {
            "buffer" : 0,
            "byteLength" : 48,
            "byteOffset" : 42860
        },
        {
            "buffer" : 0,
            "byteLength" : 32,
            "byteOffset" : 42908
        },
        {
            "buffer" : 0,
            "byteLength" : 12,
            "byteOffset" : 42940
        },
        {
            "buffer" : 0,
            "byteLength" : 576,
            "byteOffset" : 42952
        },
        {
            "buffer" : 0,
            "byteLength" : 576,
            "byteOffset" : 43528
        },
        {
            "buffer" : 0,
            "byteLength" : 384,
            "byteOffset" : 44104
        },
        {
            "buffer" : 0,
            "byteLength" : 192,
            "byteOffset" : 44488
        },
        {
            "buffer" : 0,
            "byteLength" : 240,
            "byteOffset" : 44680
        },
        {
            "buffer" : 0,
            "byteLength" : 240,
            "byteOffset" : 44920
        },
        {
            "buffer" : 0,
            "byteLength" : 160,
            "byteOffset" : 45160
        },
        {
            "buffer" : 0,
            "byteLength" : 60,
            "byteOffset" : 45320
        },
        {
            "buffer" : 0,
            "byteLength" : 48,
            "byteOffset" : 45380
        },
        {
            "buffer" : 0,
            "byteLength" : 48,
            "byteOffset" : 45428
        },
        {
            "buffer" : 0,
            "byteLength" : 32,
            "byteOffset" : 45476
        },
        {
            "buffer" : 0,
            "byteLength" : 528,
            "byteOffset" : 45508
        },
        {
            "buffer" : 0,
            "byteLength" : 528,
            "byteOffset" : 46036
        },
        {
            "buffer" : 0,
            "byteLength" : 352,
            "byteOffset" : 46564
        },
        {
            "buffer" : 0,
            "byteLength" : 156,
            "byteOffset" : 46916
        },
        {
            "buffer" : 0,
            "byteLength" : 240,
            "byteOffset" : 47072
        },
        {
            "buffer" : 0,
            "byteLength" : 240,
            "byteOffset" : 47312
        },
        {
            "buffer" : 0,
            "byteLength" : 160,
            "byteOffset" : 47552
        },
        {
            "buffer" : 0,
            "byteLength" : 48,
            "byteOffset" : 47712
        },
        {
            "buffer" : 0,
            "byteLength" : 48,
            "byteOffset" : 47760
        },
        {
            "buffer" : 0,
            "byteLength" : 32,
            "byteOffset" : 47808
        },
        {
            "buffer" : 0,
            "byteLength" : 240,
            "byteOffset" : 47840
        },
        {
            "buffer" : 0,
            "byteLength" : 240,
            "byteOffset" : 48080
        },
        {
            "buffer" : 0,
            "byteLength" : 160,
            "byteOffset" : 48320
        },
        {
            "buffer" : 0,
            "byteLength" : 48,
            "byteOffset" : 48480
        },
        {
            "buffer" : 0,
            "byteLength" : 48,
            "byteOffset" : 48528
        },
        {
            "buffer" : 0,
            "byteLength" : 32,
            "byteOffset" : 48576
        },
        {
            "buffer" : 0,
            "byteLength" : 456,
            "byteOffset" : 48608
        },
        {
            "buffer" : 0,
            "byteLength" : 456,
            "byteOffset" : 49064
        },
        {
            "buffer" : 0,
            "byteLength" : 304,
            "byteOffset" : 49520
        },
        {
            "buffer" : 0,
            "byteLength" : 132,
            "byteOffset" : 49824
        },
        {
            "buffer" : 0,
            "byteLength" : 96,
            "byteOffset" : 49956
        },
        {
            "buffer" : 0,
            "byteLength" : 96,
            "byteOffset" : 50052
        },
        {
            "buffer" : 0,
            "byteLength" : 64,
            "byteOffset" : 50148
        },
        {
            "buffer" : 0,
            "byteLength" : 36,
            "byteOffset" : 50212
        },
        {
            "buffer" : 0,
            "byteLength" : 240,
            "byteOffset" : 50248
        },
        {
            "buffer" : 0,
            "byteLength" : 240,
            "byteOffset" : 50488
        },
        {
            "buffer" : 0,
            "byteLength" : 160,
            "byteOffset" : 50728
        },
        {
            "buffer" : 0,
            "byteLength" : 48,
            "byteOffset" : 50888
        },
        {
            "buffer" : 0,
            "byteLength" : 48,
            "byteOffset" : 50936
        },
        {
            "buffer" : 0,
            "byteLength" : 32,
            "byteOffset" : 50984
        },
        {
            "buffer" : 0,
            "byteLength" : 360,
            "byteOffset" : 51016
        },
        {
            "buffer" : 0,
            "byteLength" : 360,
            "byteOffset" : 51376
        },
        {
            "buffer" : 0,
            "byteLength" : 240,
            "byteOffset" : 51736
        },
        {
            "buffer" : 0,
            "byteLength" : 144,
            "byteOffset" : 51976
        },
        {
            "buffer" : 0,
            "byteLength" : 288,
            "byteOffset" : 52120
        },
        {
            "buffer" : 0,
            "byteLength" : 288,
            "byteOffset" : 52408
        },
        {
            "buffer" : 0,
            "byteLength" : 192,
            "byteOffset" : 52696
        },
        {
            "buffer" : 0,
            "byteLength" : 72,
            "byteOffset" : 52888
        },
        {
            "buffer" : 0,
            "byteLength" : 3120,
            "byteOffset" : 52960
        },
        {
            "buffer" : 0,
            "byteLength" : 3120,
            "byteOffset" : 56080
        },
        {
            "buffer" : 0,
            "byteLength" : 2080,
            "byteOffset" : 59200
        },
        {
            "buffer" : 0,
            "byteLength" : 1440,
            "byteOffset" : 61280
        },
        {
            "buffer" : 0,
            "byteLength" : 2232,
            "byteOffset" : 62720
        },
        {
            "buffer" : 0,
            "byteLength" : 2232,
            "byteOffset" : 64952
        },
        {
            "buffer" : 0,
            "byteLength" : 1488,
            "byteOffset" : 67184
        },
        {
            "buffer" : 0,
            "byteLength" : 720,
            "byteOffset" : 68672
        },
        {
            "buffer" : 0,
            "byteLength" : 5208,
            "byteOffset" : 69392
        },
        {
            "buffer" : 0,
            "byteLength" : 5208,
            "byteOffset" : 74600
        },
        {
            "buffer" : 0,
            "byteLength" : 3472,
            "byteOffset" : 79808
        },
        {
            "buffer" : 0,
            "byteLength" : 3024,
            "byteOffset" : 83280
        },
        {
            "buffer" : 0,
            "byteLength" : 396,
            "byteOffset" : 86304
        },
        {
            "buffer" : 0,
            "byteLength" : 396,
            "byteOffset" : 86700
        },
        {
            "buffer" : 0,
            "byteLength" : 264,
            "byteOffset" : 87096
        },
        {
            "buffer" : 0,
            "byteLength" : 132,
            "byteOffset" : 87360
        },
        {
            "buffer" : 0,
            "byteLength" : 5208,
            "byteOffset" : 87492
        },
        {
            "buffer" : 0,
            "byteLength" : 5208,
            "byteOffset" : 92700
        },
        {
            "buffer" : 0,
            "byteLength" : 3472,
            "byteOffset" : 97908
        },
        {
            "buffer" : 0,
            "byteLength" : 396,
            "byteOffset" : 101380
        },
        {
            "buffer" : 0,
            "byteLength" : 396,
            "byteOffset" : 101776
        },
        {
            "buffer" : 0,
            "byteLength" : 264,
            "byteOffset" : 102172
        },
        {
            "buffer" : 0,
            "byteLength" : 756,
            "byteOffset" : 102436
        },
        {
            "buffer" : 0,
            "byteLength" : 756,
            "byteOffset" : 103192
        },
        {
            "buffer" : 0,
            "byteLength" : 504,
            "byteOffset" : 103948
        },
        {
            "buffer" : 0,
            "byteLength" : 504,
            "byteOffset" : 104452
        },
        {
            "buffer" : 0,
            "byteLength" : 756,
            "byteOffset" : 104956
        },
        {
            "buffer" : 0,
            "byteLength" : 756,
            "byteOffset" : 105712
        },
        {
            "buffer" : 0,
            "byteLength" : 504,
            "byteOffset" : 106468
        },
        {
            "buffer" : 0,
            "byteLength" : 672,
            "byteOffset" : 106972
        },
        {
            "buffer" : 0,
            "byteLength" : 672,
            "byteOffset" : 107644
        },
        {
            "buffer" : 0,
            "byteLength" : 448,
            "byteOffset" : 108316
        },
        {
            "buffer" : 0,
            "byteLength" : 192,
            "byteOffset" : 108764
        },
        {
            "buffer" : 0,
            "byteLength" : 108,
            "byteOffset" : 108956
        },
        {
            "buffer" : 0,
            "byteLength" : 108,
            "byteOffset" : 109064
        },
        {
            "buffer" : 0,
            "byteLength" : 72,
            "byteOffset" : 109172
        },
        {
            "buffer" : 0,
            "byteLength" : 48,
            "byteOffset" : 109244
        },
        {
            "buffer" : 0,
            "byteLength" : 576,
            "byteOffset" : 109292
        },
        {
            "buffer" : 0,
            "byteLength" : 576,
            "byteOffset" : 109868
        },
        {
            "buffer" : 0,
            "byteLength" : 384,
            "byteOffset" : 110444
        },
        {
            "buffer" : 0,
            "byteLength" : 144,
            "byteOffset" : 110828
        },
        {
            "buffer" : 0,
            "byteLength" : 312,
            "byteOffset" : 110972
        },
        {
            "buffer" : 0,
            "byteLength" : 312,
            "byteOffset" : 111284
        },
        {
            "buffer" : 0,
            "byteLength" : 208,
            "byteOffset" : 111596
        },
        {
            "buffer" : 0,
            "byteLength" : 96,
            "byteOffset" : 111804
        },
        {
            "buffer" : 0,
            "byteLength" : 72,
            "byteOffset" : 111900
        },
        {
            "buffer" : 0,
            "byteLength" : 72,
            "byteOffset" : 111972
        },
        {
            "buffer" : 0,
            "byteLength" : 48,
            "byteOffset" : 112044
        },
        {
            "buffer" : 0,
            "byteLength" : 24,
            "byteOffset" : 112092
        },
        {
            "buffer" : 0,
            "byteLength" : 240,
            "byteOffset" : 112116
        },
        {
            "buffer" : 0,
            "byteLength" : 240,
            "byteOffset" : 112356
        },
        {
            "buffer" : 0,
            "byteLength" : 160,
            "byteOffset" : 112596
        },
        {
            "buffer" : 0,
            "byteLength" : 48,
            "byteOffset" : 112756
        },
        {
            "buffer" : 0,
            "byteLength" : 48,
            "byteOffset" : 112804
        },
        {
            "buffer" : 0,
            "byteLength" : 32,
            "byteOffset" : 112852
        },
        {
            "buffer" : 0,
            "byteLength" : 12,
            "byteOffset" : 112884
        },
        {
            "buffer" : 0,
            "byteLength" : 1104,
            "byteOffset" : 112896
        },
        {
            "buffer" : 0,
            "byteLength" : 1104,
            "byteOffset" : 114000
        },
        {
            "buffer" : 0,
            "byteLength" : 736,
            "byteOffset" : 115104
        },
        {
            "buffer" : 0,
            "byteLength" : 396,
            "byteOffset" : 115840
        },
        {
            "buffer" : 0,
            "byteLength" : 14832,
            "byteOffset" : 116236
        },
        {
            "buffer" : 0,
            "byteLength" : 14832,
            "byteOffset" : 131068
        },
        {
            "buffer" : 0,
            "byteLength" : 9888,
            "byteOffset" : 145900
        },
        {
            "buffer" : 0,
            "byteLength" : 4620,
            "byteOffset" : 155788
        },
        {
            "buffer" : 0,
            "byteLength" : 1344,
            "byteOffset" : 160408
        },
        {
            "buffer" : 0,
            "byteLength" : 1344,
            "byteOffset" : 161752
        },
        {
            "buffer" : 0,
            "byteLength" : 896,
            "byteOffset" : 163096
        },
        {
            "buffer" : 0,
            "byteLength" : 336,
            "byteOffset" : 163992
        },
        {
            "buffer" : 0,
            "byteLength" : 384,
            "byteOffset" : 164328
        },
        {
            "buffer" : 0,
            "byteLength" : 384,
            "byteOffset" : 164712
        },
        {
            "buffer" : 0,
            "byteLength" : 256,
            "byteOffset" : 165096
        },
        {
            "buffer" : 0,
            "byteLength" : 144,
            "byteOffset" : 165352
        },
        {
            "buffer" : 0,
            "byteLength" : 432,
            "byteOffset" : 165496
        },
        {
            "buffer" : 0,
            "byteLength" : 432,
            "byteOffset" : 165928
        },
        {
            "buffer" : 0,
            "byteLength" : 288,
            "byteOffset" : 166360
        },
        {
            "buffer" : 0,
            "byteLength" : 108,
            "byteOffset" : 166648
        },
        {
            "buffer" : 0,
            "byteLength" : 720,
            "byteOffset" : 166756
        },
        {
            "buffer" : 0,
            "byteLength" : 720,
            "byteOffset" : 167476
        },
        {
            "buffer" : 0,
            "byteLength" : 480,
            "byteOffset" : 168196
        },
        {
            "buffer" : 0,
            "byteLength" : 252,
            "byteOffset" : 168676
        },
        {
            "buffer" : 0,
            "byteLength" : 14400,
            "byteOffset" : 168928
        },
        {
            "buffer" : 0,
            "byteLength" : 14400,
            "byteOffset" : 183328
        },
        {
            "buffer" : 0,
            "byteLength" : 9600,
            "byteOffset" : 197728
        },
        {
            "buffer" : 0,
            "byteLength" : 4512,
            "byteOffset" : 207328
        },
        {
            "buffer" : 0,
            "byteLength" : 1344,
            "byteOffset" : 211840
        },
        {
            "buffer" : 0,
            "byteLength" : 1344,
            "byteOffset" : 213184
        },
        {
            "buffer" : 0,
            "byteLength" : 896,
            "byteOffset" : 214528
        },
        {
            "buffer" : 0,
            "byteLength" : 384,
            "byteOffset" : 215424
        },
        {
            "buffer" : 0,
            "byteLength" : 384,
            "byteOffset" : 215808
        },
        {
            "buffer" : 0,
            "byteLength" : 256,
            "byteOffset" : 216192
        },
        {
            "buffer" : 0,
            "byteLength" : 180,
            "byteOffset" : 216448
        }
    ],
    "samplers" : [
        {
            "magFilter" : 9729,
            "minFilter" : 9987
        }
    ],
    "buffers" : [
        {
            "byteLength" : 216628,
            "uri" : "zhongxinjiancai.bin"
        }
    ]
}
