{
    "asset" : {
        "generator" : "Khronos glTF Blender I/O v1.7.33",
        "version" : "2.0"
    },
    "scene" : 0,
    "scenes" : [
        {
            "name" : "Scene",
            "nodes" : [
                9
            ]
        }
    ],
    "nodes" : [
        {
            "mesh" : 0,
            "name" : "pCube1139"
        },
        {
            "mesh" : 1,
            "name" : "pCube1140"
        },
        {
            "mesh" : 2,
            "name" : "pCube1141"
        },
        {
            "mesh" : 3,
            "name" : "polySurface6590"
        },
        {
            "mesh" : 4,
            "name" : "polySurface6610"
        },
        {
            "mesh" : 5,
            "name" : "polySurface9"
        },
        {
            "mesh" : 6,
            "name" : "polySurface9180"
        },
        {
            "children" : [
                0,
                1,
                2,
                3,
                4,
                5,
                6
            ],
            "name" : "zhonghaibeiyou"
        },
        {
            "children" : [
                7
            ],
            "name" : "qiye"
        },
        {
            "children" : [
                8
            ],
            "name" : "jinluo",
            "rotation" : [
                0.7071068286895752,
                0,
                0,
                0.7071067094802856
            ],
            "scale" : [
                0.009999999776482582,
                0.009999999776482582,
                0.009999999776482582
            ]
        }
    ],
    "materials" : [
        {
            "doubleSided" : true,
            "emissiveFactor" : [
                0.6000000238418579,
                0.6000000238418579,
                0.6000000238418579
            ],
            "emissiveTexture" : {
                "index" : 0
            },
            "name" : "roof_3",
            "pbrMetallicRoughness" : {
                "baseColorTexture" : {
                    "index" : 1
                },
                "metallicFactor" : 0
            }
        },
        {
            "doubleSided" : true,
            "name" : "red",
            "pbrMetallicRoughness" : {
                "baseColorFactor" : [
                    0.5419355034828186,
                    0.09551259875297546,
                    0.09551259875297546,
                    1
                ],
                "metallicFactor" : 0.11818182468414307
            }
        },
        {
            "doubleSided" : true,
            "name" : "Material #18",
            "pbrMetallicRoughness" : {
                "baseColorTexture" : {
                    "index" : 2
                },
                "metallicFactor" : 0,
                "roughnessFactor" : 0.858578622341156
            }
        },
        {
            "doubleSided" : true,
            "name" : "lambert13",
            "pbrMetallicRoughness" : {
                "baseColorTexture" : {
                    "index" : 3
                },
                "metallicFactor" : 0
            }
        },
        {
            "doubleSided" : true,
            "name" : "lambert15",
            "pbrMetallicRoughness" : {
                "baseColorTexture" : {
                    "index" : 4
                },
                "metallicFactor" : 0
            }
        },
        {
            "doubleSided" : true,
            "name" : "lambert14",
            "pbrMetallicRoughness" : {
                "baseColorTexture" : {
                    "index" : 5
                },
                "roughnessFactor" : 0.5527864098548889
            }
        },
        {
            "doubleSided" : true,
            "name" : "lambert7",
            "pbrMetallicRoughness" : {
                "baseColorTexture" : {
                    "index" : 6
                },
                "roughnessFactor" : 0.5527864098548889
            }
        },
        {
            "doubleSided" : true,
            "name" : "blue",
            "pbrMetallicRoughness" : {
                "baseColorFactor" : [
                    0.03400000184774399,
                    0.11410000175237656,
                    0.5782999992370605,
                    1
                ],
                "roughnessFactor" : 0.5527864098548889
            }
        },
        {
            "doubleSided" : true,
            "emissiveFactor" : [
                1,
                1,
                1
            ],
            "emissiveTexture" : {
                "index" : 7
            },
            "name" : "heshui",
            "pbrMetallicRoughness" : {
                "baseColorTexture" : {
                    "index" : 8
                },
                "metallicFactor" : 0,
                "roughnessFactor" : 0.5527864098548889
            }
        },
        {
            "doubleSided" : true,
            "name" : "lambert16",
            "pbrMetallicRoughness" : {
                "baseColorTexture" : {
                    "index" : 9
                },
                "metallicFactor" : 0
            }
        },
        {
            "doubleSided" : true,
            "name" : "Material #22",
            "pbrMetallicRoughness" : {
                "baseColorTexture" : {
                    "index" : 10
                },
                "metallicFactor" : 0,
                "roughnessFactor" : 0.858578622341156
            }
        },
        {
            "doubleSided" : true,
            "name" : "lambert6",
            "pbrMetallicRoughness" : {
                "baseColorTexture" : {
                    "index" : 11
                },
                "metallicFactor" : 0
            }
        },
        {
            "doubleSided" : true,
            "name" : "lambert8",
            "pbrMetallicRoughness" : {
                "baseColorTexture" : {
                    "index" : 12
                },
                "metallicFactor" : 0
            }
        },
        {
            "doubleSided" : true,
            "name" : "lambert11",
            "pbrMetallicRoughness" : {
                "baseColorTexture" : {
                    "index" : 13
                },
                "roughnessFactor" : 0.5527864098548889
            }
        },
        {
            "doubleSided" : true,
            "name" : "lambert23",
            "pbrMetallicRoughness" : {
                "baseColorTexture" : {
                    "index" : 14
                },
                "roughnessFactor" : 0.5527864098548889
            }
        },
        {
            "doubleSided" : true,
            "name" : "Material #24",
            "pbrMetallicRoughness" : {
                "baseColorTexture" : {
                    "index" : 15
                },
                "roughnessFactor" : 0.858578622341156
            }
        },
        {
            "doubleSided" : true,
            "name" : "Material #23",
            "pbrMetallicRoughness" : {
                "baseColorTexture" : {
                    "index" : 16
                },
                "roughnessFactor" : 0.858578622341156
            }
        },
        {
            "doubleSided" : true,
            "emissiveFactor" : [
                0.6000000238418579,
                0.6000000238418579,
                0.6000000238418579
            ],
            "emissiveTexture" : {
                "index" : 17
            },
            "name" : "dimianshuini1",
            "pbrMetallicRoughness" : {
                "baseColorTexture" : {
                    "index" : 18
                },
                "metallicFactor" : 0
            }
        }
    ],
    "meshes" : [
        {
            "name" : "\u7f51\u683c.953",
            "primitives" : [
                {
                    "attributes" : {
                        "POSITION" : 0,
                        "NORMAL" : 1,
                        "TEXCOORD_0" : 2
                    },
                    "indices" : 3,
                    "material" : 0
                }
            ]
        },
        {
            "name" : "\u7f51\u683c.952",
            "primitives" : [
                {
                    "attributes" : {
                        "POSITION" : 4,
                        "NORMAL" : 5,
                        "TEXCOORD_0" : 6
                    },
                    "indices" : 7,
                    "material" : 0
                }
            ]
        },
        {
            "name" : "\u7f51\u683c.951",
            "primitives" : [
                {
                    "attributes" : {
                        "POSITION" : 8,
                        "NORMAL" : 9,
                        "TEXCOORD_0" : 10
                    },
                    "indices" : 11,
                    "material" : 1
                },
                {
                    "attributes" : {
                        "POSITION" : 12,
                        "NORMAL" : 13,
                        "TEXCOORD_0" : 14
                    },
                    "indices" : 15,
                    "material" : 2
                }
            ]
        },
        {
            "name" : "\u7f51\u683c.956",
            "primitives" : [
                {
                    "attributes" : {
                        "POSITION" : 16,
                        "NORMAL" : 17,
                        "TEXCOORD_0" : 18
                    },
                    "indices" : 19,
                    "material" : 2
                },
                {
                    "attributes" : {
                        "POSITION" : 20,
                        "NORMAL" : 21,
                        "TEXCOORD_0" : 22
                    },
                    "indices" : 23,
                    "material" : 3
                },
                {
                    "attributes" : {
                        "POSITION" : 24,
                        "NORMAL" : 25,
                        "TEXCOORD_0" : 26
                    },
                    "indices" : 27,
                    "material" : 4
                },
                {
                    "attributes" : {
                        "POSITION" : 28,
                        "NORMAL" : 29,
                        "TEXCOORD_0" : 30
                    },
                    "indices" : 31,
                    "material" : 5
                },
                {
                    "attributes" : {
                        "POSITION" : 32,
                        "NORMAL" : 33,
                        "TEXCOORD_0" : 34
                    },
                    "indices" : 35,
                    "material" : 6
                },
                {
                    "attributes" : {
                        "POSITION" : 36,
                        "NORMAL" : 37,
                        "TEXCOORD_0" : 38
                    },
                    "indices" : 39,
                    "material" : 7
                },
                {
                    "attributes" : {
                        "POSITION" : 40,
                        "NORMAL" : 41,
                        "TEXCOORD_0" : 42
                    },
                    "indices" : 43,
                    "material" : 8
                }
            ]
        },
        {
            "name" : "\u7f51\u683c.950",
            "primitives" : [
                {
                    "attributes" : {
                        "POSITION" : 44,
                        "NORMAL" : 45,
                        "TEXCOORD_0" : 46,
                        "TEXCOORD_1" : 47
                    },
                    "indices" : 48,
                    "material" : 9
                },
                {
                    "attributes" : {
                        "POSITION" : 49,
                        "NORMAL" : 50,
                        "TEXCOORD_0" : 51,
                        "TEXCOORD_1" : 52
                    },
                    "indices" : 53,
                    "material" : 10
                },
                {
                    "attributes" : {
                        "POSITION" : 54,
                        "NORMAL" : 55,
                        "TEXCOORD_0" : 56,
                        "TEXCOORD_1" : 57
                    },
                    "indices" : 58,
                    "material" : 2
                },
                {
                    "attributes" : {
                        "POSITION" : 59,
                        "NORMAL" : 60,
                        "TEXCOORD_0" : 61,
                        "TEXCOORD_1" : 62
                    },
                    "indices" : 63,
                    "material" : 11
                },
                {
                    "attributes" : {
                        "POSITION" : 64,
                        "NORMAL" : 65,
                        "TEXCOORD_0" : 66,
                        "TEXCOORD_1" : 67
                    },
                    "indices" : 68,
                    "material" : 12
                },
                {
                    "attributes" : {
                        "POSITION" : 69,
                        "NORMAL" : 70,
                        "TEXCOORD_0" : 71,
                        "TEXCOORD_1" : 72
                    },
                    "indices" : 73,
                    "material" : 3
                },
                {
                    "attributes" : {
                        "POSITION" : 74,
                        "NORMAL" : 75,
                        "TEXCOORD_0" : 76,
                        "TEXCOORD_1" : 77
                    },
                    "indices" : 78,
                    "material" : 4
                }
            ]
        },
        {
            "name" : "\u7f51\u683c.955",
            "primitives" : [
                {
                    "attributes" : {
                        "POSITION" : 79,
                        "NORMAL" : 80,
                        "TEXCOORD_0" : 81
                    },
                    "indices" : 82,
                    "material" : 13
                },
                {
                    "attributes" : {
                        "POSITION" : 83,
                        "NORMAL" : 84,
                        "TEXCOORD_0" : 85
                    },
                    "indices" : 86,
                    "material" : 12
                },
                {
                    "attributes" : {
                        "POSITION" : 87,
                        "NORMAL" : 88,
                        "TEXCOORD_0" : 89
                    },
                    "indices" : 90,
                    "material" : 14
                },
                {
                    "attributes" : {
                        "POSITION" : 91,
                        "NORMAL" : 92,
                        "TEXCOORD_0" : 93
                    },
                    "indices" : 94,
                    "material" : 15
                },
                {
                    "attributes" : {
                        "POSITION" : 95,
                        "NORMAL" : 96,
                        "TEXCOORD_0" : 97
                    },
                    "indices" : 98,
                    "material" : 16
                }
            ]
        },
        {
            "name" : "\u7f51\u683c.954",
            "primitives" : [
                {
                    "attributes" : {
                        "POSITION" : 99,
                        "NORMAL" : 100,
                        "TEXCOORD_0" : 101
                    },
                    "indices" : 7,
                    "material" : 17
                }
            ]
        }
    ],
    "textures" : [
        {
            "sampler" : 0,
            "source" : 0
        },
        {
            "sampler" : 0,
            "source" : 0
        },
        {
            "sampler" : 0,
            "source" : 1
        },
        {
            "sampler" : 0,
            "source" : 2
        },
        {
            "sampler" : 0,
            "source" : 3
        },
        {
            "sampler" : 0,
            "source" : 4
        },
        {
            "sampler" : 0,
            "source" : 5
        },
        {
            "sampler" : 0,
            "source" : 6
        },
        {
            "sampler" : 0,
            "source" : 6
        },
        {
            "sampler" : 0,
            "source" : 7
        },
        {
            "sampler" : 0,
            "source" : 8
        },
        {
            "sampler" : 0,
            "source" : 9
        },
        {
            "sampler" : 0,
            "source" : 10
        },
        {
            "sampler" : 0,
            "source" : 7
        },
        {
            "sampler" : 0,
            "source" : 11
        },
        {
            "sampler" : 0,
            "source" : 8
        },
        {
            "sampler" : 0,
            "source" : 1
        },
        {
            "sampler" : 0,
            "source" : 12
        },
        {
            "sampler" : 0,
            "source" : 12
        }
    ],
    "images" : [
        {
            "mimeType" : "image/jpeg",
            "name" : "houseTop",
            "uri" : "houseTop.jpg"
        },
        {
            "mimeType" : "image/jpeg",
            "name" : "maxiaojie035",
            "uri" : "maxiaojie035.jpg"
        },
        {
            "mimeType" : "image/jpeg",
            "name" : "maxiaojie031_blue",
            "uri" : "maxiaojie031_blue.jpg"
        },
        {
            "mimeType" : "image/jpeg",
            "name" : "maxiaojie032_blue",
            "uri" : "maxiaojie032_blue.jpg"
        },
        {
            "mimeType" : "image/jpeg",
            "name" : "maxiaojie033_blue",
            "uri" : "maxiaojie033_blue.jpg"
        },
        {
            "mimeType" : "image/jpeg",
            "name" : "maxiaojie036",
            "uri" : "maxiaojie036.jpg"
        },
        {
            "mimeType" : "image/jpeg",
            "name" : "shui",
            "uri" : "shui.jpg"
        },
        {
            "mimeType" : "image/jpeg",
            "name" : "maxiaojie038",
            "uri" : "maxiaojie038.jpg"
        },
        {
            "mimeType" : "image/jpeg",
            "name" : "maxiaojie037",
            "uri" : "maxiaojie037.jpg"
        },
        {
            "mimeType" : "image/jpeg",
            "name" : "maxiaojie030",
            "uri" : "maxiaojie030.jpg"
        },
        {
            "mimeType" : "image/jpeg",
            "name" : "maxiaojie034",
            "uri" : "maxiaojie034.jpg"
        },
        {
            "mimeType" : "image/jpeg",
            "name" : "maxiaojie031",
            "uri" : "maxiaojie031.jpg"
        },
        {
            "mimeType" : "image/png",
            "name" : "land_shadow",
            "uri" : "land_shadow.png"
        }
    ],
    "accessors" : [
        {
            "bufferView" : 0,
            "componentType" : 5126,
            "count" : 24,
            "max" : [
                -111666.34375,
                -115866.09375,
                -9030.671875
            ],
            "min" : [
                -113042.84375,
                -117182.21875,
                -9552.2353515625
            ],
            "type" : "VEC3"
        },
        {
            "bufferView" : 1,
            "componentType" : 5126,
            "count" : 24,
            "type" : "VEC3"
        },
        {
            "bufferView" : 2,
            "componentType" : 5126,
            "count" : 24,
            "type" : "VEC2"
        },
        {
            "bufferView" : 3,
            "componentType" : 5123,
            "count" : 36,
            "type" : "SCALAR"
        },
        {
            "bufferView" : 4,
            "componentType" : 5126,
            "count" : 4,
            "max" : [
                -105515.96875,
                -114980.71875,
                -9954.6044921875
            ],
            "min" : [
                -109661.46875,
                -119054.84375,
                -9954.6044921875
            ],
            "type" : "VEC3"
        },
        {
            "bufferView" : 5,
            "componentType" : 5126,
            "count" : 4,
            "type" : "VEC3"
        },
        {
            "bufferView" : 6,
            "componentType" : 5126,
            "count" : 4,
            "type" : "VEC2"
        },
        {
            "bufferView" : 7,
            "componentType" : 5123,
            "count" : 6,
            "type" : "SCALAR"
        },
        {
            "bufferView" : 8,
            "componentType" : 5126,
            "count" : 16,
            "max" : [
                -106235.46875,
                -112904.03125,
                -9529.9814453125
            ],
            "min" : [
                -110180.546875,
                -118342.375,
                -9551.2255859375
            ],
            "type" : "VEC3"
        },
        {
            "bufferView" : 9,
            "componentType" : 5126,
            "count" : 16,
            "type" : "VEC3"
        },
        {
            "bufferView" : 10,
            "componentType" : 5126,
            "count" : 16,
            "type" : "VEC2"
        },
        {
            "bufferView" : 11,
            "componentType" : 5123,
            "count" : 24,
            "type" : "SCALAR"
        },
        {
            "bufferView" : 12,
            "componentType" : 5126,
            "count" : 24,
            "max" : [
                -106235.46875,
                -112904.03125,
                -9529.9814453125
            ],
            "min" : [
                -110180.546875,
                -118342.375,
                -9750.3154296875
            ],
            "type" : "VEC3"
        },
        {
            "bufferView" : 13,
            "componentType" : 5126,
            "count" : 24,
            "type" : "VEC3"
        },
        {
            "bufferView" : 14,
            "componentType" : 5126,
            "count" : 24,
            "type" : "VEC2"
        },
        {
            "bufferView" : 15,
            "componentType" : 5123,
            "count" : 36,
            "type" : "SCALAR"
        },
        {
            "bufferView" : 16,
            "componentType" : 5126,
            "count" : 560,
            "max" : [
                -106353.0625,
                -115825.46875,
                -9155.6865234375
            ],
            "min" : [
                -108795.875,
                -118243.03125,
                -9390.306640625
            ],
            "type" : "VEC3"
        },
        {
            "bufferView" : 17,
            "componentType" : 5126,
            "count" : 560,
            "type" : "VEC3"
        },
        {
            "bufferView" : 18,
            "componentType" : 5126,
            "count" : 560,
            "type" : "VEC2"
        },
        {
            "bufferView" : 19,
            "componentType" : 5123,
            "count" : 1008,
            "type" : "SCALAR"
        },
        {
            "bufferView" : 20,
            "componentType" : 5126,
            "count" : 32,
            "max" : [
                -106447.71875,
                -115958.03125,
                -9171.3896484375
            ],
            "min" : [
                -108700.90625,
                -118109.65625,
                -9326.2490234375
            ],
            "type" : "VEC3"
        },
        {
            "bufferView" : 21,
            "componentType" : 5126,
            "count" : 32,
            "type" : "VEC3"
        },
        {
            "bufferView" : 22,
            "componentType" : 5126,
            "count" : 32,
            "type" : "VEC2"
        },
        {
            "bufferView" : 23,
            "componentType" : 5123,
            "count" : 48,
            "type" : "SCALAR"
        },
        {
            "bufferView" : 24,
            "componentType" : 5126,
            "count" : 144,
            "max" : [
                -106458.375,
                -115964.15625,
                -9388.9326171875
            ],
            "min" : [
                -108691.6875,
                -118100.28125,
                -9443.5
            ],
            "type" : "VEC3"
        },
        {
            "bufferView" : 25,
            "componentType" : 5126,
            "count" : 144,
            "type" : "VEC3"
        },
        {
            "bufferView" : 26,
            "componentType" : 5126,
            "count" : 144,
            "type" : "VEC2"
        },
        {
            "bufferView" : 27,
            "componentType" : 5123,
            "count" : 216,
            "type" : "SCALAR"
        },
        {
            "bufferView" : 28,
            "componentType" : 5126,
            "count" : 20,
            "max" : [
                -105515.96875,
                -114980.71875,
                -9402.462890625
            ],
            "min" : [
                -109661.375,
                -119054.84375,
                -9755.6865234375
            ],
            "type" : "VEC3"
        },
        {
            "bufferView" : 29,
            "componentType" : 5126,
            "count" : 20,
            "type" : "VEC3"
        },
        {
            "bufferView" : 30,
            "componentType" : 5126,
            "count" : 20,
            "type" : "VEC2"
        },
        {
            "bufferView" : 31,
            "componentType" : 5123,
            "count" : 30,
            "type" : "SCALAR"
        },
        {
            "bufferView" : 32,
            "componentType" : 5126,
            "count" : 128,
            "max" : [
                -106368,
                -115838.78125,
                -9155.6865234375
            ],
            "min" : [
                -108776.59375,
                -118226.46875,
                -9775.6865234375
            ],
            "type" : "VEC3"
        },
        {
            "bufferView" : 33,
            "componentType" : 5126,
            "count" : 128,
            "type" : "VEC3"
        },
        {
            "bufferView" : 34,
            "componentType" : 5126,
            "count" : 128,
            "type" : "VEC2"
        },
        {
            "bufferView" : 35,
            "componentType" : 5123,
            "count" : 192,
            "type" : "SCALAR"
        },
        {
            "bufferView" : 36,
            "componentType" : 5126,
            "count" : 16,
            "max" : [
                -105515.96875,
                -114980.71875,
                -9755.6865234375
            ],
            "min" : [
                -109661.375,
                -119054.84375,
                -9954.6044921875
            ],
            "type" : "VEC3"
        },
        {
            "bufferView" : 37,
            "componentType" : 5126,
            "count" : 16,
            "type" : "VEC3"
        },
        {
            "bufferView" : 38,
            "componentType" : 5126,
            "count" : 16,
            "type" : "VEC2"
        },
        {
            "bufferView" : 39,
            "componentType" : 5123,
            "count" : 24,
            "type" : "SCALAR"
        },
        {
            "bufferView" : 40,
            "componentType" : 5126,
            "count" : 64,
            "max" : [
                -106386.625,
                -115857.03125,
                -9155.6865234375
            ],
            "min" : [
                -108759.1875,
                -118207.78125,
                -9775.6865234375
            ],
            "type" : "VEC3"
        },
        {
            "bufferView" : 41,
            "componentType" : 5126,
            "count" : 64,
            "type" : "VEC3"
        },
        {
            "bufferView" : 42,
            "componentType" : 5126,
            "count" : 64,
            "type" : "VEC2"
        },
        {
            "bufferView" : 43,
            "componentType" : 5123,
            "count" : 96,
            "type" : "SCALAR"
        },
        {
            "bufferView" : 44,
            "componentType" : 5126,
            "count" : 6,
            "max" : [
                -108558.53125,
                -115630.28125,
                -9491.73046875
            ],
            "min" : [
                -110792.375,
                -118302.53125,
                -9491.73046875
            ],
            "type" : "VEC3"
        },
        {
            "bufferView" : 45,
            "componentType" : 5126,
            "count" : 6,
            "type" : "VEC3"
        },
        {
            "bufferView" : 46,
            "componentType" : 5126,
            "count" : 6,
            "type" : "VEC2"
        },
        {
            "bufferView" : 47,
            "componentType" : 5126,
            "count" : 6,
            "type" : "VEC2"
        },
        {
            "bufferView" : 48,
            "componentType" : 5123,
            "count" : 12,
            "type" : "SCALAR"
        },
        {
            "bufferView" : 49,
            "componentType" : 5126,
            "count" : 28,
            "max" : [
                -108518.125,
                -115591.71875,
                -9531.4794921875
            ],
            "min" : [
                -110836.25,
                -118342.46875,
                -9531.9560546875
            ],
            "type" : "VEC3"
        },
        {
            "bufferView" : 50,
            "componentType" : 5126,
            "count" : 28,
            "type" : "VEC3"
        },
        {
            "bufferView" : 51,
            "componentType" : 5126,
            "count" : 28,
            "type" : "VEC2"
        },
        {
            "bufferView" : 52,
            "componentType" : 5126,
            "count" : 28,
            "type" : "VEC2"
        },
        {
            "bufferView" : 53,
            "componentType" : 5123,
            "count" : 72,
            "type" : "SCALAR"
        },
        {
            "bufferView" : 54,
            "componentType" : 5126,
            "count" : 215,
            "max" : [
                -106235.46875,
                -112141.03125,
                -9186.435546875
            ],
            "min" : [
                -110836.25,
                -118342.46875,
                -9532.115234375
            ],
            "type" : "VEC3"
        },
        {
            "bufferView" : 55,
            "componentType" : 5126,
            "count" : 215,
            "type" : "VEC3"
        },
        {
            "bufferView" : 56,
            "componentType" : 5126,
            "count" : 215,
            "type" : "VEC2"
        },
        {
            "bufferView" : 57,
            "componentType" : 5126,
            "count" : 215,
            "type" : "VEC2"
        },
        {
            "bufferView" : 58,
            "componentType" : 5123,
            "count" : 453,
            "type" : "SCALAR"
        },
        {
            "bufferView" : 59,
            "componentType" : 5126,
            "count" : 32,
            "max" : [
                -107196.765625,
                -114285.7734375,
                -9156.435546875
            ],
            "min" : [
                -110820.46875,
                -117807.40625,
                -9457.0703125
            ],
            "type" : "VEC3"
        },
        {
            "bufferView" : 60,
            "componentType" : 5126,
            "count" : 32,
            "type" : "VEC3"
        },
        {
            "bufferView" : 61,
            "componentType" : 5126,
            "count" : 32,
            "type" : "VEC2"
        },
        {
            "bufferView" : 62,
            "componentType" : 5126,
            "count" : 32,
            "type" : "VEC2"
        },
        {
            "bufferView" : 63,
            "componentType" : 5123,
            "count" : 72,
            "type" : "SCALAR"
        },
        {
            "bufferView" : 64,
            "componentType" : 5126,
            "count" : 62,
            "max" : [
                -106235.46875,
                -112141.03125,
                -9156.435546875
            ],
            "min" : [
                -110836.25,
                -118342.46875,
                -9187.0703125
            ],
            "type" : "VEC3"
        },
        {
            "bufferView" : 65,
            "componentType" : 5126,
            "count" : 62,
            "type" : "VEC3"
        },
        {
            "bufferView" : 66,
            "componentType" : 5126,
            "count" : 62,
            "type" : "VEC2"
        },
        {
            "bufferView" : 67,
            "componentType" : 5126,
            "count" : 62,
            "type" : "VEC2"
        },
        {
            "bufferView" : 68,
            "componentType" : 5123,
            "count" : 96,
            "type" : "SCALAR"
        },
        {
            "bufferView" : 69,
            "componentType" : 5126,
            "count" : 8,
            "max" : [
                -109214.9375,
                -115591.71875,
                -9156.435546875
            ],
            "min" : [
                -109454.875,
                -115917.46875,
                -9456.435546875
            ],
            "type" : "VEC3"
        },
        {
            "bufferView" : 70,
            "componentType" : 5126,
            "count" : 8,
            "type" : "VEC3"
        },
        {
            "bufferView" : 71,
            "componentType" : 5126,
            "count" : 8,
            "type" : "VEC2"
        },
        {
            "bufferView" : 72,
            "componentType" : 5126,
            "count" : 8,
            "type" : "VEC2"
        },
        {
            "bufferView" : 73,
            "componentType" : 5123,
            "count" : 18,
            "type" : "SCALAR"
        },
        {
            "bufferView" : 74,
            "componentType" : 5126,
            "count" : 20,
            "max" : [
                -107757.25,
                -115025.46875,
                -9310.88671875
            ],
            "min" : [
                -110037.875,
                -118205.53125,
                -9456.6865234375
            ],
            "type" : "VEC3"
        },
        {
            "bufferView" : 75,
            "componentType" : 5126,
            "count" : 20,
            "type" : "VEC3"
        },
        {
            "bufferView" : 76,
            "componentType" : 5126,
            "count" : 20,
            "type" : "VEC2"
        },
        {
            "bufferView" : 77,
            "componentType" : 5126,
            "count" : 20,
            "type" : "VEC2"
        },
        {
            "bufferView" : 78,
            "componentType" : 5123,
            "count" : 30,
            "type" : "SCALAR"
        },
        {
            "bufferView" : 79,
            "componentType" : 5126,
            "count" : 4,
            "max" : [
                -108897,
                -113582,
                -9528.654296875
            ],
            "min" : [
                -110844,
                -115583,
                -9528.654296875
            ],
            "type" : "VEC3"
        },
        {
            "bufferView" : 80,
            "componentType" : 5126,
            "count" : 4,
            "type" : "VEC3"
        },
        {
            "bufferView" : 81,
            "componentType" : 5126,
            "count" : 4,
            "type" : "VEC2"
        },
        {
            "bufferView" : 82,
            "componentType" : 5123,
            "count" : 6,
            "type" : "SCALAR"
        },
        {
            "bufferView" : 83,
            "componentType" : 5126,
            "count" : 12,
            "max" : [
                -108824,
                -113520,
                -8969.54296875
            ],
            "min" : [
                -110902,
                -115645,
                -9031.201171875
            ],
            "type" : "VEC3"
        },
        {
            "bufferView" : 84,
            "componentType" : 5126,
            "count" : 12,
            "type" : "VEC3"
        },
        {
            "bufferView" : 85,
            "componentType" : 5126,
            "count" : 12,
            "type" : "VEC2"
        },
        {
            "bufferView" : 86,
            "componentType" : 5123,
            "count" : 18,
            "type" : "SCALAR"
        },
        {
            "bufferView" : 87,
            "componentType" : 5126,
            "count" : 28,
            "max" : [
                -108824,
                -113549,
                -8971.1494140625
            ],
            "min" : [
                -110860,
                -115648,
                -9528.654296875
            ],
            "type" : "VEC3"
        },
        {
            "bufferView" : 88,
            "componentType" : 5126,
            "count" : 28,
            "type" : "VEC3"
        },
        {
            "bufferView" : 89,
            "componentType" : 5126,
            "count" : 28,
            "type" : "VEC2"
        },
        {
            "bufferView" : 90,
            "componentType" : 5123,
            "count" : 48,
            "type" : "SCALAR"
        },
        {
            "bufferView" : 91,
            "componentType" : 5126,
            "count" : 8,
            "max" : [
                -108824,
                -113520,
                -9607.111328125
            ],
            "min" : [
                -110902,
                -115645,
                -9608.72265625
            ],
            "type" : "VEC3"
        },
        {
            "bufferView" : 92,
            "componentType" : 5126,
            "count" : 8,
            "type" : "VEC3"
        },
        {
            "bufferView" : 93,
            "componentType" : 5126,
            "count" : 8,
            "type" : "VEC2"
        },
        {
            "bufferView" : 94,
            "componentType" : 5123,
            "count" : 24,
            "type" : "SCALAR"
        },
        {
            "bufferView" : 95,
            "componentType" : 5126,
            "count" : 66,
            "max" : [
                -108824,
                -113520,
                -9029.59375
            ],
            "min" : [
                -110902,
                -115645,
                -9608.72265625
            ],
            "type" : "VEC3"
        },
        {
            "bufferView" : 96,
            "componentType" : 5126,
            "count" : 66,
            "type" : "VEC3"
        },
        {
            "bufferView" : 97,
            "componentType" : 5126,
            "count" : 66,
            "type" : "VEC2"
        },
        {
            "bufferView" : 98,
            "componentType" : 5123,
            "count" : 174,
            "type" : "SCALAR"
        },
        {
            "bufferView" : 99,
            "componentType" : 5126,
            "count" : 4,
            "max" : [
                -102811.15625,
                -111986.1875,
                -9166.5771484375
            ],
            "min" : [
                -113560.75,
                -120252.0625,
                -9166.5771484375
            ],
            "type" : "VEC3"
        },
        {
            "bufferView" : 100,
            "componentType" : 5126,
            "count" : 4,
            "type" : "VEC3"
        },
        {
            "bufferView" : 101,
            "componentType" : 5126,
            "count" : 4,
            "type" : "VEC2"
        }
    ],
    "bufferViews" : [
        {
            "buffer" : 0,
            "byteLength" : 288,
            "byteOffset" : 0
        },
        {
            "buffer" : 0,
            "byteLength" : 288,
            "byteOffset" : 288
        },
        {
            "buffer" : 0,
            "byteLength" : 192,
            "byteOffset" : 576
        },
        {
            "buffer" : 0,
            "byteLength" : 72,
            "byteOffset" : 768
        },
        {
            "buffer" : 0,
            "byteLength" : 48,
            "byteOffset" : 840
        },
        {
            "buffer" : 0,
            "byteLength" : 48,
            "byteOffset" : 888
        },
        {
            "buffer" : 0,
            "byteLength" : 32,
            "byteOffset" : 936
        },
        {
            "buffer" : 0,
            "byteLength" : 12,
            "byteOffset" : 968
        },
        {
            "buffer" : 0,
            "byteLength" : 192,
            "byteOffset" : 980
        },
        {
            "buffer" : 0,
            "byteLength" : 192,
            "byteOffset" : 1172
        },
        {
            "buffer" : 0,
            "byteLength" : 128,
            "byteOffset" : 1364
        },
        {
            "buffer" : 0,
            "byteLength" : 48,
            "byteOffset" : 1492
        },
        {
            "buffer" : 0,
            "byteLength" : 288,
            "byteOffset" : 1540
        },
        {
            "buffer" : 0,
            "byteLength" : 288,
            "byteOffset" : 1828
        },
        {
            "buffer" : 0,
            "byteLength" : 192,
            "byteOffset" : 2116
        },
        {
            "buffer" : 0,
            "byteLength" : 72,
            "byteOffset" : 2308
        },
        {
            "buffer" : 0,
            "byteLength" : 6720,
            "byteOffset" : 2380
        },
        {
            "buffer" : 0,
            "byteLength" : 6720,
            "byteOffset" : 9100
        },
        {
            "buffer" : 0,
            "byteLength" : 4480,
            "byteOffset" : 15820
        },
        {
            "buffer" : 0,
            "byteLength" : 2016,
            "byteOffset" : 20300
        },
        {
            "buffer" : 0,
            "byteLength" : 384,
            "byteOffset" : 22316
        },
        {
            "buffer" : 0,
            "byteLength" : 384,
            "byteOffset" : 22700
        },
        {
            "buffer" : 0,
            "byteLength" : 256,
            "byteOffset" : 23084
        },
        {
            "buffer" : 0,
            "byteLength" : 96,
            "byteOffset" : 23340
        },
        {
            "buffer" : 0,
            "byteLength" : 1728,
            "byteOffset" : 23436
        },
        {
            "buffer" : 0,
            "byteLength" : 1728,
            "byteOffset" : 25164
        },
        {
            "buffer" : 0,
            "byteLength" : 1152,
            "byteOffset" : 26892
        },
        {
            "buffer" : 0,
            "byteLength" : 432,
            "byteOffset" : 28044
        },
        {
            "buffer" : 0,
            "byteLength" : 240,
            "byteOffset" : 28476
        },
        {
            "buffer" : 0,
            "byteLength" : 240,
            "byteOffset" : 28716
        },
        {
            "buffer" : 0,
            "byteLength" : 160,
            "byteOffset" : 28956
        },
        {
            "buffer" : 0,
            "byteLength" : 60,
            "byteOffset" : 29116
        },
        {
            "buffer" : 0,
            "byteLength" : 1536,
            "byteOffset" : 29176
        },
        {
            "buffer" : 0,
            "byteLength" : 1536,
            "byteOffset" : 30712
        },
        {
            "buffer" : 0,
            "byteLength" : 1024,
            "byteOffset" : 32248
        },
        {
            "buffer" : 0,
            "byteLength" : 384,
            "byteOffset" : 33272
        },
        {
            "buffer" : 0,
            "byteLength" : 192,
            "byteOffset" : 33656
        },
        {
            "buffer" : 0,
            "byteLength" : 192,
            "byteOffset" : 33848
        },
        {
            "buffer" : 0,
            "byteLength" : 128,
            "byteOffset" : 34040
        },
        {
            "buffer" : 0,
            "byteLength" : 48,
            "byteOffset" : 34168
        },
        {
            "buffer" : 0,
            "byteLength" : 768,
            "byteOffset" : 34216
        },
        {
            "buffer" : 0,
            "byteLength" : 768,
            "byteOffset" : 34984
        },
        {
            "buffer" : 0,
            "byteLength" : 512,
            "byteOffset" : 35752
        },
        {
            "buffer" : 0,
            "byteLength" : 192,
            "byteOffset" : 36264
        },
        {
            "buffer" : 0,
            "byteLength" : 72,
            "byteOffset" : 36456
        },
        {
            "buffer" : 0,
            "byteLength" : 72,
            "byteOffset" : 36528
        },
        {
            "buffer" : 0,
            "byteLength" : 48,
            "byteOffset" : 36600
        },
        {
            "buffer" : 0,
            "byteLength" : 48,
            "byteOffset" : 36648
        },
        {
            "buffer" : 0,
            "byteLength" : 24,
            "byteOffset" : 36696
        },
        {
            "buffer" : 0,
            "byteLength" : 336,
            "byteOffset" : 36720
        },
        {
            "buffer" : 0,
            "byteLength" : 336,
            "byteOffset" : 37056
        },
        {
            "buffer" : 0,
            "byteLength" : 224,
            "byteOffset" : 37392
        },
        {
            "buffer" : 0,
            "byteLength" : 224,
            "byteOffset" : 37616
        },
        {
            "buffer" : 0,
            "byteLength" : 144,
            "byteOffset" : 37840
        },
        {
            "buffer" : 0,
            "byteLength" : 2580,
            "byteOffset" : 37984
        },
        {
            "buffer" : 0,
            "byteLength" : 2580,
            "byteOffset" : 40564
        },
        {
            "buffer" : 0,
            "byteLength" : 1720,
            "byteOffset" : 43144
        },
        {
            "buffer" : 0,
            "byteLength" : 1720,
            "byteOffset" : 44864
        },
        {
            "buffer" : 0,
            "byteLength" : 906,
            "byteOffset" : 46584
        },
        {
            "buffer" : 0,
            "byteLength" : 384,
            "byteOffset" : 47492
        },
        {
            "buffer" : 0,
            "byteLength" : 384,
            "byteOffset" : 47876
        },
        {
            "buffer" : 0,
            "byteLength" : 256,
            "byteOffset" : 48260
        },
        {
            "buffer" : 0,
            "byteLength" : 256,
            "byteOffset" : 48516
        },
        {
            "buffer" : 0,
            "byteLength" : 144,
            "byteOffset" : 48772
        },
        {
            "buffer" : 0,
            "byteLength" : 744,
            "byteOffset" : 48916
        },
        {
            "buffer" : 0,
            "byteLength" : 744,
            "byteOffset" : 49660
        },
        {
            "buffer" : 0,
            "byteLength" : 496,
            "byteOffset" : 50404
        },
        {
            "buffer" : 0,
            "byteLength" : 496,
            "byteOffset" : 50900
        },
        {
            "buffer" : 0,
            "byteLength" : 192,
            "byteOffset" : 51396
        },
        {
            "buffer" : 0,
            "byteLength" : 96,
            "byteOffset" : 51588
        },
        {
            "buffer" : 0,
            "byteLength" : 96,
            "byteOffset" : 51684
        },
        {
            "buffer" : 0,
            "byteLength" : 64,
            "byteOffset" : 51780
        },
        {
            "buffer" : 0,
            "byteLength" : 64,
            "byteOffset" : 51844
        },
        {
            "buffer" : 0,
            "byteLength" : 36,
            "byteOffset" : 51908
        },
        {
            "buffer" : 0,
            "byteLength" : 240,
            "byteOffset" : 51944
        },
        {
            "buffer" : 0,
            "byteLength" : 240,
            "byteOffset" : 52184
        },
        {
            "buffer" : 0,
            "byteLength" : 160,
            "byteOffset" : 52424
        },
        {
            "buffer" : 0,
            "byteLength" : 160,
            "byteOffset" : 52584
        },
        {
            "buffer" : 0,
            "byteLength" : 60,
            "byteOffset" : 52744
        },
        {
            "buffer" : 0,
            "byteLength" : 48,
            "byteOffset" : 52804
        },
        {
            "buffer" : 0,
            "byteLength" : 48,
            "byteOffset" : 52852
        },
        {
            "buffer" : 0,
            "byteLength" : 32,
            "byteOffset" : 52900
        },
        {
            "buffer" : 0,
            "byteLength" : 12,
            "byteOffset" : 52932
        },
        {
            "buffer" : 0,
            "byteLength" : 144,
            "byteOffset" : 52944
        },
        {
            "buffer" : 0,
            "byteLength" : 144,
            "byteOffset" : 53088
        },
        {
            "buffer" : 0,
            "byteLength" : 96,
            "byteOffset" : 53232
        },
        {
            "buffer" : 0,
            "byteLength" : 36,
            "byteOffset" : 53328
        },
        {
            "buffer" : 0,
            "byteLength" : 336,
            "byteOffset" : 53364
        },
        {
            "buffer" : 0,
            "byteLength" : 336,
            "byteOffset" : 53700
        },
        {
            "buffer" : 0,
            "byteLength" : 224,
            "byteOffset" : 54036
        },
        {
            "buffer" : 0,
            "byteLength" : 96,
            "byteOffset" : 54260
        },
        {
            "buffer" : 0,
            "byteLength" : 96,
            "byteOffset" : 54356
        },
        {
            "buffer" : 0,
            "byteLength" : 96,
            "byteOffset" : 54452
        },
        {
            "buffer" : 0,
            "byteLength" : 64,
            "byteOffset" : 54548
        },
        {
            "buffer" : 0,
            "byteLength" : 48,
            "byteOffset" : 54612
        },
        {
            "buffer" : 0,
            "byteLength" : 792,
            "byteOffset" : 54660
        },
        {
            "buffer" : 0,
            "byteLength" : 792,
            "byteOffset" : 55452
        },
        {
            "buffer" : 0,
            "byteLength" : 528,
            "byteOffset" : 56244
        },
        {
            "buffer" : 0,
            "byteLength" : 348,
            "byteOffset" : 56772
        },
        {
            "buffer" : 0,
            "byteLength" : 48,
            "byteOffset" : 57120
        },
        {
            "buffer" : 0,
            "byteLength" : 48,
            "byteOffset" : 57168
        },
        {
            "buffer" : 0,
            "byteLength" : 32,
            "byteOffset" : 57216
        }
    ],
    "samplers" : [
        {
            "magFilter" : 9729,
            "minFilter" : 9987
        }
    ],
    "buffers" : [
        {
            "byteLength" : 57248,
            "uri" : "zhonghaibeiyou.bin"
        }
    ]
}
