<?xml version="1.0" encoding="UTF-8"?>
<svg width="1920px" height="69px" viewBox="0 0 1920 69" version="1.1" xmlns="http://www.w3.org/2000/svg" xmlns:xlink="http://www.w3.org/1999/xlink">
    <title>head-bg</title>
    <defs>
        <polygon id="path-1" points="31.1445312 45 528 45 543.992188 57.3515625 675.258362 57.3515625 678.269165 66.5 1220.28516 66.5 1243 66.5 1246 57.3515625 1277.03641 57.3515625 1378.92188 57.3515625 1396.58203 45 1891.39844 45 1920 15.75 1920 3.69149156e-15 -6.66133815e-15 0 0 15.75"></polygon>
        <filter x="-1.1%" y="-31.6%" width="102.2%" height="163.2%" filterUnits="objectBoundingBox" id="filter-2">
            <feMorphology radius="3" operator="erode" in="SourceAlpha" result="shadowSpreadInner1"></feMorphology>
            <feGaussianBlur stdDeviation="14" in="shadowSpreadInner1" result="shadowBlurInner1"></feGaussianBlur>
            <feOffset dx="0" dy="-11" in="shadowBlurInner1" result="shadowOffsetInner1"></feOffset>
            <feComposite in="shadowOffsetInner1" in2="SourceAlpha" operator="arithmetic" k2="-1" k3="1" result="shadowInnerInner1"></feComposite>
            <feColorMatrix values="0 0 0 0 0.327910633   0 0 0 0 0.713157663   0 0 0 0 1  0 0 0 0.8 0" type="matrix" in="shadowInnerInner1"></feColorMatrix>
        </filter>
        <linearGradient x1="100%" y1="50%" x2="0%" y2="50%" id="linearGradient-3">
            <stop stop-color="#33ECFF" stop-opacity="0.3" offset="0%"></stop>
            <stop stop-color="#33ECFF" offset="100%"></stop>
        </linearGradient>
    </defs>
    <g id="页面-1" stroke="none" stroke-width="1" fill="none" fill-rule="evenodd">
        <g id="head-bg">
            <g id="直线">
                <use fill-opacity="0.5" fill="#0E5875" fill-rule="evenodd" xlink:href="#path-1"></use>
                <use fill="black" fill-opacity="1" filter="url(#filter-2)" xlink:href="#path-1"></use>
            </g>
            <path d="M1405.34933,48 L1391.28021,58 L1383.86304,58 L1398,48 L1405.34933,48 Z M1416.34933,48 L1402.28021,58 L1394.86304,58 L1409,48 L1416.34933,48 Z M1427.34933,48 L1413.28021,58 L1405.86304,58 L1420,48 L1427.34933,48 Z M1438.34933,48 L1424.28021,58 L1416.86304,58 L1431,48 L1438.34933,48 Z M1449.34933,48 L1435.28021,58 L1427.86304,58 L1442,48 L1449.34933,48 Z M1460.34933,48 L1446.28021,58 L1438.86304,58 L1453,48 L1460.34933,48 Z M1471.34933,48 L1457.28021,58 L1449.86304,58 L1464,48 L1471.34933,48 Z M1482.34933,48 L1468.28021,58 L1460.86304,58 L1475,48 L1482.34933,48 Z M1493.34933,48 L1479.28021,58 L1471.86304,58 L1486,48 L1493.34933,48 Z M1504.34933,48 L1490.28021,58 L1482.86304,58 L1497,48 L1504.34933,48 Z M1515.34933,48 L1501.28021,58 L1493.86304,58 L1508,48 L1515.34933,48 Z M1526.34933,48 L1512.28021,58 L1504.86304,58 L1519,48 L1526.34933,48 Z M1537.34933,48 L1523.28021,58 L1515.86304,58 L1530,48 L1537.34933,48 Z M1548.34933,48 L1534.28021,58 L1526.86304,58 L1541,48 L1548.34933,48 Z M1559.34933,48 L1545.28021,58 L1537.86304,58 L1552,48 L1559.34933,48 Z M1570.34933,48 L1556.28021,58 L1548.86304,58 L1563,48 L1570.34933,48 Z M1581.34933,48 L1567.28021,58 L1559.86304,58 L1574,48 L1581.34933,48 Z M1592.34933,48 L1578.28021,58 L1570.86304,58 L1585,48 L1592.34933,48 Z M1603.34933,48 L1589.28021,58 L1581.86304,58 L1596,48 L1603.34933,48 Z M1614.34933,48 L1600.28021,58 L1592.86304,58 L1607,48 L1614.34933,48 Z M1625.34933,48 L1611.28021,58 L1603.86304,58 L1618,48 L1625.34933,48 Z M1636.34933,48 L1622.28021,58 L1614.86304,58 L1629,48 L1636.34933,48 Z M1647.34933,48 L1633.28021,58 L1625.86304,58 L1640,48 L1647.34933,48 Z M1658.34933,48 L1644.28021,58 L1636.86304,58 L1651,48 L1658.34933,48 Z M1669.34933,48 L1655.28021,58 L1647.86304,58 L1662,48 L1669.34933,48 Z M1680.34933,48 L1666.28021,58 L1658.86304,58 L1673,48 L1680.34933,48 Z M1691.34933,48 L1677.28021,58 L1669.86304,58 L1684,48 L1691.34933,48 Z M1702.34933,48 L1688.28021,58 L1680.86304,58 L1695,48 L1702.34933,48 Z M1713.34933,48 L1699.28021,58 L1691.86304,58 L1706,48 L1713.34933,48 Z M1724.34933,48 L1710.28021,58 L1702.86304,58 L1717,48 L1724.34933,48 Z M1735.34933,48 L1721.28021,58 L1713.86304,58 L1728,48 L1735.34933,48 Z M1746.34933,48 L1732.28021,58 L1724.86304,58 L1739,48 L1746.34933,48 Z M1757.34933,48 L1743.28021,58 L1735.86304,58 L1750,48 L1757.34933,48 Z M1768.34933,48 L1754.28021,58 L1746.86304,58 L1761,48 L1768.34933,48 Z M1779.34933,48 L1765.28021,58 L1757.86304,58 L1772,48 L1779.34933,48 Z M1790.34933,48 L1776.28021,58 L1768.86304,58 L1783,48 L1790.34933,48 Z M1801.34933,48 L1787.28021,58 L1779.86304,58 L1794,48 L1801.34933,48 Z M1812.34933,48 L1798.28021,58 L1790.86304,58 L1805,48 L1812.34933,48 Z M1823.34933,48 L1809.28021,58 L1801.86304,58 L1816,48 L1823.34933,48 Z M1834.34933,48 L1820.28021,58 L1812.86304,58 L1827,48 L1834.34933,48 Z M1845.34933,48 L1831.28021,58 L1823.86304,58 L1838,48 L1845.34933,48 Z M1856.34933,48 L1842.28021,58 L1834.86304,58 L1849,48 L1856.34933,48 Z M1867.34933,48 L1853.28021,58 L1845.86304,58 L1860,48 L1867.34933,48 Z M1878.34933,48 L1864.28021,58 L1856.86304,58 L1871,48 L1878.34933,48 Z M1889.34933,48 L1875.28021,58 L1867.86304,58 L1882,48 L1889.34933,48 Z" id="形状结合" fill="url(#linearGradient-3)"></path>
            <path d="M55.3493347,48 L41.2802124,58 L33.8630371,58 L48,48 L55.3493347,48 Z M66.3493347,48 L52.2802124,58 L44.8630371,58 L59,48 L66.3493347,48 Z M77.3493347,48 L63.2802124,58 L55.8630371,58 L70,48 L77.3493347,48 Z M88.3493347,48 L74.2802124,58 L66.8630371,58 L81,48 L88.3493347,48 Z M99.3493347,48 L85.2802124,58 L77.8630371,58 L92,48 L99.3493347,48 Z M110.349335,48 L96.2802124,58 L88.8630371,58 L103,48 L110.349335,48 Z M121.349335,48 L107.280212,58 L99.8630371,58 L114,48 L121.349335,48 Z M132.349335,48 L118.280212,58 L110.863037,58 L125,48 L132.349335,48 Z M143.349335,48 L129.280212,58 L121.863037,58 L136,48 L143.349335,48 Z M154.349335,48 L140.280212,58 L132.863037,58 L147,48 L154.349335,48 Z M165.349335,48 L151.280212,58 L143.863037,58 L158,48 L165.349335,48 Z M176.349335,48 L162.280212,58 L154.863037,58 L169,48 L176.349335,48 Z M187.349335,48 L173.280212,58 L165.863037,58 L180,48 L187.349335,48 Z M198.349335,48 L184.280212,58 L176.863037,58 L191,48 L198.349335,48 Z M209.349335,48 L195.280212,58 L187.863037,58 L202,48 L209.349335,48 Z M220.349335,48 L206.280212,58 L198.863037,58 L213,48 L220.349335,48 Z M231.349335,48 L217.280212,58 L209.863037,58 L224,48 L231.349335,48 Z M242.349335,48 L228.280212,58 L220.863037,58 L235,48 L242.349335,48 Z M253.349335,48 L239.280212,58 L231.863037,58 L246,48 L253.349335,48 Z M264.349335,48 L250.280212,58 L242.863037,58 L257,48 L264.349335,48 Z M275.349335,48 L261.280212,58 L253.863037,58 L268,48 L275.349335,48 Z M286.349335,48 L272.280212,58 L264.863037,58 L279,48 L286.349335,48 Z M297.349335,48 L283.280212,58 L275.863037,58 L290,48 L297.349335,48 Z M308.349335,48 L294.280212,58 L286.863037,58 L301,48 L308.349335,48 Z M319.349335,48 L305.280212,58 L297.863037,58 L312,48 L319.349335,48 Z M330.349335,48 L316.280212,58 L308.863037,58 L323,48 L330.349335,48 Z M341.349335,48 L327.280212,58 L319.863037,58 L334,48 L341.349335,48 Z M352.349335,48 L338.280212,58 L330.863037,58 L345,48 L352.349335,48 Z M363.349335,48 L349.280212,58 L341.863037,58 L356,48 L363.349335,48 Z M374.349335,48 L360.280212,58 L352.863037,58 L367,48 L374.349335,48 Z M385.349335,48 L371.280212,58 L363.863037,58 L378,48 L385.349335,48 Z M396.349335,48 L382.280212,58 L374.863037,58 L389,48 L396.349335,48 Z M407.349335,48 L393.280212,58 L385.863037,58 L400,48 L407.349335,48 Z M418.349335,48 L404.280212,58 L396.863037,58 L411,48 L418.349335,48 Z M429.349335,48 L415.280212,58 L407.863037,58 L422,48 L429.349335,48 Z M440.349335,48 L426.280212,58 L418.863037,58 L433,48 L440.349335,48 Z M451.349335,48 L437.280212,58 L429.863037,58 L444,48 L451.349335,48 Z M462.349335,48 L448.280212,58 L440.863037,58 L455,48 L462.349335,48 Z M473.349335,48 L459.280212,58 L451.863037,58 L466,48 L473.349335,48 Z M484.349335,48 L470.280212,58 L462.863037,58 L477,48 L484.349335,48 Z M495.349335,48 L481.280212,58 L473.863037,58 L488,48 L495.349335,48 Z M506.349335,48 L492.280212,58 L484.863037,58 L499,48 L506.349335,48 Z M517.349335,48 L503.280212,58 L495.863037,58 L510,48 L517.349335,48 Z M528.349335,48 L514.280212,58 L506.863037,58 L521,48 L528.349335,48 Z M539.349335,48 L525.280212,58 L517.863037,58 L532,48 L539.349335,48 Z" id="形状结合备份" fill="url(#linearGradient-3)" transform="translate(286.606186, 53.000000) scale(-1, 1) translate(-286.606186, -53.000000) "></path>
            <path d="M31.1445312,45 L75.1206055,45 L75.9902344,45 M77.112793,45 L78.059082,45 M79.0129395,45 L80.1547852,45 M81.1220703,45 L82.2336426,45 M83.029541,45 L84.6923828,45 M86.1328125,45 L87.7402344,45 M89.2705078,45 L90.456543,45 M93.0834961,45 L94.2866211,45 M96.0791016,45 L97.2578125,45 M99.1689453,45 L100.73877,45 M102.869141,45 L103.907227,45 M104.980957,45 L105.946289,45 L528,45 L543.992188,57.3515625 L675.258362,57.3515625 L678.269165,66.5 L1243,66.5 L1246,57.3515625 L1378.92188,57.3515625 L1396.58203,45 L1708.0625,45 L1717.23828,45 L1727.30078,45 M1735.75781,45 L1743.61719,45 M1756.11719,45 L1766.27734,45 M1772.65625,45 L1782.47266,45 L1891.39844,45" id="形状" stroke="#33ECFF" stroke-linecap="square"></path>
            <rect id="矩形" fill="#33ECFF" x="715" y="64" width="490" height="5"></rect>
        </g>
    </g>
</svg>