<?xml version="1.0" encoding="UTF-8"?>
<svg width="129px" height="56px" viewBox="0 0 129 56" version="1.1" xmlns="http://www.w3.org/2000/svg" xmlns:xlink="http://www.w3.org/1999/xlink">
    <title>button-refresh</title>
    <defs>
        <linearGradient x1="50%" y1="0%" x2="50%" y2="100%" id="linearGradient-1">
            <stop stop-color="#4A90E2" stop-opacity="0" offset="0%"></stop>
            <stop stop-color="#16447A" offset="100%"></stop>
        </linearGradient>
        <linearGradient x1="50%" y1="0%" x2="50%" y2="100%" id="linearGradient-2">
            <stop stop-color="#80C3F3" stop-opacity="0" offset="0%"></stop>
            <stop stop-color="#4699FA" offset="100%"></stop>
        </linearGradient>
        <polygon id="path-3" points="11.6893085 -1.45661261e-13 116 -1.45661261e-13 106.032174 40 0 40"></polygon>
        <filter x="-7.2%" y="-15.0%" width="114.3%" height="140.0%" filterUnits="objectBoundingBox" id="filter-4">
            <feMorphology radius="1" operator="dilate" in="SourceAlpha" result="shadowSpreadOuter1"></feMorphology>
            <feOffset dx="0" dy="2" in="shadowSpreadOuter1" result="shadowOffsetOuter1"></feOffset>
            <feGaussianBlur stdDeviation="2" in="shadowOffsetOuter1" result="shadowBlurOuter1"></feGaussianBlur>
            <feComposite in="shadowBlurOuter1" in2="SourceAlpha" operator="out" result="shadowBlurOuter1"></feComposite>
            <feColorMatrix values="0 0 0 0 0   0 0 0 0 0   0 0 0 0 0  0 0 0 0.5 0" type="matrix" in="shadowBlurOuter1"></feColorMatrix>
        </filter>
        <linearGradient x1="50%" y1="0%" x2="50%" y2="100%" id="linearGradient-5">
            <stop stop-color="#041111" offset="0%"></stop>
            <stop stop-color="#0076FF" stop-opacity="0.5" offset="100%"></stop>
        </linearGradient>
        <polygon id="path-6" points="14.6893085 2 119 2 109.032174 42 3 42"></polygon>
        <filter x="-7.2%" y="-15.0%" width="114.3%" height="140.0%" filterUnits="objectBoundingBox" id="filter-7">
            <feMorphology radius="1" operator="dilate" in="SourceAlpha" result="shadowSpreadOuter1"></feMorphology>
            <feOffset dx="0" dy="2" in="shadowSpreadOuter1" result="shadowOffsetOuter1"></feOffset>
            <feGaussianBlur stdDeviation="2" in="shadowOffsetOuter1" result="shadowBlurOuter1"></feGaussianBlur>
            <feComposite in="shadowBlurOuter1" in2="SourceAlpha" operator="out" result="shadowBlurOuter1"></feComposite>
            <feColorMatrix values="0 0 0 0 0   0 0 0 0 0   0 0 0 0 0  0 0 0 0.5 0" type="matrix" in="shadowBlurOuter1"></feColorMatrix>
        </filter>
    </defs>
    <g id="页面-1" stroke="none" stroke-width="1" fill="none" fill-rule="evenodd">
        <g id="伊泰化工安全管理三维可视化系统1-3" transform="translate(-1787.000000, -103.000000)">
            <g id="button-map" transform="translate(1792.000000, 110.000000)">
                <g id="矩形备份-62" transform="translate(58.000000, 20.000000) scale(-1, -1) translate(-58.000000, -20.000000) ">
                    <use fill="black" fill-opacity="1" filter="url(#filter-4)" xlink:href="#path-3"></use>
                    <use stroke="url(#linearGradient-2)" stroke-width="2" fill="url(#linearGradient-1)" fill-rule="evenodd" xlink:href="#path-3"></use>
                </g>
                <g id="矩形">
                    <use fill="black" fill-opacity="1" filter="url(#filter-7)" xlink:href="#path-6"></use>
                    <use stroke="url(#linearGradient-2)" stroke-width="2" fill="url(#linearGradient-5)" fill-rule="evenodd" xlink:href="#path-6"></use>
                </g>
                <text id="模型地图" font-family="PingFangSC-Semibold, PingFang SC" font-size="14" font-weight="500"></text>
            </g>
        </g>
    </g>
</svg>