<?xml version="1.0" encoding="UTF-8"?>
<svg width="20px" height="20px" viewBox="0 0 20 20" version="1.1" xmlns="http://www.w3.org/2000/svg" xmlns:xlink="http://www.w3.org/1999/xlink">
    <title>right-bottom</title>
    <g id="页面-1" stroke="none" stroke-width="1" fill="none" fill-rule="evenodd">
        <g id="伊泰化工安全管理三维可视化系统1-3" transform="translate(-401.000000, -582.000000)" stroke="#08FFFF" stroke-width="3">
            <polyline id="right-bottom" transform="translate(410.000000, 591.000000) scale(-1, -1) translate(-410.000000, -591.000000) " points="401 600 401 582 419 582"></polyline>
        </g>
    </g>
</svg>