<?xml version="1.0" encoding="UTF-8"?>
<svg width="14px" height="46px" viewBox="0 0 14 46" version="1.1" xmlns="http://www.w3.org/2000/svg" xmlns:xlink="http://www.w3.org/1999/xlink">
    <title>title-bg</title>
    <g id="页面-1" stroke="none" stroke-width="1" fill="none" fill-rule="evenodd">
        <polyline id="title-bg" stroke="#44D7B6" stroke-width="4" points="13.7753906 44 2 44 2 2 13.7753906 2"></polyline>
    </g>
</svg>