<?xml version="1.0" encoding="UTF-8"?>
<svg width="987px" height="371px" viewBox="0 0 987 371" version="1.1" xmlns="http://www.w3.org/2000/svg" xmlns:xlink="http://www.w3.org/1999/xlink">
    <title>作业详情框</title>
    <defs>
        <linearGradient x1="0%" y1="50.024337%" x2="100%" y2="50%" id="linearGradient-1">
            <stop stop-color="#4A90E2" offset="0%"></stop>
            <stop stop-color="#4A90E2" stop-opacity="0" offset="100%"></stop>
        </linearGradient>
        <linearGradient x1="0%" y1="50%" x2="100%" y2="50%" id="linearGradient-2">
            <stop stop-color="#08FFFF" offset="0%"></stop>
            <stop stop-color="#08FFFF" stop-opacity="0" offset="100%"></stop>
        </linearGradient>
    </defs>
    <g id="页面-1" stroke="none" stroke-width="1" fill="none" fill-rule="evenodd">
        <g id="作业详情框" transform="translate(1.000000, 1.000000)">
            <path d="M971.082622,25.5 L983.5,36.9155886 L983.5,356.757039 L971.104546,366.5 L0.5,366.5 L0.5,40.0301208 L901.539816,40.0301208 L910.744148,25.5 L971.082622,25.5 Z" id="矩形备份-52" stroke="#0DF4FB" fill-opacity="0.5" fill="#0D0C0C"></path>
            <rect id="矩形备份-58" stroke="url(#linearGradient-2)" fill="url(#linearGradient-1)" x="0" y="0" width="866" height="40"></rect>
            <polyline id="路径备份" stroke="#08FFFF" stroke-width="3" transform="translate(10.000000, 359.000000) scale(1, -1) translate(-10.000000, -359.000000) " points="1 368 1 350 19 350"></polyline>
            <polygon id="矩形" fill="#16BACD" points="898.94952 26 905.990265 26 899 38.165947 892.213524 38.165947"></polygon>
            <polygon id="矩形备份-4" fill="#16BACD" points="888.94952 26 895.990265 26 889 38.165947 882.213524 38.165947"></polygon>
            <polygon id="矩形备份-5" fill="#16BACD" points="878.94952 26 885.990265 26 879 38.165947 872.213524 38.165947"></polygon>
            <polyline id="路径-85" stroke="#09FBFE" stroke-width="3" points="956.015594 26.4698792 973.04438 26.4698792 984 38.165947 984 54.1370239"></polyline>
            <polyline id="路径-86" stroke="#09FBFE" stroke-width="3" points="984 338.097623 984 355.224007 973.272644 366 956.010803 366"></polyline>
        </g>
    </g>
</svg>